region;zone;instance;dayOfWeek;hourOfDay;additionAllowed;censored;initTime;endTime;timeToRevocation;skipRecords;initValue;endValue
us-west-1;us-west-1b;m5d.large;04;20;1.0;0;1533769972000;1533817271000;000788;00001;0.0293;0.0303
us-west-1;us-west-1b;m5d.large;04;21;0.0;0;1533773572000;1533817271000;000728;00000;0.0293;0.0303
us-west-1;us-west-1b;m5d.large;04;22;0.0;0;1533777172000;1533817271000;000668;00000;0.0293;0.0303
us-west-1;us-west-1b;m5d.large;04;23;0.0;0;1533780772000;1533817271000;000608;00000;0.0293;0.0303
us-west-1;us-west-1b;m5d.large;05;00;0.0;0;1533784372000;1533817271000;000548;00000;0.0293;0.0303
us-west-1;us-west-1b;m5d.large;05;01;0.0;0;1533787972000;1533817271000;000488;00000;0.0293;0.0303
us-west-1;us-west-1b;m5d.large;05;02;0.0;0;1533791572000;1533817271000;000428;00000;0.0293;0.0303
us-west-1;us-west-1b;m5d.large;05;03;0.0;0;1533795172000;1533817271000;000368;00000;0.0293;0.0303
us-west-1;us-west-1b;m5d.large;05;04;0.0;0;1533798772000;1533817271000;000308;00000;0.0293;0.0303
us-west-1;us-west-1b;m5d.large;05;05;0.0;0;1533802372000;1533817271000;000248;00000;0.0293;0.0303
us-west-1;us-west-1b;m5d.large;05;06;0.0;0;1533805972000;1533817271000;000188;00000;0.0293;0.0303
us-west-1;us-west-1b;m5d.large;05;07;0.0;0;1533809572000;1533817271000;000128;00000;0.0293;0.0303
us-west-1;us-west-1b;m5d.large;05;08;0.0;0;1533813172000;1533817271000;000068;00000;0.0293;0.0303
us-west-1;us-west-1b;m5d.large;05;09;1.0;0;1533817271000;1533843763000;000441;00001;0.0303;0.0316
us-west-1;us-west-1b;m5d.large;05;10;0.0;0;1533820871000;1533843763000;000381;00000;0.0303;0.0316
us-west-1;us-west-1b;m5d.large;05;11;0.0;0;1533824471000;1533843763000;000321;00000;0.0303;0.0316
us-west-1;us-west-1b;m5d.large;05;12;0.0;0;1533828071000;1533843763000;000261;00000;0.0303;0.0316
us-west-1;us-west-1b;m5d.large;05;13;0.0;0;1533831671000;1533843763000;000201;00000;0.0303;0.0316
us-west-1;us-west-1b;m5d.large;05;14;0.0;0;1533835271000;1533843763000;000141;00000;0.0303;0.0316
us-west-1;us-west-1b;m5d.large;05;15;0.0;0;1533838871000;1533843763000;000081;00000;0.0303;0.0316
us-west-1;us-west-1b;m5d.large;05;16;1.0;0;1533843763000;1533863381000;000326;00001;0.0316;0.0323
us-west-1;us-west-1b;m5d.large;05;17;0.0;0;1533847363000;1533863381000;000266;00000;0.0316;0.0323
us-west-1;us-west-1b;m5d.large;05;18;0.0;0;1533850963000;1533863381000;000206;00000;0.0316;0.0323
us-west-1;us-west-1b;m5d.large;05;19;0.0;0;1533854563000;1533863381000;000146;00000;0.0316;0.0323
us-west-1;us-west-1b;m5d.large;05;20;0.0;0;1533858163000;1533863381000;000086;00000;0.0316;0.0323
us-west-1;us-west-1b;m5d.large;05;22;1.0;1;1533863381000;1540946554000;118052;00120;0.0323;0.0323
us-west-1;us-west-1b;m5d.large;06;22;1.0;1;1533949832000;1540946554000;116612;00119;0.0323;0.0323
us-west-1;us-west-1b;m5d.large;07;22;1.0;1;1534036253000;1540946554000;115171;00118;0.0323;0.0323
us-west-1;us-west-1b;m5d.large;01;22;1.0;1;1534122684000;1540946554000;113731;00117;0.0323;0.0323
us-west-1;us-west-1b;m5d.large;02;05;1.0;1;1534148129000;1540946554000;113307;00116;0.0323;0.0323
us-west-1;us-west-1b;m5d.large;03;05;1.0;1;1534234585000;1540946554000;111866;00115;0.0323;0.0323
us-west-1;us-west-1b;m5d.large;04;05;1.0;1;1534320989000;1540946554000;110426;00114;0.0323;0.0323
us-west-1;us-west-1b;m5d.large;05;02;1.0;1;1534397508000;1540946554000;109150;00113;0.0323;0.0323
us-west-1;us-west-1b;m5d.large;05;02;1.0;1;1534397508000;1540946554000;109150;00112;0.0323;0.0323
us-west-1;us-west-1b;m5d.large;06;00;1.0;0;1534477403000;1535059012000;009693;00010;0.0315;0.0323
us-west-1;us-west-1b;m5d.large;06;01;0.0;0;1534481003000;1535059012000;009633;00000;0.0315;0.0323
us-west-1;us-west-1b;m5d.large;06;02;0.0;0;1534484603000;1535059012000;009573;00000;0.0315;0.0323
us-west-1;us-west-1b;m5d.large;06;03;0.0;0;1534488203000;1535059012000;009513;00000;0.0315;0.0323
us-west-1;us-west-1b;m5d.large;06;04;0.0;0;1534491803000;1535059012000;009453;00000;0.0315;0.0323
us-west-1;us-west-1b;m5d.large;06;05;0.0;0;1534495403000;1535059012000;009393;00000;0.0315;0.0323
us-west-1;us-west-1b;m5d.large;06;06;0.0;0;1534499003000;1535059012000;009333;00000;0.0315;0.0323
us-west-1;us-west-1b;m5d.large;06;07;0.0;0;1534502603000;1535059012000;009273;00000;0.0315;0.0323
us-west-1;us-west-1b;m5d.large;06;08;0.0;0;1534506203000;1535059012000;009213;00000;0.0315;0.0323
us-west-1;us-west-1b;m5d.large;06;09;0.0;0;1534509803000;1535059012000;009153;00000;0.0315;0.0323
us-west-1;us-west-1b;m5d.large;06;10;0.0;0;1534513403000;1535059012000;009093;00000;0.0315;0.0323
us-west-1;us-west-1b;m5d.large;06;11;0.0;0;1534517003000;1535059012000;009033;00000;0.0315;0.0323
us-west-1;us-west-1b;m5d.large;06;12;0.0;0;1534520603000;1535059012000;008973;00000;0.0315;0.0323
us-west-1;us-west-1b;m5d.large;06;13;0.0;0;1534524203000;1535059012000;008913;00000;0.0315;0.0323
us-west-1;us-west-1b;m5d.large;06;14;0.0;0;1534527803000;1535059012000;008853;00000;0.0315;0.0323
us-west-1;us-west-1b;m5d.large;06;15;0.0;0;1534531403000;1535059012000;008793;00000;0.0315;0.0323
us-west-1;us-west-1b;m5d.large;06;16;0.0;0;1534535003000;1535059012000;008733;00000;0.0315;0.0323
us-west-1;us-west-1b;m5d.large;06;17;0.0;0;1534538603000;1535059012000;008673;00000;0.0315;0.0323
us-west-1;us-west-1b;m5d.large;06;18;0.0;0;1534542203000;1535059012000;008613;00000;0.0315;0.0323
us-west-1;us-west-1b;m5d.large;06;19;0.0;0;1534545803000;1535059012000;008553;00000;0.0315;0.0323
us-west-1;us-west-1b;m5d.large;06;20;0.0;0;1534549403000;1535059012000;008493;00000;0.0315;0.0323
us-west-1;us-west-1b;m5d.large;06;21;0.0;0;1534553003000;1535059012000;008433;00000;0.0315;0.0323
us-west-1;us-west-1b;m5d.large;06;22;0.0;0;1534556603000;1535059012000;008373;00000;0.0315;0.0323
us-west-1;us-west-1b;m5d.large;06;23;0.0;0;1534560203000;1535059012000;008313;00000;0.0315;0.0323
us-west-1;us-west-1b;m5d.large;07;00;0.0;0;1534563803000;1535059012000;008253;00000;0.0315;0.0323
us-west-1;us-west-1b;m5d.large;07;01;0.0;0;1534567403000;1535059012000;008193;00000;0.0315;0.0323
us-west-1;us-west-1b;m5d.large;07;02;0.0;0;1534571003000;1535059012000;008133;00000;0.0315;0.0323
us-west-1;us-west-1b;m5d.large;07;03;0.0;0;1534574603000;1535059012000;008073;00000;0.0315;0.0323
us-west-1;us-west-1b;m5d.large;07;04;0.0;0;1534578203000;1535059012000;008013;00000;0.0315;0.0323
us-west-1;us-west-1b;m5d.large;07;05;0.0;0;1534581803000;1535059012000;007953;00000;0.0315;0.0323
us-west-1;us-west-1b;m5d.large;07;06;0.0;0;1534585403000;1535059012000;007893;00000;0.0315;0.0323
us-west-1;us-west-1b;m5d.large;07;07;0.0;0;1534589003000;1535059012000;007833;00000;0.0315;0.0323
us-west-1;us-west-1b;m5d.large;07;08;0.0;0;1534592603000;1535059012000;007773;00000;0.0315;0.0323
us-west-1;us-west-1b;m5d.large;07;09;0.0;0;1534596203000;1535059012000;007713;00000;0.0315;0.0323
us-west-1;us-west-1b;m5d.large;07;10;0.0;0;1534599803000;1535059012000;007653;00000;0.0315;0.0323
us-west-1;us-west-1b;m5d.large;07;11;0.0;0;1534603403000;1535059012000;007593;00000;0.0315;0.0323
us-west-1;us-west-1b;m5d.large;07;12;0.0;0;1534607003000;1535059012000;007533;00000;0.0315;0.0323
us-west-1;us-west-1b;m5d.large;07;13;0.0;0;1534610603000;1535059012000;007473;00000;0.0315;0.0323
us-west-1;us-west-1b;m5d.large;07;14;0.0;0;1534614203000;1535059012000;007413;00000;0.0315;0.0323
us-west-1;us-west-1b;m5d.large;07;15;0.0;0;1534617803000;1535059012000;007353;00000;0.0315;0.0323
us-west-1;us-west-1b;m5d.large;07;16;0.0;0;1534621403000;1535059012000;007293;00000;0.0315;0.0323
us-west-1;us-west-1b;m5d.large;07;17;0.0;0;1534625003000;1535059012000;007233;00000;0.0315;0.0323
us-west-1;us-west-1b;m5d.large;07;18;0.0;0;1534628603000;1535059012000;007173;00000;0.0315;0.0323
us-west-1;us-west-1b;m5d.large;07;19;0.0;0;1534632203000;1535059012000;007113;00000;0.0315;0.0323
us-west-1;us-west-1b;m5d.large;07;20;0.0;0;1534635803000;1535059012000;007053;00000;0.0315;0.0323
us-west-1;us-west-1b;m5d.large;07;21;0.0;0;1534639403000;1535059012000;006993;00000;0.0315;0.0323
us-west-1;us-west-1b;m5d.large;07;22;0.0;0;1534643003000;1535059012000;006933;00000;0.0315;0.0323
us-west-1;us-west-1b;m5d.large;07;23;0.0;0;1534646603000;1535059012000;006873;00000;0.0315;0.0323
us-west-1;us-west-1b;m5d.large;01;00;0.0;0;1534650203000;1535059012000;006813;00000;0.0315;0.0323
us-west-1;us-west-1b;m5d.large;01;01;0.0;0;1534653803000;1535059012000;006753;00000;0.0315;0.0323
us-west-1;us-west-1b;m5d.large;01;02;0.0;0;1534657403000;1535059012000;006693;00000;0.0315;0.0323
us-west-1;us-west-1b;m5d.large;01;03;0.0;0;1534661003000;1535059012000;006633;00000;0.0315;0.0323
us-west-1;us-west-1b;m5d.large;01;04;0.0;0;1534664603000;1535059012000;006573;00000;0.0315;0.0323
us-west-1;us-west-1b;m5d.large;01;05;0.0;0;1534668203000;1535059012000;006513;00000;0.0315;0.0323
us-west-1;us-west-1b;m5d.large;01;06;0.0;0;1534671803000;1535059012000;006453;00000;0.0315;0.0323
us-west-1;us-west-1b;m5d.large;01;07;0.0;0;1534675403000;1535059012000;006393;00000;0.0315;0.0323
us-west-1;us-west-1b;m5d.large;01;08;0.0;0;1534679003000;1535059012000;006333;00000;0.0315;0.0323
us-west-1;us-west-1b;m5d.large;01;09;0.0;0;1534682603000;1535059012000;006273;00000;0.0315;0.0323
us-west-1;us-west-1b;m5d.large;01;10;0.0;0;1534686203000;1535059012000;006213;00000;0.0315;0.0323
us-west-1;us-west-1b;m5d.large;01;11;0.0;0;1534689803000;1535059012000;006153;00000;0.0315;0.0323
us-west-1;us-west-1b;m5d.large;01;12;0.0;0;1534693403000;1535059012000;006093;00000;0.0315;0.0323
us-west-1;us-west-1b;m5d.large;01;13;0.0;0;1534697003000;1535059012000;006033;00000;0.0315;0.0323
us-west-1;us-west-1b;m5d.large;01;14;0.0;0;1534700603000;1535059012000;005973;00000;0.0315;0.0323
us-west-1;us-west-1b;m5d.large;01;15;0.0;0;1534704203000;1535059012000;005913;00000;0.0315;0.0323
us-west-1;us-west-1b;m5d.large;01;16;0.0;0;1534707803000;1535059012000;005853;00000;0.0315;0.0323
us-west-1;us-west-1b;m5d.large;01;17;0.0;0;1534711403000;1535059012000;005793;00000;0.0315;0.0323
us-west-1;us-west-1b;m5d.large;01;18;0.0;0;1534715003000;1535059012000;005733;00000;0.0315;0.0323
us-west-1;us-west-1b;m5d.large;01;19;0.0;0;1534718603000;1535059012000;005673;00000;0.0315;0.0323
us-west-1;us-west-1b;m5d.large;01;20;0.0;0;1534722203000;1535059012000;005613;00000;0.0315;0.0323
us-west-1;us-west-1b;m5d.large;01;21;0.0;0;1534725803000;1535059012000;005553;00000;0.0315;0.0323
us-west-1;us-west-1b;m5d.large;01;22;0.0;0;1534729403000;1535059012000;005493;00000;0.0315;0.0323
us-west-1;us-west-1b;m5d.large;01;23;0.0;0;1534733003000;1535059012000;005433;00000;0.0315;0.0323
us-west-1;us-west-1b;m5d.large;02;00;0.0;0;1534736603000;1535059012000;005373;00000;0.0315;0.0323
us-west-1;us-west-1b;m5d.large;02;01;0.0;0;1534740203000;1535059012000;005313;00000;0.0315;0.0323
us-west-1;us-west-1b;m5d.large;02;02;0.0;0;1534743803000;1535059012000;005253;00000;0.0315;0.0323
us-west-1;us-west-1b;m5d.large;02;03;0.0;0;1534747403000;1535059012000;005193;00000;0.0315;0.0323
us-west-1;us-west-1b;m5d.large;02;04;0.0;0;1534751003000;1535059012000;005133;00000;0.0315;0.0323
us-west-1;us-west-1b;m5d.large;02;05;0.0;0;1534754603000;1535059012000;005073;00000;0.0315;0.0323
us-west-1;us-west-1b;m5d.large;02;06;0.0;0;1534758203000;1535059012000;005013;00000;0.0315;0.0323
us-west-1;us-west-1b;m5d.large;02;07;0.0;0;1534761803000;1535059012000;004953;00000;0.0315;0.0323
us-west-1;us-west-1b;m5d.large;02;08;0.0;0;1534765403000;1535059012000;004893;00000;0.0315;0.0323
us-west-1;us-west-1b;m5d.large;02;09;0.0;0;1534769003000;1535059012000;004833;00000;0.0315;0.0323
us-west-1;us-west-1b;m5d.large;02;10;0.0;0;1534772603000;1535059012000;004773;00000;0.0315;0.0323
us-west-1;us-west-1b;m5d.large;02;11;0.0;0;1534776203000;1535059012000;004713;00000;0.0315;0.0323
us-west-1;us-west-1b;m5d.large;02;12;0.0;0;1534779803000;1535059012000;004653;00000;0.0315;0.0323
us-west-1;us-west-1b;m5d.large;02;13;0.0;0;1534783403000;1535059012000;004593;00000;0.0315;0.0323
us-west-1;us-west-1b;m5d.large;02;14;0.0;0;1534787003000;1535059012000;004533;00000;0.0315;0.0323
us-west-1;us-west-1b;m5d.large;02;15;0.0;0;1534790603000;1535059012000;004473;00000;0.0315;0.0323
us-west-1;us-west-1b;m5d.large;02;16;0.0;0;1534794203000;1535059012000;004413;00000;0.0315;0.0323
us-west-1;us-west-1b;m5d.large;02;17;0.0;0;1534797803000;1535059012000;004353;00000;0.0315;0.0323
us-west-1;us-west-1b;m5d.large;02;18;0.0;0;1534801403000;1535059012000;004293;00000;0.0315;0.0323
us-west-1;us-west-1b;m5d.large;02;19;0.0;0;1534805003000;1535059012000;004233;00000;0.0315;0.0323
us-west-1;us-west-1b;m5d.large;02;20;0.0;0;1534808603000;1535059012000;004173;00000;0.0315;0.0323
us-west-1;us-west-1b;m5d.large;02;21;0.0;0;1534812203000;1535059012000;004113;00000;0.0315;0.0323
us-west-1;us-west-1b;m5d.large;02;22;0.0;0;1534815803000;1535059012000;004053;00000;0.0315;0.0323
us-west-1;us-west-1b;m5d.large;02;23;0.0;0;1534819403000;1535059012000;003993;00000;0.0315;0.0323
us-west-1;us-west-1b;m5d.large;03;00;0.0;0;1534823003000;1535059012000;003933;00000;0.0315;0.0323
us-west-1;us-west-1b;m5d.large;03;01;0.0;0;1534826603000;1535059012000;003873;00000;0.0315;0.0323
us-west-1;us-west-1b;m5d.large;03;02;0.0;0;1534830203000;1535059012000;003813;00000;0.0315;0.0323
us-west-1;us-west-1b;m5d.large;03;03;0.0;0;1534833803000;1535059012000;003753;00000;0.0315;0.0323
us-west-1;us-west-1b;m5d.large;03;04;0.0;0;1534837403000;1535059012000;003693;00000;0.0315;0.0323
us-west-1;us-west-1b;m5d.large;03;05;0.0;0;1534841003000;1535059012000;003633;00000;0.0315;0.0323
us-west-1;us-west-1b;m5d.large;03;06;0.0;0;1534844603000;1535059012000;003573;00000;0.0315;0.0323
us-west-1;us-west-1b;m5d.large;03;07;0.0;0;1534848203000;1535059012000;003513;00000;0.0315;0.0323
us-west-1;us-west-1b;m5d.large;03;08;0.0;0;1534851803000;1535059012000;003453;00000;0.0315;0.0323
us-west-1;us-west-1b;m5d.large;03;09;0.0;0;1534855403000;1535059012000;003393;00000;0.0315;0.0323
us-west-1;us-west-1b;m5d.large;03;10;0.0;0;1534859003000;1535059012000;003333;00000;0.0315;0.0323
us-west-1;us-west-1b;m5d.large;03;11;0.0;0;1534862603000;1535059012000;003273;00000;0.0315;0.0323
us-west-1;us-west-1b;m5d.large;03;12;0.0;0;1534866203000;1535059012000;003213;00000;0.0315;0.0323
us-west-1;us-west-1b;m5d.large;03;13;0.0;0;1534869803000;1535059012000;003153;00000;0.0315;0.0323
us-west-1;us-west-1b;m5d.large;03;14;0.0;0;1534873403000;1535059012000;003093;00000;0.0315;0.0323
us-west-1;us-west-1b;m5d.large;03;15;0.0;0;1534877003000;1535059012000;003033;00000;0.0315;0.0323
us-west-1;us-west-1b;m5d.large;03;16;0.0;0;1534880603000;1535059012000;002973;00000;0.0315;0.0323
us-west-1;us-west-1b;m5d.large;03;17;0.0;0;1534884203000;1535059012000;002913;00000;0.0315;0.0323
us-west-1;us-west-1b;m5d.large;03;18;0.0;0;1534887803000;1535059012000;002853;00000;0.0315;0.0323
us-west-1;us-west-1b;m5d.large;03;19;0.0;0;1534891403000;1535059012000;002793;00000;0.0315;0.0323
us-west-1;us-west-1b;m5d.large;03;20;0.0;0;1534895003000;1535059012000;002733;00000;0.0315;0.0323
us-west-1;us-west-1b;m5d.large;03;21;0.0;0;1534898603000;1535059012000;002673;00000;0.0315;0.0323
us-west-1;us-west-1b;m5d.large;03;22;0.0;0;1534902203000;1535059012000;002613;00000;0.0315;0.0323
us-west-1;us-west-1b;m5d.large;03;23;0.0;0;1534905803000;1535059012000;002553;00000;0.0315;0.0323
us-west-1;us-west-1b;m5d.large;04;00;0.0;0;1534909403000;1535059012000;002493;00000;0.0315;0.0323
us-west-1;us-west-1b;m5d.large;04;01;0.0;0;1534913003000;1535059012000;002433;00000;0.0315;0.0323
us-west-1;us-west-1b;m5d.large;04;02;0.0;0;1534916603000;1535059012000;002373;00000;0.0315;0.0323
us-west-1;us-west-1b;m5d.large;04;03;0.0;0;1534920203000;1535059012000;002313;00000;0.0315;0.0323
us-west-1;us-west-1b;m5d.large;04;04;0.0;0;1534923803000;1535059012000;002253;00000;0.0315;0.0323
us-west-1;us-west-1b;m5d.large;04;05;0.0;0;1534927403000;1535059012000;002193;00000;0.0315;0.0323
us-west-1;us-west-1b;m5d.large;04;06;0.0;0;1534931003000;1535059012000;002133;00000;0.0315;0.0323
us-west-1;us-west-1b;m5d.large;04;07;0.0;0;1534934603000;1535059012000;002073;00000;0.0315;0.0323
us-west-1;us-west-1b;m5d.large;04;08;0.0;0;1534938203000;1535059012000;002013;00000;0.0315;0.0323
us-west-1;us-west-1b;m5d.large;04;09;0.0;0;1534941803000;1535059012000;001953;00000;0.0315;0.0323
us-west-1;us-west-1b;m5d.large;04;10;0.0;0;1534945403000;1535059012000;001893;00000;0.0315;0.0323
us-west-1;us-west-1b;m5d.large;04;11;0.0;0;1534949003000;1535059012000;001833;00000;0.0315;0.0323
us-west-1;us-west-1b;m5d.large;04;12;0.0;0;1534952603000;1535059012000;001773;00000;0.0315;0.0323
us-west-1;us-west-1b;m5d.large;04;13;0.0;0;1534956203000;1535059012000;001713;00000;0.0315;0.0323
us-west-1;us-west-1b;m5d.large;04;14;0.0;0;1534959803000;1535059012000;001653;00000;0.0315;0.0323
us-west-1;us-west-1b;m5d.large;04;15;0.0;0;1534963403000;1535059012000;001593;00000;0.0315;0.0323
us-west-1;us-west-1b;m5d.large;04;16;0.0;0;1534967003000;1535059012000;001533;00000;0.0315;0.0323
us-west-1;us-west-1b;m5d.large;04;17;0.0;0;1534970603000;1535059012000;001473;00000;0.0315;0.0323
us-west-1;us-west-1b;m5d.large;04;18;0.0;0;1534974203000;1535059012000;001413;00000;0.0315;0.0323
us-west-1;us-west-1b;m5d.large;04;19;0.0;0;1534977803000;1535059012000;001353;00000;0.0315;0.0323
us-west-1;us-west-1b;m5d.large;04;20;0.0;0;1534981403000;1535059012000;001293;00000;0.0315;0.0323
us-west-1;us-west-1b;m5d.large;04;21;0.0;0;1534985003000;1535059012000;001233;00000;0.0315;0.0323
us-west-1;us-west-1b;m5d.large;04;22;0.0;0;1534988603000;1535059012000;001173;00000;0.0315;0.0323
us-west-1;us-west-1b;m5d.large;04;23;0.0;0;1534992203000;1535059012000;001113;00000;0.0315;0.0323
us-west-1;us-west-1b;m5d.large;05;00;0.0;0;1534995803000;1535059012000;001053;00000;0.0315;0.0323
us-west-1;us-west-1b;m5d.large;05;01;0.0;0;1534999403000;1535059012000;000993;00000;0.0315;0.0323
us-west-1;us-west-1b;m5d.large;05;02;0.0;0;1535003003000;1535059012000;000933;00000;0.0315;0.0323
us-west-1;us-west-1b;m5d.large;05;03;0.0;0;1535006603000;1535059012000;000873;00000;0.0315;0.0323
us-west-1;us-west-1b;m5d.large;05;04;0.0;0;1535010203000;1535059012000;000813;00000;0.0315;0.0323
us-west-1;us-west-1b;m5d.large;05;05;0.0;0;1535013803000;1535059012000;000753;00000;0.0315;0.0323
us-west-1;us-west-1b;m5d.large;05;06;0.0;0;1535017403000;1535059012000;000693;00000;0.0315;0.0323
us-west-1;us-west-1b;m5d.large;05;07;0.0;0;1535021003000;1535059012000;000633;00000;0.0315;0.0323
us-west-1;us-west-1b;m5d.large;05;08;0.0;0;1535024603000;1535059012000;000573;00000;0.0315;0.0323
us-west-1;us-west-1b;m5d.large;05;09;0.0;0;1535028203000;1535059012000;000513;00000;0.0315;0.0323
us-west-1;us-west-1b;m5d.large;05;10;0.0;0;1535031803000;1535059012000;000453;00000;0.0315;0.0323
us-west-1;us-west-1b;m5d.large;05;11;0.0;0;1535035403000;1535059012000;000393;00000;0.0315;0.0323
us-west-1;us-west-1b;m5d.large;05;12;0.0;0;1535039003000;1535059012000;000333;00000;0.0315;0.0323
us-west-1;us-west-1b;m5d.large;05;13;0.0;0;1535042603000;1535059012000;000273;00000;0.0315;0.0323
us-west-1;us-west-1b;m5d.large;05;14;0.0;0;1535046203000;1535059012000;000213;00000;0.0315;0.0323
us-west-1;us-west-1b;m5d.large;05;15;0.0;0;1535049803000;1535059012000;000153;00000;0.0315;0.0323
us-west-1;us-west-1b;m5d.large;05;16;0.0;0;1535053403000;1535059012000;000093;00000;0.0315;0.0323
us-west-1;us-west-1b;m5d.large;06;05;1.0;0;1534495451000;1535059012000;009392;00009;0.0314;0.0323
us-west-1;us-west-1b;m5d.large;06;06;0.0;0;1534499051000;1535059012000;009332;00000;0.0314;0.0323
us-west-1;us-west-1b;m5d.large;06;07;0.0;0;1534502651000;1535059012000;009272;00000;0.0314;0.0323
us-west-1;us-west-1b;m5d.large;06;08;0.0;0;1534506251000;1535059012000;009212;00000;0.0314;0.0323
us-west-1;us-west-1b;m5d.large;06;09;0.0;0;1534509851000;1535059012000;009152;00000;0.0314;0.0323
us-west-1;us-west-1b;m5d.large;06;10;0.0;0;1534513451000;1535059012000;009092;00000;0.0314;0.0323
us-west-1;us-west-1b;m5d.large;06;11;0.0;0;1534517051000;1535059012000;009032;00000;0.0314;0.0323
us-west-1;us-west-1b;m5d.large;06;12;0.0;0;1534520651000;1535059012000;008972;00000;0.0314;0.0323
us-west-1;us-west-1b;m5d.large;06;13;0.0;0;1534524251000;1535059012000;008912;00000;0.0314;0.0323
us-west-1;us-west-1b;m5d.large;06;14;0.0;0;1534527851000;1535059012000;008852;00000;0.0314;0.0323
us-west-1;us-west-1b;m5d.large;06;15;0.0;0;1534531451000;1535059012000;008792;00000;0.0314;0.0323
us-west-1;us-west-1b;m5d.large;06;16;0.0;0;1534535051000;1535059012000;008732;00000;0.0314;0.0323
us-west-1;us-west-1b;m5d.large;06;17;0.0;0;1534538651000;1535059012000;008672;00000;0.0314;0.0323
us-west-1;us-west-1b;m5d.large;06;18;0.0;0;1534542251000;1535059012000;008612;00000;0.0314;0.0323
us-west-1;us-west-1b;m5d.large;06;19;0.0;0;1534545851000;1535059012000;008552;00000;0.0314;0.0323
us-west-1;us-west-1b;m5d.large;06;20;0.0;0;1534549451000;1535059012000;008492;00000;0.0314;0.0323
us-west-1;us-west-1b;m5d.large;06;21;0.0;0;1534553051000;1535059012000;008432;00000;0.0314;0.0323
us-west-1;us-west-1b;m5d.large;06;22;0.0;0;1534556651000;1535059012000;008372;00000;0.0314;0.0323
us-west-1;us-west-1b;m5d.large;06;23;0.0;0;1534560251000;1535059012000;008312;00000;0.0314;0.0323
us-west-1;us-west-1b;m5d.large;07;00;0.0;0;1534563851000;1535059012000;008252;00000;0.0314;0.0323
us-west-1;us-west-1b;m5d.large;07;01;0.0;0;1534567451000;1535059012000;008192;00000;0.0314;0.0323
us-west-1;us-west-1b;m5d.large;07;02;0.0;0;1534571051000;1535059012000;008132;00000;0.0314;0.0323
us-west-1;us-west-1b;m5d.large;07;03;0.0;0;1534574651000;1535059012000;008072;00000;0.0314;0.0323
us-west-1;us-west-1b;m5d.large;07;04;0.0;0;1534578251000;1535059012000;008012;00000;0.0314;0.0323
us-west-1;us-west-1b;m5d.large;07;05;0.0;0;1534581851000;1535059012000;007952;00000;0.0314;0.0323
us-west-1;us-west-1b;m5d.large;07;06;0.0;0;1534585451000;1535059012000;007892;00000;0.0314;0.0323
us-west-1;us-west-1b;m5d.large;07;07;0.0;0;1534589051000;1535059012000;007832;00000;0.0314;0.0323
us-west-1;us-west-1b;m5d.large;07;08;0.0;0;1534592651000;1535059012000;007772;00000;0.0314;0.0323
us-west-1;us-west-1b;m5d.large;07;09;0.0;0;1534596251000;1535059012000;007712;00000;0.0314;0.0323
us-west-1;us-west-1b;m5d.large;07;10;0.0;0;1534599851000;1535059012000;007652;00000;0.0314;0.0323
us-west-1;us-west-1b;m5d.large;07;11;0.0;0;1534603451000;1535059012000;007592;00000;0.0314;0.0323
us-west-1;us-west-1b;m5d.large;07;12;0.0;0;1534607051000;1535059012000;007532;00000;0.0314;0.0323
us-west-1;us-west-1b;m5d.large;07;13;0.0;0;1534610651000;1535059012000;007472;00000;0.0314;0.0323
us-west-1;us-west-1b;m5d.large;07;14;0.0;0;1534614251000;1535059012000;007412;00000;0.0314;0.0323
us-west-1;us-west-1b;m5d.large;07;15;0.0;0;1534617851000;1535059012000;007352;00000;0.0314;0.0323
us-west-1;us-west-1b;m5d.large;07;16;0.0;0;1534621451000;1535059012000;007292;00000;0.0314;0.0323
us-west-1;us-west-1b;m5d.large;07;17;0.0;0;1534625051000;1535059012000;007232;00000;0.0314;0.0323
us-west-1;us-west-1b;m5d.large;07;18;0.0;0;1534628651000;1535059012000;007172;00000;0.0314;0.0323
us-west-1;us-west-1b;m5d.large;07;19;0.0;0;1534632251000;1535059012000;007112;00000;0.0314;0.0323
us-west-1;us-west-1b;m5d.large;07;20;0.0;0;1534635851000;1535059012000;007052;00000;0.0314;0.0323
us-west-1;us-west-1b;m5d.large;07;21;0.0;0;1534639451000;1535059012000;006992;00000;0.0314;0.0323
us-west-1;us-west-1b;m5d.large;07;22;0.0;0;1534643051000;1535059012000;006932;00000;0.0314;0.0323
us-west-1;us-west-1b;m5d.large;07;23;0.0;0;1534646651000;1535059012000;006872;00000;0.0314;0.0323
us-west-1;us-west-1b;m5d.large;01;00;0.0;0;1534650251000;1535059012000;006812;00000;0.0314;0.0323
us-west-1;us-west-1b;m5d.large;01;01;0.0;0;1534653851000;1535059012000;006752;00000;0.0314;0.0323
us-west-1;us-west-1b;m5d.large;01;02;0.0;0;1534657451000;1535059012000;006692;00000;0.0314;0.0323
us-west-1;us-west-1b;m5d.large;01;03;0.0;0;1534661051000;1535059012000;006632;00000;0.0314;0.0323
us-west-1;us-west-1b;m5d.large;01;04;0.0;0;1534664651000;1535059012000;006572;00000;0.0314;0.0323
us-west-1;us-west-1b;m5d.large;01;05;0.0;0;1534668251000;1535059012000;006512;00000;0.0314;0.0323
us-west-1;us-west-1b;m5d.large;01;06;0.0;0;1534671851000;1535059012000;006452;00000;0.0314;0.0323
us-west-1;us-west-1b;m5d.large;01;07;0.0;0;1534675451000;1535059012000;006392;00000;0.0314;0.0323
us-west-1;us-west-1b;m5d.large;01;08;0.0;0;1534679051000;1535059012000;006332;00000;0.0314;0.0323
us-west-1;us-west-1b;m5d.large;01;09;0.0;0;1534682651000;1535059012000;006272;00000;0.0314;0.0323
us-west-1;us-west-1b;m5d.large;01;10;0.0;0;1534686251000;1535059012000;006212;00000;0.0314;0.0323
us-west-1;us-west-1b;m5d.large;01;11;0.0;0;1534689851000;1535059012000;006152;00000;0.0314;0.0323
us-west-1;us-west-1b;m5d.large;01;12;0.0;0;1534693451000;1535059012000;006092;00000;0.0314;0.0323
us-west-1;us-west-1b;m5d.large;01;13;0.0;0;1534697051000;1535059012000;006032;00000;0.0314;0.0323
us-west-1;us-west-1b;m5d.large;01;14;0.0;0;1534700651000;1535059012000;005972;00000;0.0314;0.0323
us-west-1;us-west-1b;m5d.large;01;15;0.0;0;1534704251000;1535059012000;005912;00000;0.0314;0.0323
us-west-1;us-west-1b;m5d.large;01;16;0.0;0;1534707851000;1535059012000;005852;00000;0.0314;0.0323
us-west-1;us-west-1b;m5d.large;01;17;0.0;0;1534711451000;1535059012000;005792;00000;0.0314;0.0323
us-west-1;us-west-1b;m5d.large;01;18;0.0;0;1534715051000;1535059012000;005732;00000;0.0314;0.0323
us-west-1;us-west-1b;m5d.large;01;19;0.0;0;1534718651000;1535059012000;005672;00000;0.0314;0.0323
us-west-1;us-west-1b;m5d.large;01;20;0.0;0;1534722251000;1535059012000;005612;00000;0.0314;0.0323
us-west-1;us-west-1b;m5d.large;01;21;0.0;0;1534725851000;1535059012000;005552;00000;0.0314;0.0323
us-west-1;us-west-1b;m5d.large;01;22;0.0;0;1534729451000;1535059012000;005492;00000;0.0314;0.0323
us-west-1;us-west-1b;m5d.large;01;23;0.0;0;1534733051000;1535059012000;005432;00000;0.0314;0.0323
us-west-1;us-west-1b;m5d.large;02;00;0.0;0;1534736651000;1535059012000;005372;00000;0.0314;0.0323
us-west-1;us-west-1b;m5d.large;02;01;0.0;0;1534740251000;1535059012000;005312;00000;0.0314;0.0323
us-west-1;us-west-1b;m5d.large;02;02;0.0;0;1534743851000;1535059012000;005252;00000;0.0314;0.0323
us-west-1;us-west-1b;m5d.large;02;03;0.0;0;1534747451000;1535059012000;005192;00000;0.0314;0.0323
us-west-1;us-west-1b;m5d.large;02;04;0.0;0;1534751051000;1535059012000;005132;00000;0.0314;0.0323
us-west-1;us-west-1b;m5d.large;02;05;0.0;0;1534754651000;1535059012000;005072;00000;0.0314;0.0323
us-west-1;us-west-1b;m5d.large;02;06;0.0;0;1534758251000;1535059012000;005012;00000;0.0314;0.0323
us-west-1;us-west-1b;m5d.large;02;07;0.0;0;1534761851000;1535059012000;004952;00000;0.0314;0.0323
us-west-1;us-west-1b;m5d.large;02;08;0.0;0;1534765451000;1535059012000;004892;00000;0.0314;0.0323
us-west-1;us-west-1b;m5d.large;02;09;0.0;0;1534769051000;1535059012000;004832;00000;0.0314;0.0323
us-west-1;us-west-1b;m5d.large;02;10;0.0;0;1534772651000;1535059012000;004772;00000;0.0314;0.0323
us-west-1;us-west-1b;m5d.large;02;11;0.0;0;1534776251000;1535059012000;004712;00000;0.0314;0.0323
us-west-1;us-west-1b;m5d.large;02;12;0.0;0;1534779851000;1535059012000;004652;00000;0.0314;0.0323
us-west-1;us-west-1b;m5d.large;02;13;0.0;0;1534783451000;1535059012000;004592;00000;0.0314;0.0323
us-west-1;us-west-1b;m5d.large;02;14;0.0;0;1534787051000;1535059012000;004532;00000;0.0314;0.0323
us-west-1;us-west-1b;m5d.large;02;15;0.0;0;1534790651000;1535059012000;004472;00000;0.0314;0.0323
us-west-1;us-west-1b;m5d.large;02;16;0.0;0;1534794251000;1535059012000;004412;00000;0.0314;0.0323
us-west-1;us-west-1b;m5d.large;02;17;0.0;0;1534797851000;1535059012000;004352;00000;0.0314;0.0323
us-west-1;us-west-1b;m5d.large;02;18;0.0;0;1534801451000;1535059012000;004292;00000;0.0314;0.0323
us-west-1;us-west-1b;m5d.large;02;19;0.0;0;1534805051000;1535059012000;004232;00000;0.0314;0.0323
us-west-1;us-west-1b;m5d.large;02;20;0.0;0;1534808651000;1535059012000;004172;00000;0.0314;0.0323
us-west-1;us-west-1b;m5d.large;02;21;0.0;0;1534812251000;1535059012000;004112;00000;0.0314;0.0323
us-west-1;us-west-1b;m5d.large;02;22;0.0;0;1534815851000;1535059012000;004052;00000;0.0314;0.0323
us-west-1;us-west-1b;m5d.large;02;23;0.0;0;1534819451000;1535059012000;003992;00000;0.0314;0.0323
us-west-1;us-west-1b;m5d.large;03;00;0.0;0;1534823051000;1535059012000;003932;00000;0.0314;0.0323
us-west-1;us-west-1b;m5d.large;03;01;0.0;0;1534826651000;1535059012000;003872;00000;0.0314;0.0323
us-west-1;us-west-1b;m5d.large;03;02;0.0;0;1534830251000;1535059012000;003812;00000;0.0314;0.0323
us-west-1;us-west-1b;m5d.large;03;03;0.0;0;1534833851000;1535059012000;003752;00000;0.0314;0.0323
us-west-1;us-west-1b;m5d.large;03;04;0.0;0;1534837451000;1535059012000;003692;00000;0.0314;0.0323
us-west-1;us-west-1b;m5d.large;03;05;0.0;0;1534841051000;1535059012000;003632;00000;0.0314;0.0323
us-west-1;us-west-1b;m5d.large;03;06;0.0;0;1534844651000;1535059012000;003572;00000;0.0314;0.0323
us-west-1;us-west-1b;m5d.large;03;07;0.0;0;1534848251000;1535059012000;003512;00000;0.0314;0.0323
us-west-1;us-west-1b;m5d.large;03;08;0.0;0;1534851851000;1535059012000;003452;00000;0.0314;0.0323
us-west-1;us-west-1b;m5d.large;03;09;0.0;0;1534855451000;1535059012000;003392;00000;0.0314;0.0323
us-west-1;us-west-1b;m5d.large;03;10;0.0;0;1534859051000;1535059012000;003332;00000;0.0314;0.0323
us-west-1;us-west-1b;m5d.large;03;11;0.0;0;1534862651000;1535059012000;003272;00000;0.0314;0.0323
us-west-1;us-west-1b;m5d.large;03;12;0.0;0;1534866251000;1535059012000;003212;00000;0.0314;0.0323
us-west-1;us-west-1b;m5d.large;03;13;0.0;0;1534869851000;1535059012000;003152;00000;0.0314;0.0323
us-west-1;us-west-1b;m5d.large;03;14;0.0;0;1534873451000;1535059012000;003092;00000;0.0314;0.0323
us-west-1;us-west-1b;m5d.large;03;15;0.0;0;1534877051000;1535059012000;003032;00000;0.0314;0.0323
us-west-1;us-west-1b;m5d.large;03;16;0.0;0;1534880651000;1535059012000;002972;00000;0.0314;0.0323
us-west-1;us-west-1b;m5d.large;03;17;0.0;0;1534884251000;1535059012000;002912;00000;0.0314;0.0323
us-west-1;us-west-1b;m5d.large;03;18;0.0;0;1534887851000;1535059012000;002852;00000;0.0314;0.0323
us-west-1;us-west-1b;m5d.large;03;19;0.0;0;1534891451000;1535059012000;002792;00000;0.0314;0.0323
us-west-1;us-west-1b;m5d.large;03;20;0.0;0;1534895051000;1535059012000;002732;00000;0.0314;0.0323
us-west-1;us-west-1b;m5d.large;03;21;0.0;0;1534898651000;1535059012000;002672;00000;0.0314;0.0323
us-west-1;us-west-1b;m5d.large;03;22;0.0;0;1534902251000;1535059012000;002612;00000;0.0314;0.0323
us-west-1;us-west-1b;m5d.large;03;23;0.0;0;1534905851000;1535059012000;002552;00000;0.0314;0.0323
us-west-1;us-west-1b;m5d.large;04;00;0.0;0;1534909451000;1535059012000;002492;00000;0.0314;0.0323
us-west-1;us-west-1b;m5d.large;04;01;0.0;0;1534913051000;1535059012000;002432;00000;0.0314;0.0323
us-west-1;us-west-1b;m5d.large;04;02;0.0;0;1534916651000;1535059012000;002372;00000;0.0314;0.0323
us-west-1;us-west-1b;m5d.large;04;03;0.0;0;1534920251000;1535059012000;002312;00000;0.0314;0.0323
us-west-1;us-west-1b;m5d.large;04;04;0.0;0;1534923851000;1535059012000;002252;00000;0.0314;0.0323
us-west-1;us-west-1b;m5d.large;04;05;0.0;0;1534927451000;1535059012000;002192;00000;0.0314;0.0323
us-west-1;us-west-1b;m5d.large;04;06;0.0;0;1534931051000;1535059012000;002132;00000;0.0314;0.0323
us-west-1;us-west-1b;m5d.large;04;07;0.0;0;1534934651000;1535059012000;002072;00000;0.0314;0.0323
us-west-1;us-west-1b;m5d.large;04;08;0.0;0;1534938251000;1535059012000;002012;00000;0.0314;0.0323
us-west-1;us-west-1b;m5d.large;04;09;0.0;0;1534941851000;1535059012000;001952;00000;0.0314;0.0323
us-west-1;us-west-1b;m5d.large;04;10;0.0;0;1534945451000;1535059012000;001892;00000;0.0314;0.0323
us-west-1;us-west-1b;m5d.large;04;11;0.0;0;1534949051000;1535059012000;001832;00000;0.0314;0.0323
us-west-1;us-west-1b;m5d.large;04;12;0.0;0;1534952651000;1535059012000;001772;00000;0.0314;0.0323
us-west-1;us-west-1b;m5d.large;04;13;0.0;0;1534956251000;1535059012000;001712;00000;0.0314;0.0323
us-west-1;us-west-1b;m5d.large;04;14;0.0;0;1534959851000;1535059012000;001652;00000;0.0314;0.0323
us-west-1;us-west-1b;m5d.large;04;15;0.0;0;1534963451000;1535059012000;001592;00000;0.0314;0.0323
us-west-1;us-west-1b;m5d.large;04;16;0.0;0;1534967051000;1535059012000;001532;00000;0.0314;0.0323
us-west-1;us-west-1b;m5d.large;04;17;0.0;0;1534970651000;1535059012000;001472;00000;0.0314;0.0323
us-west-1;us-west-1b;m5d.large;04;18;0.0;0;1534974251000;1535059012000;001412;00000;0.0314;0.0323
us-west-1;us-west-1b;m5d.large;04;19;0.0;0;1534977851000;1535059012000;001352;00000;0.0314;0.0323
us-west-1;us-west-1b;m5d.large;04;20;0.0;0;1534981451000;1535059012000;001292;00000;0.0314;0.0323
us-west-1;us-west-1b;m5d.large;04;21;0.0;0;1534985051000;1535059012000;001232;00000;0.0314;0.0323
us-west-1;us-west-1b;m5d.large;04;22;0.0;0;1534988651000;1535059012000;001172;00000;0.0314;0.0323
us-west-1;us-west-1b;m5d.large;04;23;0.0;0;1534992251000;1535059012000;001112;00000;0.0314;0.0323
us-west-1;us-west-1b;m5d.large;05;00;0.0;0;1534995851000;1535059012000;001052;00000;0.0314;0.0323
us-west-1;us-west-1b;m5d.large;05;01;0.0;0;1534999451000;1535059012000;000992;00000;0.0314;0.0323
us-west-1;us-west-1b;m5d.large;05;02;0.0;0;1535003051000;1535059012000;000932;00000;0.0314;0.0323
us-west-1;us-west-1b;m5d.large;05;03;0.0;0;1535006651000;1535059012000;000872;00000;0.0314;0.0323
us-west-1;us-west-1b;m5d.large;05;04;0.0;0;1535010251000;1535059012000;000812;00000;0.0314;0.0323
us-west-1;us-west-1b;m5d.large;05;05;0.0;0;1535013851000;1535059012000;000752;00000;0.0314;0.0323
us-west-1;us-west-1b;m5d.large;05;06;0.0;0;1535017451000;1535059012000;000692;00000;0.0314;0.0323
us-west-1;us-west-1b;m5d.large;05;07;0.0;0;1535021051000;1535059012000;000632;00000;0.0314;0.0323
us-west-1;us-west-1b;m5d.large;05;08;0.0;0;1535024651000;1535059012000;000572;00000;0.0314;0.0323
us-west-1;us-west-1b;m5d.large;05;09;0.0;0;1535028251000;1535059012000;000512;00000;0.0314;0.0323
us-west-1;us-west-1b;m5d.large;05;10;0.0;0;1535031851000;1535059012000;000452;00000;0.0314;0.0323
us-west-1;us-west-1b;m5d.large;05;11;0.0;0;1535035451000;1535059012000;000392;00000;0.0314;0.0323
us-west-1;us-west-1b;m5d.large;05;12;0.0;0;1535039051000;1535059012000;000332;00000;0.0314;0.0323
us-west-1;us-west-1b;m5d.large;05;13;0.0;0;1535042651000;1535059012000;000272;00000;0.0314;0.0323
us-west-1;us-west-1b;m5d.large;05;14;0.0;0;1535046251000;1535059012000;000212;00000;0.0314;0.0323
us-west-1;us-west-1b;m5d.large;05;15;0.0;0;1535049851000;1535059012000;000152;00000;0.0314;0.0323
us-west-1;us-west-1b;m5d.large;05;16;0.0;0;1535053451000;1535059012000;000092;00000;0.0314;0.0323
us-west-1;us-west-1b;m5d.large;07;05;1.0;0;1534581887000;1535059012000;007952;00008;0.0314;0.0323
us-west-1;us-west-1b;m5d.large;07;06;0.0;0;1534585487000;1535059012000;007892;00000;0.0314;0.0323
us-west-1;us-west-1b;m5d.large;07;07;0.0;0;1534589087000;1535059012000;007832;00000;0.0314;0.0323
us-west-1;us-west-1b;m5d.large;07;08;0.0;0;1534592687000;1535059012000;007772;00000;0.0314;0.0323
us-west-1;us-west-1b;m5d.large;07;09;0.0;0;1534596287000;1535059012000;007712;00000;0.0314;0.0323
us-west-1;us-west-1b;m5d.large;07;10;0.0;0;1534599887000;1535059012000;007652;00000;0.0314;0.0323
us-west-1;us-west-1b;m5d.large;07;11;0.0;0;1534603487000;1535059012000;007592;00000;0.0314;0.0323
us-west-1;us-west-1b;m5d.large;07;12;0.0;0;1534607087000;1535059012000;007532;00000;0.0314;0.0323
us-west-1;us-west-1b;m5d.large;07;13;0.0;0;1534610687000;1535059012000;007472;00000;0.0314;0.0323
us-west-1;us-west-1b;m5d.large;07;14;0.0;0;1534614287000;1535059012000;007412;00000;0.0314;0.0323
us-west-1;us-west-1b;m5d.large;07;15;0.0;0;1534617887000;1535059012000;007352;00000;0.0314;0.0323
us-west-1;us-west-1b;m5d.large;07;16;0.0;0;1534621487000;1535059012000;007292;00000;0.0314;0.0323
us-west-1;us-west-1b;m5d.large;07;17;0.0;0;1534625087000;1535059012000;007232;00000;0.0314;0.0323
us-west-1;us-west-1b;m5d.large;07;18;0.0;0;1534628687000;1535059012000;007172;00000;0.0314;0.0323
us-west-1;us-west-1b;m5d.large;07;19;0.0;0;1534632287000;1535059012000;007112;00000;0.0314;0.0323
us-west-1;us-west-1b;m5d.large;07;20;0.0;0;1534635887000;1535059012000;007052;00000;0.0314;0.0323
us-west-1;us-west-1b;m5d.large;07;21;0.0;0;1534639487000;1535059012000;006992;00000;0.0314;0.0323
us-west-1;us-west-1b;m5d.large;07;22;0.0;0;1534643087000;1535059012000;006932;00000;0.0314;0.0323
us-west-1;us-west-1b;m5d.large;07;23;0.0;0;1534646687000;1535059012000;006872;00000;0.0314;0.0323
us-west-1;us-west-1b;m5d.large;01;00;0.0;0;1534650287000;1535059012000;006812;00000;0.0314;0.0323
us-west-1;us-west-1b;m5d.large;01;01;0.0;0;1534653887000;1535059012000;006752;00000;0.0314;0.0323
us-west-1;us-west-1b;m5d.large;01;02;0.0;0;1534657487000;1535059012000;006692;00000;0.0314;0.0323
us-west-1;us-west-1b;m5d.large;01;03;0.0;0;1534661087000;1535059012000;006632;00000;0.0314;0.0323
us-west-1;us-west-1b;m5d.large;01;04;0.0;0;1534664687000;1535059012000;006572;00000;0.0314;0.0323
us-west-1;us-west-1b;m5d.large;01;05;0.0;0;1534668287000;1535059012000;006512;00000;0.0314;0.0323
us-west-1;us-west-1b;m5d.large;01;06;0.0;0;1534671887000;1535059012000;006452;00000;0.0314;0.0323
us-west-1;us-west-1b;m5d.large;01;07;0.0;0;1534675487000;1535059012000;006392;00000;0.0314;0.0323
us-west-1;us-west-1b;m5d.large;01;08;0.0;0;1534679087000;1535059012000;006332;00000;0.0314;0.0323
us-west-1;us-west-1b;m5d.large;01;09;0.0;0;1534682687000;1535059012000;006272;00000;0.0314;0.0323
us-west-1;us-west-1b;m5d.large;01;10;0.0;0;1534686287000;1535059012000;006212;00000;0.0314;0.0323
us-west-1;us-west-1b;m5d.large;01;11;0.0;0;1534689887000;1535059012000;006152;00000;0.0314;0.0323
us-west-1;us-west-1b;m5d.large;01;12;0.0;0;1534693487000;1535059012000;006092;00000;0.0314;0.0323
us-west-1;us-west-1b;m5d.large;01;13;0.0;0;1534697087000;1535059012000;006032;00000;0.0314;0.0323
us-west-1;us-west-1b;m5d.large;01;14;0.0;0;1534700687000;1535059012000;005972;00000;0.0314;0.0323
us-west-1;us-west-1b;m5d.large;01;15;0.0;0;1534704287000;1535059012000;005912;00000;0.0314;0.0323
us-west-1;us-west-1b;m5d.large;01;16;0.0;0;1534707887000;1535059012000;005852;00000;0.0314;0.0323
us-west-1;us-west-1b;m5d.large;01;17;0.0;0;1534711487000;1535059012000;005792;00000;0.0314;0.0323
us-west-1;us-west-1b;m5d.large;01;18;0.0;0;1534715087000;1535059012000;005732;00000;0.0314;0.0323
us-west-1;us-west-1b;m5d.large;01;19;0.0;0;1534718687000;1535059012000;005672;00000;0.0314;0.0323
us-west-1;us-west-1b;m5d.large;01;20;0.0;0;1534722287000;1535059012000;005612;00000;0.0314;0.0323
us-west-1;us-west-1b;m5d.large;01;21;0.0;0;1534725887000;1535059012000;005552;00000;0.0314;0.0323
us-west-1;us-west-1b;m5d.large;01;22;0.0;0;1534729487000;1535059012000;005492;00000;0.0314;0.0323
us-west-1;us-west-1b;m5d.large;01;23;0.0;0;1534733087000;1535059012000;005432;00000;0.0314;0.0323
us-west-1;us-west-1b;m5d.large;02;00;0.0;0;1534736687000;1535059012000;005372;00000;0.0314;0.0323
us-west-1;us-west-1b;m5d.large;02;01;0.0;0;1534740287000;1535059012000;005312;00000;0.0314;0.0323
us-west-1;us-west-1b;m5d.large;02;02;0.0;0;1534743887000;1535059012000;005252;00000;0.0314;0.0323
us-west-1;us-west-1b;m5d.large;02;03;0.0;0;1534747487000;1535059012000;005192;00000;0.0314;0.0323
us-west-1;us-west-1b;m5d.large;02;04;0.0;0;1534751087000;1535059012000;005132;00000;0.0314;0.0323
us-west-1;us-west-1b;m5d.large;02;05;0.0;0;1534754687000;1535059012000;005072;00000;0.0314;0.0323
us-west-1;us-west-1b;m5d.large;02;06;0.0;0;1534758287000;1535059012000;005012;00000;0.0314;0.0323
us-west-1;us-west-1b;m5d.large;02;07;0.0;0;1534761887000;1535059012000;004952;00000;0.0314;0.0323
us-west-1;us-west-1b;m5d.large;02;08;0.0;0;1534765487000;1535059012000;004892;00000;0.0314;0.0323
us-west-1;us-west-1b;m5d.large;02;09;0.0;0;1534769087000;1535059012000;004832;00000;0.0314;0.0323
us-west-1;us-west-1b;m5d.large;02;10;0.0;0;1534772687000;1535059012000;004772;00000;0.0314;0.0323
us-west-1;us-west-1b;m5d.large;02;11;0.0;0;1534776287000;1535059012000;004712;00000;0.0314;0.0323
us-west-1;us-west-1b;m5d.large;02;12;0.0;0;1534779887000;1535059012000;004652;00000;0.0314;0.0323
us-west-1;us-west-1b;m5d.large;02;13;0.0;0;1534783487000;1535059012000;004592;00000;0.0314;0.0323
us-west-1;us-west-1b;m5d.large;02;14;0.0;0;1534787087000;1535059012000;004532;00000;0.0314;0.0323
us-west-1;us-west-1b;m5d.large;02;15;0.0;0;1534790687000;1535059012000;004472;00000;0.0314;0.0323
us-west-1;us-west-1b;m5d.large;02;16;0.0;0;1534794287000;1535059012000;004412;00000;0.0314;0.0323
us-west-1;us-west-1b;m5d.large;02;17;0.0;0;1534797887000;1535059012000;004352;00000;0.0314;0.0323
us-west-1;us-west-1b;m5d.large;02;18;0.0;0;1534801487000;1535059012000;004292;00000;0.0314;0.0323
us-west-1;us-west-1b;m5d.large;02;19;0.0;0;1534805087000;1535059012000;004232;00000;0.0314;0.0323
us-west-1;us-west-1b;m5d.large;02;20;0.0;0;1534808687000;1535059012000;004172;00000;0.0314;0.0323
us-west-1;us-west-1b;m5d.large;02;21;0.0;0;1534812287000;1535059012000;004112;00000;0.0314;0.0323
us-west-1;us-west-1b;m5d.large;02;22;0.0;0;1534815887000;1535059012000;004052;00000;0.0314;0.0323
us-west-1;us-west-1b;m5d.large;02;23;0.0;0;1534819487000;1535059012000;003992;00000;0.0314;0.0323
us-west-1;us-west-1b;m5d.large;03;00;0.0;0;1534823087000;1535059012000;003932;00000;0.0314;0.0323
us-west-1;us-west-1b;m5d.large;03;01;0.0;0;1534826687000;1535059012000;003872;00000;0.0314;0.0323
us-west-1;us-west-1b;m5d.large;03;02;0.0;0;1534830287000;1535059012000;003812;00000;0.0314;0.0323
us-west-1;us-west-1b;m5d.large;03;03;0.0;0;1534833887000;1535059012000;003752;00000;0.0314;0.0323
us-west-1;us-west-1b;m5d.large;03;04;0.0;0;1534837487000;1535059012000;003692;00000;0.0314;0.0323
us-west-1;us-west-1b;m5d.large;03;05;0.0;0;1534841087000;1535059012000;003632;00000;0.0314;0.0323
us-west-1;us-west-1b;m5d.large;03;06;0.0;0;1534844687000;1535059012000;003572;00000;0.0314;0.0323
us-west-1;us-west-1b;m5d.large;03;07;0.0;0;1534848287000;1535059012000;003512;00000;0.0314;0.0323
us-west-1;us-west-1b;m5d.large;03;08;0.0;0;1534851887000;1535059012000;003452;00000;0.0314;0.0323
us-west-1;us-west-1b;m5d.large;03;09;0.0;0;1534855487000;1535059012000;003392;00000;0.0314;0.0323
us-west-1;us-west-1b;m5d.large;03;10;0.0;0;1534859087000;1535059012000;003332;00000;0.0314;0.0323
us-west-1;us-west-1b;m5d.large;03;11;0.0;0;1534862687000;1535059012000;003272;00000;0.0314;0.0323
us-west-1;us-west-1b;m5d.large;03;12;0.0;0;1534866287000;1535059012000;003212;00000;0.0314;0.0323
us-west-1;us-west-1b;m5d.large;03;13;0.0;0;1534869887000;1535059012000;003152;00000;0.0314;0.0323
us-west-1;us-west-1b;m5d.large;03;14;0.0;0;1534873487000;1535059012000;003092;00000;0.0314;0.0323
us-west-1;us-west-1b;m5d.large;03;15;0.0;0;1534877087000;1535059012000;003032;00000;0.0314;0.0323
us-west-1;us-west-1b;m5d.large;03;16;0.0;0;1534880687000;1535059012000;002972;00000;0.0314;0.0323
us-west-1;us-west-1b;m5d.large;03;17;0.0;0;1534884287000;1535059012000;002912;00000;0.0314;0.0323
us-west-1;us-west-1b;m5d.large;03;18;0.0;0;1534887887000;1535059012000;002852;00000;0.0314;0.0323
us-west-1;us-west-1b;m5d.large;03;19;0.0;0;1534891487000;1535059012000;002792;00000;0.0314;0.0323
us-west-1;us-west-1b;m5d.large;03;20;0.0;0;1534895087000;1535059012000;002732;00000;0.0314;0.0323
us-west-1;us-west-1b;m5d.large;03;21;0.0;0;1534898687000;1535059012000;002672;00000;0.0314;0.0323
us-west-1;us-west-1b;m5d.large;03;22;0.0;0;1534902287000;1535059012000;002612;00000;0.0314;0.0323
us-west-1;us-west-1b;m5d.large;03;23;0.0;0;1534905887000;1535059012000;002552;00000;0.0314;0.0323
us-west-1;us-west-1b;m5d.large;04;00;0.0;0;1534909487000;1535059012000;002492;00000;0.0314;0.0323
us-west-1;us-west-1b;m5d.large;04;01;0.0;0;1534913087000;1535059012000;002432;00000;0.0314;0.0323
us-west-1;us-west-1b;m5d.large;04;02;0.0;0;1534916687000;1535059012000;002372;00000;0.0314;0.0323
us-west-1;us-west-1b;m5d.large;04;03;0.0;0;1534920287000;1535059012000;002312;00000;0.0314;0.0323
us-west-1;us-west-1b;m5d.large;04;04;0.0;0;1534923887000;1535059012000;002252;00000;0.0314;0.0323
us-west-1;us-west-1b;m5d.large;04;05;0.0;0;1534927487000;1535059012000;002192;00000;0.0314;0.0323
us-west-1;us-west-1b;m5d.large;04;06;0.0;0;1534931087000;1535059012000;002132;00000;0.0314;0.0323
us-west-1;us-west-1b;m5d.large;04;07;0.0;0;1534934687000;1535059012000;002072;00000;0.0314;0.0323
us-west-1;us-west-1b;m5d.large;04;08;0.0;0;1534938287000;1535059012000;002012;00000;0.0314;0.0323
us-west-1;us-west-1b;m5d.large;04;09;0.0;0;1534941887000;1535059012000;001952;00000;0.0314;0.0323
us-west-1;us-west-1b;m5d.large;04;10;0.0;0;1534945487000;1535059012000;001892;00000;0.0314;0.0323
us-west-1;us-west-1b;m5d.large;04;11;0.0;0;1534949087000;1535059012000;001832;00000;0.0314;0.0323
us-west-1;us-west-1b;m5d.large;04;12;0.0;0;1534952687000;1535059012000;001772;00000;0.0314;0.0323
us-west-1;us-west-1b;m5d.large;04;13;0.0;0;1534956287000;1535059012000;001712;00000;0.0314;0.0323
us-west-1;us-west-1b;m5d.large;04;14;0.0;0;1534959887000;1535059012000;001652;00000;0.0314;0.0323
us-west-1;us-west-1b;m5d.large;04;15;0.0;0;1534963487000;1535059012000;001592;00000;0.0314;0.0323
us-west-1;us-west-1b;m5d.large;04;16;0.0;0;1534967087000;1535059012000;001532;00000;0.0314;0.0323
us-west-1;us-west-1b;m5d.large;04;17;0.0;0;1534970687000;1535059012000;001472;00000;0.0314;0.0323
us-west-1;us-west-1b;m5d.large;04;18;0.0;0;1534974287000;1535059012000;001412;00000;0.0314;0.0323
us-west-1;us-west-1b;m5d.large;04;19;0.0;0;1534977887000;1535059012000;001352;00000;0.0314;0.0323
us-west-1;us-west-1b;m5d.large;04;20;0.0;0;1534981487000;1535059012000;001292;00000;0.0314;0.0323
us-west-1;us-west-1b;m5d.large;04;21;0.0;0;1534985087000;1535059012000;001232;00000;0.0314;0.0323
us-west-1;us-west-1b;m5d.large;04;22;0.0;0;1534988687000;1535059012000;001172;00000;0.0314;0.0323
us-west-1;us-west-1b;m5d.large;04;23;0.0;0;1534992287000;1535059012000;001112;00000;0.0314;0.0323
us-west-1;us-west-1b;m5d.large;05;00;0.0;0;1534995887000;1535059012000;001052;00000;0.0314;0.0323
us-west-1;us-west-1b;m5d.large;05;01;0.0;0;1534999487000;1535059012000;000992;00000;0.0314;0.0323
us-west-1;us-west-1b;m5d.large;05;02;0.0;0;1535003087000;1535059012000;000932;00000;0.0314;0.0323
us-west-1;us-west-1b;m5d.large;05;03;0.0;0;1535006687000;1535059012000;000872;00000;0.0314;0.0323
us-west-1;us-west-1b;m5d.large;05;04;0.0;0;1535010287000;1535059012000;000812;00000;0.0314;0.0323
us-west-1;us-west-1b;m5d.large;05;05;0.0;0;1535013887000;1535059012000;000752;00000;0.0314;0.0323
us-west-1;us-west-1b;m5d.large;05;06;0.0;0;1535017487000;1535059012000;000692;00000;0.0314;0.0323
us-west-1;us-west-1b;m5d.large;05;07;0.0;0;1535021087000;1535059012000;000632;00000;0.0314;0.0323
us-west-1;us-west-1b;m5d.large;05;08;0.0;0;1535024687000;1535059012000;000572;00000;0.0314;0.0323
us-west-1;us-west-1b;m5d.large;05;09;0.0;0;1535028287000;1535059012000;000512;00000;0.0314;0.0323
us-west-1;us-west-1b;m5d.large;05;10;0.0;0;1535031887000;1535059012000;000452;00000;0.0314;0.0323
us-west-1;us-west-1b;m5d.large;05;11;0.0;0;1535035487000;1535059012000;000392;00000;0.0314;0.0323
us-west-1;us-west-1b;m5d.large;05;12;0.0;0;1535039087000;1535059012000;000332;00000;0.0314;0.0323
us-west-1;us-west-1b;m5d.large;05;13;0.0;0;1535042687000;1535059012000;000272;00000;0.0314;0.0323
us-west-1;us-west-1b;m5d.large;05;14;0.0;0;1535046287000;1535059012000;000212;00000;0.0314;0.0323
us-west-1;us-west-1b;m5d.large;05;15;0.0;0;1535049887000;1535059012000;000152;00000;0.0314;0.0323
us-west-1;us-west-1b;m5d.large;05;16;0.0;0;1535053487000;1535059012000;000092;00000;0.0314;0.0323
us-west-1;us-west-1b;m5d.large;01;05;1.0;0;1534668345000;1535059012000;006511;00007;0.0314;0.0323
us-west-1;us-west-1b;m5d.large;01;06;0.0;0;1534671945000;1535059012000;006451;00000;0.0314;0.0323
us-west-1;us-west-1b;m5d.large;01;07;0.0;0;1534675545000;1535059012000;006391;00000;0.0314;0.0323
us-west-1;us-west-1b;m5d.large;01;08;0.0;0;1534679145000;1535059012000;006331;00000;0.0314;0.0323
us-west-1;us-west-1b;m5d.large;01;09;0.0;0;1534682745000;1535059012000;006271;00000;0.0314;0.0323
us-west-1;us-west-1b;m5d.large;01;10;0.0;0;1534686345000;1535059012000;006211;00000;0.0314;0.0323
us-west-1;us-west-1b;m5d.large;01;11;0.0;0;1534689945000;1535059012000;006151;00000;0.0314;0.0323
us-west-1;us-west-1b;m5d.large;01;12;0.0;0;1534693545000;1535059012000;006091;00000;0.0314;0.0323
us-west-1;us-west-1b;m5d.large;01;13;0.0;0;1534697145000;1535059012000;006031;00000;0.0314;0.0323
us-west-1;us-west-1b;m5d.large;01;14;0.0;0;1534700745000;1535059012000;005971;00000;0.0314;0.0323
us-west-1;us-west-1b;m5d.large;01;15;0.0;0;1534704345000;1535059012000;005911;00000;0.0314;0.0323
us-west-1;us-west-1b;m5d.large;01;16;0.0;0;1534707945000;1535059012000;005851;00000;0.0314;0.0323
us-west-1;us-west-1b;m5d.large;01;17;0.0;0;1534711545000;1535059012000;005791;00000;0.0314;0.0323
us-west-1;us-west-1b;m5d.large;01;18;0.0;0;1534715145000;1535059012000;005731;00000;0.0314;0.0323
us-west-1;us-west-1b;m5d.large;01;19;0.0;0;1534718745000;1535059012000;005671;00000;0.0314;0.0323
us-west-1;us-west-1b;m5d.large;01;20;0.0;0;1534722345000;1535059012000;005611;00000;0.0314;0.0323
us-west-1;us-west-1b;m5d.large;01;21;0.0;0;1534725945000;1535059012000;005551;00000;0.0314;0.0323
us-west-1;us-west-1b;m5d.large;01;22;0.0;0;1534729545000;1535059012000;005491;00000;0.0314;0.0323
us-west-1;us-west-1b;m5d.large;01;23;0.0;0;1534733145000;1535059012000;005431;00000;0.0314;0.0323
us-west-1;us-west-1b;m5d.large;02;00;0.0;0;1534736745000;1535059012000;005371;00000;0.0314;0.0323
us-west-1;us-west-1b;m5d.large;02;01;0.0;0;1534740345000;1535059012000;005311;00000;0.0314;0.0323
us-west-1;us-west-1b;m5d.large;02;02;0.0;0;1534743945000;1535059012000;005251;00000;0.0314;0.0323
us-west-1;us-west-1b;m5d.large;02;03;0.0;0;1534747545000;1535059012000;005191;00000;0.0314;0.0323
us-west-1;us-west-1b;m5d.large;02;04;0.0;0;1534751145000;1535059012000;005131;00000;0.0314;0.0323
us-west-1;us-west-1b;m5d.large;02;05;0.0;0;1534754745000;1535059012000;005071;00000;0.0314;0.0323
us-west-1;us-west-1b;m5d.large;02;06;0.0;0;1534758345000;1535059012000;005011;00000;0.0314;0.0323
us-west-1;us-west-1b;m5d.large;02;07;0.0;0;1534761945000;1535059012000;004951;00000;0.0314;0.0323
us-west-1;us-west-1b;m5d.large;02;08;0.0;0;1534765545000;1535059012000;004891;00000;0.0314;0.0323
us-west-1;us-west-1b;m5d.large;02;09;0.0;0;1534769145000;1535059012000;004831;00000;0.0314;0.0323
us-west-1;us-west-1b;m5d.large;02;10;0.0;0;1534772745000;1535059012000;004771;00000;0.0314;0.0323
us-west-1;us-west-1b;m5d.large;02;11;0.0;0;1534776345000;1535059012000;004711;00000;0.0314;0.0323
us-west-1;us-west-1b;m5d.large;02;12;0.0;0;1534779945000;1535059012000;004651;00000;0.0314;0.0323
us-west-1;us-west-1b;m5d.large;02;13;0.0;0;1534783545000;1535059012000;004591;00000;0.0314;0.0323
us-west-1;us-west-1b;m5d.large;02;14;0.0;0;1534787145000;1535059012000;004531;00000;0.0314;0.0323
us-west-1;us-west-1b;m5d.large;02;15;0.0;0;1534790745000;1535059012000;004471;00000;0.0314;0.0323
us-west-1;us-west-1b;m5d.large;02;16;0.0;0;1534794345000;1535059012000;004411;00000;0.0314;0.0323
us-west-1;us-west-1b;m5d.large;02;17;0.0;0;1534797945000;1535059012000;004351;00000;0.0314;0.0323
us-west-1;us-west-1b;m5d.large;02;18;0.0;0;1534801545000;1535059012000;004291;00000;0.0314;0.0323
us-west-1;us-west-1b;m5d.large;02;19;0.0;0;1534805145000;1535059012000;004231;00000;0.0314;0.0323
us-west-1;us-west-1b;m5d.large;02;20;0.0;0;1534808745000;1535059012000;004171;00000;0.0314;0.0323
us-west-1;us-west-1b;m5d.large;02;21;0.0;0;1534812345000;1535059012000;004111;00000;0.0314;0.0323
us-west-1;us-west-1b;m5d.large;02;22;0.0;0;1534815945000;1535059012000;004051;00000;0.0314;0.0323
us-west-1;us-west-1b;m5d.large;02;23;0.0;0;1534819545000;1535059012000;003991;00000;0.0314;0.0323
us-west-1;us-west-1b;m5d.large;03;00;0.0;0;1534823145000;1535059012000;003931;00000;0.0314;0.0323
us-west-1;us-west-1b;m5d.large;03;01;0.0;0;1534826745000;1535059012000;003871;00000;0.0314;0.0323
us-west-1;us-west-1b;m5d.large;03;02;0.0;0;1534830345000;1535059012000;003811;00000;0.0314;0.0323
us-west-1;us-west-1b;m5d.large;03;03;0.0;0;1534833945000;1535059012000;003751;00000;0.0314;0.0323
us-west-1;us-west-1b;m5d.large;03;04;0.0;0;1534837545000;1535059012000;003691;00000;0.0314;0.0323
us-west-1;us-west-1b;m5d.large;03;05;0.0;0;1534841145000;1535059012000;003631;00000;0.0314;0.0323
us-west-1;us-west-1b;m5d.large;03;06;0.0;0;1534844745000;1535059012000;003571;00000;0.0314;0.0323
us-west-1;us-west-1b;m5d.large;03;07;0.0;0;1534848345000;1535059012000;003511;00000;0.0314;0.0323
us-west-1;us-west-1b;m5d.large;03;08;0.0;0;1534851945000;1535059012000;003451;00000;0.0314;0.0323
us-west-1;us-west-1b;m5d.large;03;09;0.0;0;1534855545000;1535059012000;003391;00000;0.0314;0.0323
us-west-1;us-west-1b;m5d.large;03;10;0.0;0;1534859145000;1535059012000;003331;00000;0.0314;0.0323
us-west-1;us-west-1b;m5d.large;03;11;0.0;0;1534862745000;1535059012000;003271;00000;0.0314;0.0323
us-west-1;us-west-1b;m5d.large;03;12;0.0;0;1534866345000;1535059012000;003211;00000;0.0314;0.0323
us-west-1;us-west-1b;m5d.large;03;13;0.0;0;1534869945000;1535059012000;003151;00000;0.0314;0.0323
us-west-1;us-west-1b;m5d.large;03;14;0.0;0;1534873545000;1535059012000;003091;00000;0.0314;0.0323
us-west-1;us-west-1b;m5d.large;03;15;0.0;0;1534877145000;1535059012000;003031;00000;0.0314;0.0323
us-west-1;us-west-1b;m5d.large;03;16;0.0;0;1534880745000;1535059012000;002971;00000;0.0314;0.0323
us-west-1;us-west-1b;m5d.large;03;17;0.0;0;1534884345000;1535059012000;002911;00000;0.0314;0.0323
us-west-1;us-west-1b;m5d.large;03;18;0.0;0;1534887945000;1535059012000;002851;00000;0.0314;0.0323
us-west-1;us-west-1b;m5d.large;03;19;0.0;0;1534891545000;1535059012000;002791;00000;0.0314;0.0323
us-west-1;us-west-1b;m5d.large;03;20;0.0;0;1534895145000;1535059012000;002731;00000;0.0314;0.0323
us-west-1;us-west-1b;m5d.large;03;21;0.0;0;1534898745000;1535059012000;002671;00000;0.0314;0.0323
us-west-1;us-west-1b;m5d.large;03;22;0.0;0;1534902345000;1535059012000;002611;00000;0.0314;0.0323
us-west-1;us-west-1b;m5d.large;03;23;0.0;0;1534905945000;1535059012000;002551;00000;0.0314;0.0323
us-west-1;us-west-1b;m5d.large;04;00;0.0;0;1534909545000;1535059012000;002491;00000;0.0314;0.0323
us-west-1;us-west-1b;m5d.large;04;01;0.0;0;1534913145000;1535059012000;002431;00000;0.0314;0.0323
us-west-1;us-west-1b;m5d.large;04;02;0.0;0;1534916745000;1535059012000;002371;00000;0.0314;0.0323
us-west-1;us-west-1b;m5d.large;04;03;0.0;0;1534920345000;1535059012000;002311;00000;0.0314;0.0323
us-west-1;us-west-1b;m5d.large;04;04;0.0;0;1534923945000;1535059012000;002251;00000;0.0314;0.0323
us-west-1;us-west-1b;m5d.large;04;05;0.0;0;1534927545000;1535059012000;002191;00000;0.0314;0.0323
us-west-1;us-west-1b;m5d.large;04;06;0.0;0;1534931145000;1535059012000;002131;00000;0.0314;0.0323
us-west-1;us-west-1b;m5d.large;04;07;0.0;0;1534934745000;1535059012000;002071;00000;0.0314;0.0323
us-west-1;us-west-1b;m5d.large;04;08;0.0;0;1534938345000;1535059012000;002011;00000;0.0314;0.0323
us-west-1;us-west-1b;m5d.large;04;09;0.0;0;1534941945000;1535059012000;001951;00000;0.0314;0.0323
us-west-1;us-west-1b;m5d.large;04;10;0.0;0;1534945545000;1535059012000;001891;00000;0.0314;0.0323
us-west-1;us-west-1b;m5d.large;04;11;0.0;0;1534949145000;1535059012000;001831;00000;0.0314;0.0323
us-west-1;us-west-1b;m5d.large;04;12;0.0;0;1534952745000;1535059012000;001771;00000;0.0314;0.0323
us-west-1;us-west-1b;m5d.large;04;13;0.0;0;1534956345000;1535059012000;001711;00000;0.0314;0.0323
us-west-1;us-west-1b;m5d.large;04;14;0.0;0;1534959945000;1535059012000;001651;00000;0.0314;0.0323
us-west-1;us-west-1b;m5d.large;04;15;0.0;0;1534963545000;1535059012000;001591;00000;0.0314;0.0323
us-west-1;us-west-1b;m5d.large;04;16;0.0;0;1534967145000;1535059012000;001531;00000;0.0314;0.0323
us-west-1;us-west-1b;m5d.large;04;17;0.0;0;1534970745000;1535059012000;001471;00000;0.0314;0.0323
us-west-1;us-west-1b;m5d.large;04;18;0.0;0;1534974345000;1535059012000;001411;00000;0.0314;0.0323
us-west-1;us-west-1b;m5d.large;04;19;0.0;0;1534977945000;1535059012000;001351;00000;0.0314;0.0323
us-west-1;us-west-1b;m5d.large;04;20;0.0;0;1534981545000;1535059012000;001291;00000;0.0314;0.0323
us-west-1;us-west-1b;m5d.large;04;21;0.0;0;1534985145000;1535059012000;001231;00000;0.0314;0.0323
us-west-1;us-west-1b;m5d.large;04;22;0.0;0;1534988745000;1535059012000;001171;00000;0.0314;0.0323
us-west-1;us-west-1b;m5d.large;04;23;0.0;0;1534992345000;1535059012000;001111;00000;0.0314;0.0323
us-west-1;us-west-1b;m5d.large;05;00;0.0;0;1534995945000;1535059012000;001051;00000;0.0314;0.0323
us-west-1;us-west-1b;m5d.large;05;01;0.0;0;1534999545000;1535059012000;000991;00000;0.0314;0.0323
us-west-1;us-west-1b;m5d.large;05;02;0.0;0;1535003145000;1535059012000;000931;00000;0.0314;0.0323
us-west-1;us-west-1b;m5d.large;05;03;0.0;0;1535006745000;1535059012000;000871;00000;0.0314;0.0323
us-west-1;us-west-1b;m5d.large;05;04;0.0;0;1535010345000;1535059012000;000811;00000;0.0314;0.0323
us-west-1;us-west-1b;m5d.large;05;05;0.0;0;1535013945000;1535059012000;000751;00000;0.0314;0.0323
us-west-1;us-west-1b;m5d.large;05;06;0.0;0;1535017545000;1535059012000;000691;00000;0.0314;0.0323
us-west-1;us-west-1b;m5d.large;05;07;0.0;0;1535021145000;1535059012000;000631;00000;0.0314;0.0323
us-west-1;us-west-1b;m5d.large;05;08;0.0;0;1535024745000;1535059012000;000571;00000;0.0314;0.0323
us-west-1;us-west-1b;m5d.large;05;09;0.0;0;1535028345000;1535059012000;000511;00000;0.0314;0.0323
us-west-1;us-west-1b;m5d.large;05;10;0.0;0;1535031945000;1535059012000;000451;00000;0.0314;0.0323
us-west-1;us-west-1b;m5d.large;05;11;0.0;0;1535035545000;1535059012000;000391;00000;0.0314;0.0323
us-west-1;us-west-1b;m5d.large;05;12;0.0;0;1535039145000;1535059012000;000331;00000;0.0314;0.0323
us-west-1;us-west-1b;m5d.large;05;13;0.0;0;1535042745000;1535059012000;000271;00000;0.0314;0.0323
us-west-1;us-west-1b;m5d.large;05;14;0.0;0;1535046345000;1535059012000;000211;00000;0.0314;0.0323
us-west-1;us-west-1b;m5d.large;05;15;0.0;0;1535049945000;1535059012000;000151;00000;0.0314;0.0323
us-west-1;us-west-1b;m5d.large;05;16;0.0;0;1535053545000;1535059012000;000091;00000;0.0314;0.0323
us-west-1;us-west-1b;m5d.large;01;14;1.0;0;1534699362000;1535059012000;005994;00006;0.0314;0.0323
us-west-1;us-west-1b;m5d.large;01;15;0.0;0;1534702962000;1535059012000;005934;00000;0.0314;0.0323
us-west-1;us-west-1b;m5d.large;01;16;0.0;0;1534706562000;1535059012000;005874;00000;0.0314;0.0323
us-west-1;us-west-1b;m5d.large;01;17;0.0;0;1534710162000;1535059012000;005814;00000;0.0314;0.0323
us-west-1;us-west-1b;m5d.large;01;18;0.0;0;1534713762000;1535059012000;005754;00000;0.0314;0.0323
us-west-1;us-west-1b;m5d.large;01;19;0.0;0;1534717362000;1535059012000;005694;00000;0.0314;0.0323
us-west-1;us-west-1b;m5d.large;01;20;0.0;0;1534720962000;1535059012000;005634;00000;0.0314;0.0323
us-west-1;us-west-1b;m5d.large;01;21;0.0;0;1534724562000;1535059012000;005574;00000;0.0314;0.0323
us-west-1;us-west-1b;m5d.large;01;22;0.0;0;1534728162000;1535059012000;005514;00000;0.0314;0.0323
us-west-1;us-west-1b;m5d.large;01;23;0.0;0;1534731762000;1535059012000;005454;00000;0.0314;0.0323
us-west-1;us-west-1b;m5d.large;02;00;0.0;0;1534735362000;1535059012000;005394;00000;0.0314;0.0323
us-west-1;us-west-1b;m5d.large;02;01;0.0;0;1534738962000;1535059012000;005334;00000;0.0314;0.0323
us-west-1;us-west-1b;m5d.large;02;02;0.0;0;1534742562000;1535059012000;005274;00000;0.0314;0.0323
us-west-1;us-west-1b;m5d.large;02;03;0.0;0;1534746162000;1535059012000;005214;00000;0.0314;0.0323
us-west-1;us-west-1b;m5d.large;02;04;0.0;0;1534749762000;1535059012000;005154;00000;0.0314;0.0323
us-west-1;us-west-1b;m5d.large;02;05;0.0;0;1534753362000;1535059012000;005094;00000;0.0314;0.0323
us-west-1;us-west-1b;m5d.large;02;06;0.0;0;1534756962000;1535059012000;005034;00000;0.0314;0.0323
us-west-1;us-west-1b;m5d.large;02;07;0.0;0;1534760562000;1535059012000;004974;00000;0.0314;0.0323
us-west-1;us-west-1b;m5d.large;02;08;0.0;0;1534764162000;1535059012000;004914;00000;0.0314;0.0323
us-west-1;us-west-1b;m5d.large;02;09;0.0;0;1534767762000;1535059012000;004854;00000;0.0314;0.0323
us-west-1;us-west-1b;m5d.large;02;10;0.0;0;1534771362000;1535059012000;004794;00000;0.0314;0.0323
us-west-1;us-west-1b;m5d.large;02;11;0.0;0;1534774962000;1535059012000;004734;00000;0.0314;0.0323
us-west-1;us-west-1b;m5d.large;02;12;0.0;0;1534778562000;1535059012000;004674;00000;0.0314;0.0323
us-west-1;us-west-1b;m5d.large;02;13;0.0;0;1534782162000;1535059012000;004614;00000;0.0314;0.0323
us-west-1;us-west-1b;m5d.large;02;14;0.0;0;1534785762000;1535059012000;004554;00000;0.0314;0.0323
us-west-1;us-west-1b;m5d.large;02;15;0.0;0;1534789362000;1535059012000;004494;00000;0.0314;0.0323
us-west-1;us-west-1b;m5d.large;02;16;0.0;0;1534792962000;1535059012000;004434;00000;0.0314;0.0323
us-west-1;us-west-1b;m5d.large;02;17;0.0;0;1534796562000;1535059012000;004374;00000;0.0314;0.0323
us-west-1;us-west-1b;m5d.large;02;18;0.0;0;1534800162000;1535059012000;004314;00000;0.0314;0.0323
us-west-1;us-west-1b;m5d.large;02;19;0.0;0;1534803762000;1535059012000;004254;00000;0.0314;0.0323
us-west-1;us-west-1b;m5d.large;02;20;0.0;0;1534807362000;1535059012000;004194;00000;0.0314;0.0323
us-west-1;us-west-1b;m5d.large;02;21;0.0;0;1534810962000;1535059012000;004134;00000;0.0314;0.0323
us-west-1;us-west-1b;m5d.large;02;22;0.0;0;1534814562000;1535059012000;004074;00000;0.0314;0.0323
us-west-1;us-west-1b;m5d.large;02;23;0.0;0;1534818162000;1535059012000;004014;00000;0.0314;0.0323
us-west-1;us-west-1b;m5d.large;03;00;0.0;0;1534821762000;1535059012000;003954;00000;0.0314;0.0323
us-west-1;us-west-1b;m5d.large;03;01;0.0;0;1534825362000;1535059012000;003894;00000;0.0314;0.0323
us-west-1;us-west-1b;m5d.large;03;02;0.0;0;1534828962000;1535059012000;003834;00000;0.0314;0.0323
us-west-1;us-west-1b;m5d.large;03;03;0.0;0;1534832562000;1535059012000;003774;00000;0.0314;0.0323
us-west-1;us-west-1b;m5d.large;03;04;0.0;0;1534836162000;1535059012000;003714;00000;0.0314;0.0323
us-west-1;us-west-1b;m5d.large;03;05;0.0;0;1534839762000;1535059012000;003654;00000;0.0314;0.0323
us-west-1;us-west-1b;m5d.large;03;06;0.0;0;1534843362000;1535059012000;003594;00000;0.0314;0.0323
us-west-1;us-west-1b;m5d.large;03;07;0.0;0;1534846962000;1535059012000;003534;00000;0.0314;0.0323
us-west-1;us-west-1b;m5d.large;03;08;0.0;0;1534850562000;1535059012000;003474;00000;0.0314;0.0323
us-west-1;us-west-1b;m5d.large;03;09;0.0;0;1534854162000;1535059012000;003414;00000;0.0314;0.0323
us-west-1;us-west-1b;m5d.large;03;10;0.0;0;1534857762000;1535059012000;003354;00000;0.0314;0.0323
us-west-1;us-west-1b;m5d.large;03;11;0.0;0;1534861362000;1535059012000;003294;00000;0.0314;0.0323
us-west-1;us-west-1b;m5d.large;03;12;0.0;0;1534864962000;1535059012000;003234;00000;0.0314;0.0323
us-west-1;us-west-1b;m5d.large;03;13;0.0;0;1534868562000;1535059012000;003174;00000;0.0314;0.0323
us-west-1;us-west-1b;m5d.large;03;14;0.0;0;1534872162000;1535059012000;003114;00000;0.0314;0.0323
us-west-1;us-west-1b;m5d.large;03;15;0.0;0;1534875762000;1535059012000;003054;00000;0.0314;0.0323
us-west-1;us-west-1b;m5d.large;03;16;0.0;0;1534879362000;1535059012000;002994;00000;0.0314;0.0323
us-west-1;us-west-1b;m5d.large;03;17;0.0;0;1534882962000;1535059012000;002934;00000;0.0314;0.0323
us-west-1;us-west-1b;m5d.large;03;18;0.0;0;1534886562000;1535059012000;002874;00000;0.0314;0.0323
us-west-1;us-west-1b;m5d.large;03;19;0.0;0;1534890162000;1535059012000;002814;00000;0.0314;0.0323
us-west-1;us-west-1b;m5d.large;03;20;0.0;0;1534893762000;1535059012000;002754;00000;0.0314;0.0323
us-west-1;us-west-1b;m5d.large;03;21;0.0;0;1534897362000;1535059012000;002694;00000;0.0314;0.0323
us-west-1;us-west-1b;m5d.large;03;22;0.0;0;1534900962000;1535059012000;002634;00000;0.0314;0.0323
us-west-1;us-west-1b;m5d.large;03;23;0.0;0;1534904562000;1535059012000;002574;00000;0.0314;0.0323
us-west-1;us-west-1b;m5d.large;04;00;0.0;0;1534908162000;1535059012000;002514;00000;0.0314;0.0323
us-west-1;us-west-1b;m5d.large;04;01;0.0;0;1534911762000;1535059012000;002454;00000;0.0314;0.0323
us-west-1;us-west-1b;m5d.large;04;02;0.0;0;1534915362000;1535059012000;002394;00000;0.0314;0.0323
us-west-1;us-west-1b;m5d.large;04;03;0.0;0;1534918962000;1535059012000;002334;00000;0.0314;0.0323
us-west-1;us-west-1b;m5d.large;04;04;0.0;0;1534922562000;1535059012000;002274;00000;0.0314;0.0323
us-west-1;us-west-1b;m5d.large;04;05;0.0;0;1534926162000;1535059012000;002214;00000;0.0314;0.0323
us-west-1;us-west-1b;m5d.large;04;06;0.0;0;1534929762000;1535059012000;002154;00000;0.0314;0.0323
us-west-1;us-west-1b;m5d.large;04;07;0.0;0;1534933362000;1535059012000;002094;00000;0.0314;0.0323
us-west-1;us-west-1b;m5d.large;04;08;0.0;0;1534936962000;1535059012000;002034;00000;0.0314;0.0323
us-west-1;us-west-1b;m5d.large;04;09;0.0;0;1534940562000;1535059012000;001974;00000;0.0314;0.0323
us-west-1;us-west-1b;m5d.large;04;10;0.0;0;1534944162000;1535059012000;001914;00000;0.0314;0.0323
us-west-1;us-west-1b;m5d.large;04;11;0.0;0;1534947762000;1535059012000;001854;00000;0.0314;0.0323
us-west-1;us-west-1b;m5d.large;04;12;0.0;0;1534951362000;1535059012000;001794;00000;0.0314;0.0323
us-west-1;us-west-1b;m5d.large;04;13;0.0;0;1534954962000;1535059012000;001734;00000;0.0314;0.0323
us-west-1;us-west-1b;m5d.large;04;14;0.0;0;1534958562000;1535059012000;001674;00000;0.0314;0.0323
us-west-1;us-west-1b;m5d.large;04;15;0.0;0;1534962162000;1535059012000;001614;00000;0.0314;0.0323
us-west-1;us-west-1b;m5d.large;04;16;0.0;0;1534965762000;1535059012000;001554;00000;0.0314;0.0323
us-west-1;us-west-1b;m5d.large;04;17;0.0;0;1534969362000;1535059012000;001494;00000;0.0314;0.0323
us-west-1;us-west-1b;m5d.large;04;18;0.0;0;1534972962000;1535059012000;001434;00000;0.0314;0.0323
us-west-1;us-west-1b;m5d.large;04;19;0.0;0;1534976562000;1535059012000;001374;00000;0.0314;0.0323
us-west-1;us-west-1b;m5d.large;04;20;0.0;0;1534980162000;1535059012000;001314;00000;0.0314;0.0323
us-west-1;us-west-1b;m5d.large;04;21;0.0;0;1534983762000;1535059012000;001254;00000;0.0314;0.0323
us-west-1;us-west-1b;m5d.large;04;22;0.0;0;1534987362000;1535059012000;001194;00000;0.0314;0.0323
us-west-1;us-west-1b;m5d.large;04;23;0.0;0;1534990962000;1535059012000;001134;00000;0.0314;0.0323
us-west-1;us-west-1b;m5d.large;05;00;0.0;0;1534994562000;1535059012000;001074;00000;0.0314;0.0323
us-west-1;us-west-1b;m5d.large;05;01;0.0;0;1534998162000;1535059012000;001014;00000;0.0314;0.0323
us-west-1;us-west-1b;m5d.large;05;02;0.0;0;1535001762000;1535059012000;000954;00000;0.0314;0.0323
us-west-1;us-west-1b;m5d.large;05;03;0.0;0;1535005362000;1535059012000;000894;00000;0.0314;0.0323
us-west-1;us-west-1b;m5d.large;05;04;0.0;0;1535008962000;1535059012000;000834;00000;0.0314;0.0323
us-west-1;us-west-1b;m5d.large;05;05;0.0;0;1535012562000;1535059012000;000774;00000;0.0314;0.0323
us-west-1;us-west-1b;m5d.large;05;06;0.0;0;1535016162000;1535059012000;000714;00000;0.0314;0.0323
us-west-1;us-west-1b;m5d.large;05;07;0.0;0;1535019762000;1535059012000;000654;00000;0.0314;0.0323
us-west-1;us-west-1b;m5d.large;05;08;0.0;0;1535023362000;1535059012000;000594;00000;0.0314;0.0323
us-west-1;us-west-1b;m5d.large;05;09;0.0;0;1535026962000;1535059012000;000534;00000;0.0314;0.0323
us-west-1;us-west-1b;m5d.large;05;10;0.0;0;1535030562000;1535059012000;000474;00000;0.0314;0.0323
us-west-1;us-west-1b;m5d.large;05;11;0.0;0;1535034162000;1535059012000;000414;00000;0.0314;0.0323
us-west-1;us-west-1b;m5d.large;05;12;0.0;0;1535037762000;1535059012000;000354;00000;0.0314;0.0323
us-west-1;us-west-1b;m5d.large;05;13;0.0;0;1535041362000;1535059012000;000294;00000;0.0314;0.0323
us-west-1;us-west-1b;m5d.large;05;14;0.0;0;1535044962000;1535059012000;000234;00000;0.0314;0.0323
us-west-1;us-west-1b;m5d.large;05;15;0.0;0;1535048562000;1535059012000;000174;00000;0.0314;0.0323
us-west-1;us-west-1b;m5d.large;05;16;0.0;0;1535052162000;1535059012000;000114;00000;0.0314;0.0323
us-west-1;us-west-1b;m5d.large;02;05;1.0;0;1534754778000;1535059012000;005070;00005;0.0314;0.0323
us-west-1;us-west-1b;m5d.large;02;06;0.0;0;1534758378000;1535059012000;005010;00000;0.0314;0.0323
us-west-1;us-west-1b;m5d.large;02;07;0.0;0;1534761978000;1535059012000;004950;00000;0.0314;0.0323
us-west-1;us-west-1b;m5d.large;02;08;0.0;0;1534765578000;1535059012000;004890;00000;0.0314;0.0323
us-west-1;us-west-1b;m5d.large;02;09;0.0;0;1534769178000;1535059012000;004830;00000;0.0314;0.0323
us-west-1;us-west-1b;m5d.large;02;10;0.0;0;1534772778000;1535059012000;004770;00000;0.0314;0.0323
us-west-1;us-west-1b;m5d.large;02;11;0.0;0;1534776378000;1535059012000;004710;00000;0.0314;0.0323
us-west-1;us-west-1b;m5d.large;02;12;0.0;0;1534779978000;1535059012000;004650;00000;0.0314;0.0323
us-west-1;us-west-1b;m5d.large;02;13;0.0;0;1534783578000;1535059012000;004590;00000;0.0314;0.0323
us-west-1;us-west-1b;m5d.large;02;14;0.0;0;1534787178000;1535059012000;004530;00000;0.0314;0.0323
us-west-1;us-west-1b;m5d.large;02;15;0.0;0;1534790778000;1535059012000;004470;00000;0.0314;0.0323
us-west-1;us-west-1b;m5d.large;02;16;0.0;0;1534794378000;1535059012000;004410;00000;0.0314;0.0323
us-west-1;us-west-1b;m5d.large;02;17;0.0;0;1534797978000;1535059012000;004350;00000;0.0314;0.0323
us-west-1;us-west-1b;m5d.large;02;18;0.0;0;1534801578000;1535059012000;004290;00000;0.0314;0.0323
us-west-1;us-west-1b;m5d.large;02;19;0.0;0;1534805178000;1535059012000;004230;00000;0.0314;0.0323
us-west-1;us-west-1b;m5d.large;02;20;0.0;0;1534808778000;1535059012000;004170;00000;0.0314;0.0323
us-west-1;us-west-1b;m5d.large;02;21;0.0;0;1534812378000;1535059012000;004110;00000;0.0314;0.0323
us-west-1;us-west-1b;m5d.large;02;22;0.0;0;1534815978000;1535059012000;004050;00000;0.0314;0.0323
us-west-1;us-west-1b;m5d.large;02;23;0.0;0;1534819578000;1535059012000;003990;00000;0.0314;0.0323
us-west-1;us-west-1b;m5d.large;03;00;0.0;0;1534823178000;1535059012000;003930;00000;0.0314;0.0323
us-west-1;us-west-1b;m5d.large;03;01;0.0;0;1534826778000;1535059012000;003870;00000;0.0314;0.0323
us-west-1;us-west-1b;m5d.large;03;02;0.0;0;1534830378000;1535059012000;003810;00000;0.0314;0.0323
us-west-1;us-west-1b;m5d.large;03;03;0.0;0;1534833978000;1535059012000;003750;00000;0.0314;0.0323
us-west-1;us-west-1b;m5d.large;03;04;0.0;0;1534837578000;1535059012000;003690;00000;0.0314;0.0323
us-west-1;us-west-1b;m5d.large;03;05;0.0;0;1534841178000;1535059012000;003630;00000;0.0314;0.0323
us-west-1;us-west-1b;m5d.large;03;06;0.0;0;1534844778000;1535059012000;003570;00000;0.0314;0.0323
us-west-1;us-west-1b;m5d.large;03;07;0.0;0;1534848378000;1535059012000;003510;00000;0.0314;0.0323
us-west-1;us-west-1b;m5d.large;03;08;0.0;0;1534851978000;1535059012000;003450;00000;0.0314;0.0323
us-west-1;us-west-1b;m5d.large;03;09;0.0;0;1534855578000;1535059012000;003390;00000;0.0314;0.0323
us-west-1;us-west-1b;m5d.large;03;10;0.0;0;1534859178000;1535059012000;003330;00000;0.0314;0.0323
us-west-1;us-west-1b;m5d.large;03;11;0.0;0;1534862778000;1535059012000;003270;00000;0.0314;0.0323
us-west-1;us-west-1b;m5d.large;03;12;0.0;0;1534866378000;1535059012000;003210;00000;0.0314;0.0323
us-west-1;us-west-1b;m5d.large;03;13;0.0;0;1534869978000;1535059012000;003150;00000;0.0314;0.0323
us-west-1;us-west-1b;m5d.large;03;14;0.0;0;1534873578000;1535059012000;003090;00000;0.0314;0.0323
us-west-1;us-west-1b;m5d.large;03;15;0.0;0;1534877178000;1535059012000;003030;00000;0.0314;0.0323
us-west-1;us-west-1b;m5d.large;03;16;0.0;0;1534880778000;1535059012000;002970;00000;0.0314;0.0323
us-west-1;us-west-1b;m5d.large;03;17;0.0;0;1534884378000;1535059012000;002910;00000;0.0314;0.0323
us-west-1;us-west-1b;m5d.large;03;18;0.0;0;1534887978000;1535059012000;002850;00000;0.0314;0.0323
us-west-1;us-west-1b;m5d.large;03;19;0.0;0;1534891578000;1535059012000;002790;00000;0.0314;0.0323
us-west-1;us-west-1b;m5d.large;03;20;0.0;0;1534895178000;1535059012000;002730;00000;0.0314;0.0323
us-west-1;us-west-1b;m5d.large;03;21;0.0;0;1534898778000;1535059012000;002670;00000;0.0314;0.0323
us-west-1;us-west-1b;m5d.large;03;22;0.0;0;1534902378000;1535059012000;002610;00000;0.0314;0.0323
us-west-1;us-west-1b;m5d.large;03;23;0.0;0;1534905978000;1535059012000;002550;00000;0.0314;0.0323
us-west-1;us-west-1b;m5d.large;04;00;0.0;0;1534909578000;1535059012000;002490;00000;0.0314;0.0323
us-west-1;us-west-1b;m5d.large;04;01;0.0;0;1534913178000;1535059012000;002430;00000;0.0314;0.0323
us-west-1;us-west-1b;m5d.large;04;02;0.0;0;1534916778000;1535059012000;002370;00000;0.0314;0.0323
us-west-1;us-west-1b;m5d.large;04;03;0.0;0;1534920378000;1535059012000;002310;00000;0.0314;0.0323
us-west-1;us-west-1b;m5d.large;04;04;0.0;0;1534923978000;1535059012000;002250;00000;0.0314;0.0323
us-west-1;us-west-1b;m5d.large;04;05;0.0;0;1534927578000;1535059012000;002190;00000;0.0314;0.0323
us-west-1;us-west-1b;m5d.large;04;06;0.0;0;1534931178000;1535059012000;002130;00000;0.0314;0.0323
us-west-1;us-west-1b;m5d.large;04;07;0.0;0;1534934778000;1535059012000;002070;00000;0.0314;0.0323
us-west-1;us-west-1b;m5d.large;04;08;0.0;0;1534938378000;1535059012000;002010;00000;0.0314;0.0323
us-west-1;us-west-1b;m5d.large;04;09;0.0;0;1534941978000;1535059012000;001950;00000;0.0314;0.0323
us-west-1;us-west-1b;m5d.large;04;10;0.0;0;1534945578000;1535059012000;001890;00000;0.0314;0.0323
us-west-1;us-west-1b;m5d.large;04;11;0.0;0;1534949178000;1535059012000;001830;00000;0.0314;0.0323
us-west-1;us-west-1b;m5d.large;04;12;0.0;0;1534952778000;1535059012000;001770;00000;0.0314;0.0323
us-west-1;us-west-1b;m5d.large;04;13;0.0;0;1534956378000;1535059012000;001710;00000;0.0314;0.0323
us-west-1;us-west-1b;m5d.large;04;14;0.0;0;1534959978000;1535059012000;001650;00000;0.0314;0.0323
us-west-1;us-west-1b;m5d.large;04;15;0.0;0;1534963578000;1535059012000;001590;00000;0.0314;0.0323
us-west-1;us-west-1b;m5d.large;04;16;0.0;0;1534967178000;1535059012000;001530;00000;0.0314;0.0323
us-west-1;us-west-1b;m5d.large;04;17;0.0;0;1534970778000;1535059012000;001470;00000;0.0314;0.0323
us-west-1;us-west-1b;m5d.large;04;18;0.0;0;1534974378000;1535059012000;001410;00000;0.0314;0.0323
us-west-1;us-west-1b;m5d.large;04;19;0.0;0;1534977978000;1535059012000;001350;00000;0.0314;0.0323
us-west-1;us-west-1b;m5d.large;04;20;0.0;0;1534981578000;1535059012000;001290;00000;0.0314;0.0323
us-west-1;us-west-1b;m5d.large;04;21;0.0;0;1534985178000;1535059012000;001230;00000;0.0314;0.0323
us-west-1;us-west-1b;m5d.large;04;22;0.0;0;1534988778000;1535059012000;001170;00000;0.0314;0.0323
us-west-1;us-west-1b;m5d.large;04;23;0.0;0;1534992378000;1535059012000;001110;00000;0.0314;0.0323
us-west-1;us-west-1b;m5d.large;05;00;0.0;0;1534995978000;1535059012000;001050;00000;0.0314;0.0323
us-west-1;us-west-1b;m5d.large;05;01;0.0;0;1534999578000;1535059012000;000990;00000;0.0314;0.0323
us-west-1;us-west-1b;m5d.large;05;02;0.0;0;1535003178000;1535059012000;000930;00000;0.0314;0.0323
us-west-1;us-west-1b;m5d.large;05;03;0.0;0;1535006778000;1535059012000;000870;00000;0.0314;0.0323
us-west-1;us-west-1b;m5d.large;05;04;0.0;0;1535010378000;1535059012000;000810;00000;0.0314;0.0323
us-west-1;us-west-1b;m5d.large;05;05;0.0;0;1535013978000;1535059012000;000750;00000;0.0314;0.0323
us-west-1;us-west-1b;m5d.large;05;06;0.0;0;1535017578000;1535059012000;000690;00000;0.0314;0.0323
us-west-1;us-west-1b;m5d.large;05;07;0.0;0;1535021178000;1535059012000;000630;00000;0.0314;0.0323
us-west-1;us-west-1b;m5d.large;05;08;0.0;0;1535024778000;1535059012000;000570;00000;0.0314;0.0323
us-west-1;us-west-1b;m5d.large;05;09;0.0;0;1535028378000;1535059012000;000510;00000;0.0314;0.0323
us-west-1;us-west-1b;m5d.large;05;10;0.0;0;1535031978000;1535059012000;000450;00000;0.0314;0.0323
us-west-1;us-west-1b;m5d.large;05;11;0.0;0;1535035578000;1535059012000;000390;00000;0.0314;0.0323
us-west-1;us-west-1b;m5d.large;05;12;0.0;0;1535039178000;1535059012000;000330;00000;0.0314;0.0323
us-west-1;us-west-1b;m5d.large;05;13;0.0;0;1535042778000;1535059012000;000270;00000;0.0314;0.0323
us-west-1;us-west-1b;m5d.large;05;14;0.0;0;1535046378000;1535059012000;000210;00000;0.0314;0.0323
us-west-1;us-west-1b;m5d.large;05;15;0.0;0;1535049978000;1535059012000;000150;00000;0.0314;0.0323
us-west-1;us-west-1b;m5d.large;05;16;0.0;0;1535053578000;1535059012000;000090;00000;0.0314;0.0323
us-west-1;us-west-1b;m5d.large;03;05;1.0;0;1534841200000;1535059012000;003630;00004;0.0314;0.0323
us-west-1;us-west-1b;m5d.large;03;06;0.0;0;1534844800000;1535059012000;003570;00000;0.0314;0.0323
us-west-1;us-west-1b;m5d.large;03;07;0.0;0;1534848400000;1535059012000;003510;00000;0.0314;0.0323
us-west-1;us-west-1b;m5d.large;03;08;0.0;0;1534852000000;1535059012000;003450;00000;0.0314;0.0323
us-west-1;us-west-1b;m5d.large;03;09;0.0;0;1534855600000;1535059012000;003390;00000;0.0314;0.0323
us-west-1;us-west-1b;m5d.large;03;10;0.0;0;1534859200000;1535059012000;003330;00000;0.0314;0.0323
us-west-1;us-west-1b;m5d.large;03;11;0.0;0;1534862800000;1535059012000;003270;00000;0.0314;0.0323
us-west-1;us-west-1b;m5d.large;03;12;0.0;0;1534866400000;1535059012000;003210;00000;0.0314;0.0323
us-west-1;us-west-1b;m5d.large;03;13;0.0;0;1534870000000;1535059012000;003150;00000;0.0314;0.0323
us-west-1;us-west-1b;m5d.large;03;14;0.0;0;1534873600000;1535059012000;003090;00000;0.0314;0.0323
us-west-1;us-west-1b;m5d.large;03;15;0.0;0;1534877200000;1535059012000;003030;00000;0.0314;0.0323
us-west-1;us-west-1b;m5d.large;03;16;0.0;0;1534880800000;1535059012000;002970;00000;0.0314;0.0323
us-west-1;us-west-1b;m5d.large;03;17;0.0;0;1534884400000;1535059012000;002910;00000;0.0314;0.0323
us-west-1;us-west-1b;m5d.large;03;18;0.0;0;1534888000000;1535059012000;002850;00000;0.0314;0.0323
us-west-1;us-west-1b;m5d.large;03;19;0.0;0;1534891600000;1535059012000;002790;00000;0.0314;0.0323
us-west-1;us-west-1b;m5d.large;03;20;0.0;0;1534895200000;1535059012000;002730;00000;0.0314;0.0323
us-west-1;us-west-1b;m5d.large;03;21;0.0;0;1534898800000;1535059012000;002670;00000;0.0314;0.0323
us-west-1;us-west-1b;m5d.large;03;22;0.0;0;1534902400000;1535059012000;002610;00000;0.0314;0.0323
us-west-1;us-west-1b;m5d.large;03;23;0.0;0;1534906000000;1535059012000;002550;00000;0.0314;0.0323
us-west-1;us-west-1b;m5d.large;04;00;0.0;0;1534909600000;1535059012000;002490;00000;0.0314;0.0323
us-west-1;us-west-1b;m5d.large;04;01;0.0;0;1534913200000;1535059012000;002430;00000;0.0314;0.0323
us-west-1;us-west-1b;m5d.large;04;02;0.0;0;1534916800000;1535059012000;002370;00000;0.0314;0.0323
us-west-1;us-west-1b;m5d.large;04;03;0.0;0;1534920400000;1535059012000;002310;00000;0.0314;0.0323
us-west-1;us-west-1b;m5d.large;04;04;0.0;0;1534924000000;1535059012000;002250;00000;0.0314;0.0323
us-west-1;us-west-1b;m5d.large;04;05;0.0;0;1534927600000;1535059012000;002190;00000;0.0314;0.0323
us-west-1;us-west-1b;m5d.large;04;06;0.0;0;1534931200000;1535059012000;002130;00000;0.0314;0.0323
us-west-1;us-west-1b;m5d.large;04;07;0.0;0;1534934800000;1535059012000;002070;00000;0.0314;0.0323
us-west-1;us-west-1b;m5d.large;04;08;0.0;0;1534938400000;1535059012000;002010;00000;0.0314;0.0323
us-west-1;us-west-1b;m5d.large;04;09;0.0;0;1534942000000;1535059012000;001950;00000;0.0314;0.0323
us-west-1;us-west-1b;m5d.large;04;10;0.0;0;1534945600000;1535059012000;001890;00000;0.0314;0.0323
us-west-1;us-west-1b;m5d.large;04;11;0.0;0;1534949200000;1535059012000;001830;00000;0.0314;0.0323
us-west-1;us-west-1b;m5d.large;04;12;0.0;0;1534952800000;1535059012000;001770;00000;0.0314;0.0323
us-west-1;us-west-1b;m5d.large;04;13;0.0;0;1534956400000;1535059012000;001710;00000;0.0314;0.0323
us-west-1;us-west-1b;m5d.large;04;14;0.0;0;1534960000000;1535059012000;001650;00000;0.0314;0.0323
us-west-1;us-west-1b;m5d.large;04;15;0.0;0;1534963600000;1535059012000;001590;00000;0.0314;0.0323
us-west-1;us-west-1b;m5d.large;04;16;0.0;0;1534967200000;1535059012000;001530;00000;0.0314;0.0323
us-west-1;us-west-1b;m5d.large;04;17;0.0;0;1534970800000;1535059012000;001470;00000;0.0314;0.0323
us-west-1;us-west-1b;m5d.large;04;18;0.0;0;1534974400000;1535059012000;001410;00000;0.0314;0.0323
us-west-1;us-west-1b;m5d.large;04;19;0.0;0;1534978000000;1535059012000;001350;00000;0.0314;0.0323
us-west-1;us-west-1b;m5d.large;04;20;0.0;0;1534981600000;1535059012000;001290;00000;0.0314;0.0323
us-west-1;us-west-1b;m5d.large;04;21;0.0;0;1534985200000;1535059012000;001230;00000;0.0314;0.0323
us-west-1;us-west-1b;m5d.large;04;22;0.0;0;1534988800000;1535059012000;001170;00000;0.0314;0.0323
us-west-1;us-west-1b;m5d.large;04;23;0.0;0;1534992400000;1535059012000;001110;00000;0.0314;0.0323
us-west-1;us-west-1b;m5d.large;05;00;0.0;0;1534996000000;1535059012000;001050;00000;0.0314;0.0323
us-west-1;us-west-1b;m5d.large;05;01;0.0;0;1534999600000;1535059012000;000990;00000;0.0314;0.0323
us-west-1;us-west-1b;m5d.large;05;02;0.0;0;1535003200000;1535059012000;000930;00000;0.0314;0.0323
us-west-1;us-west-1b;m5d.large;05;03;0.0;0;1535006800000;1535059012000;000870;00000;0.0314;0.0323
us-west-1;us-west-1b;m5d.large;05;04;0.0;0;1535010400000;1535059012000;000810;00000;0.0314;0.0323
us-west-1;us-west-1b;m5d.large;05;05;0.0;0;1535014000000;1535059012000;000750;00000;0.0314;0.0323
us-west-1;us-west-1b;m5d.large;05;06;0.0;0;1535017600000;1535059012000;000690;00000;0.0314;0.0323
us-west-1;us-west-1b;m5d.large;05;07;0.0;0;1535021200000;1535059012000;000630;00000;0.0314;0.0323
us-west-1;us-west-1b;m5d.large;05;08;0.0;0;1535024800000;1535059012000;000570;00000;0.0314;0.0323
us-west-1;us-west-1b;m5d.large;05;09;0.0;0;1535028400000;1535059012000;000510;00000;0.0314;0.0323
us-west-1;us-west-1b;m5d.large;05;10;0.0;0;1535032000000;1535059012000;000450;00000;0.0314;0.0323
us-west-1;us-west-1b;m5d.large;05;11;0.0;0;1535035600000;1535059012000;000390;00000;0.0314;0.0323
us-west-1;us-west-1b;m5d.large;05;12;0.0;0;1535039200000;1535059012000;000330;00000;0.0314;0.0323
us-west-1;us-west-1b;m5d.large;05;13;0.0;0;1535042800000;1535059012000;000270;00000;0.0314;0.0323
us-west-1;us-west-1b;m5d.large;05;14;0.0;0;1535046400000;1535059012000;000210;00000;0.0314;0.0323
us-west-1;us-west-1b;m5d.large;05;15;0.0;0;1535050000000;1535059012000;000150;00000;0.0314;0.0323
us-west-1;us-west-1b;m5d.large;05;16;0.0;0;1535053600000;1535059012000;000090;00000;0.0314;0.0323
us-west-1;us-west-1b;m5d.large;04;05;1.0;0;1534927651000;1535059012000;002189;00003;0.0314;0.0323
us-west-1;us-west-1b;m5d.large;04;06;0.0;0;1534931251000;1535059012000;002129;00000;0.0314;0.0323
us-west-1;us-west-1b;m5d.large;04;07;0.0;0;1534934851000;1535059012000;002069;00000;0.0314;0.0323
us-west-1;us-west-1b;m5d.large;04;08;0.0;0;1534938451000;1535059012000;002009;00000;0.0314;0.0323
us-west-1;us-west-1b;m5d.large;04;09;0.0;0;1534942051000;1535059012000;001949;00000;0.0314;0.0323
us-west-1;us-west-1b;m5d.large;04;10;0.0;0;1534945651000;1535059012000;001889;00000;0.0314;0.0323
us-west-1;us-west-1b;m5d.large;04;11;0.0;0;1534949251000;1535059012000;001829;00000;0.0314;0.0323
us-west-1;us-west-1b;m5d.large;04;12;0.0;0;1534952851000;1535059012000;001769;00000;0.0314;0.0323
us-west-1;us-west-1b;m5d.large;04;13;0.0;0;1534956451000;1535059012000;001709;00000;0.0314;0.0323
us-west-1;us-west-1b;m5d.large;04;14;0.0;0;1534960051000;1535059012000;001649;00000;0.0314;0.0323
us-west-1;us-west-1b;m5d.large;04;15;0.0;0;1534963651000;1535059012000;001589;00000;0.0314;0.0323
us-west-1;us-west-1b;m5d.large;04;16;0.0;0;1534967251000;1535059012000;001529;00000;0.0314;0.0323
us-west-1;us-west-1b;m5d.large;04;17;0.0;0;1534970851000;1535059012000;001469;00000;0.0314;0.0323
us-west-1;us-west-1b;m5d.large;04;18;0.0;0;1534974451000;1535059012000;001409;00000;0.0314;0.0323
us-west-1;us-west-1b;m5d.large;04;19;0.0;0;1534978051000;1535059012000;001349;00000;0.0314;0.0323
us-west-1;us-west-1b;m5d.large;04;20;0.0;0;1534981651000;1535059012000;001289;00000;0.0314;0.0323
us-west-1;us-west-1b;m5d.large;04;21;0.0;0;1534985251000;1535059012000;001229;00000;0.0314;0.0323
us-west-1;us-west-1b;m5d.large;04;22;0.0;0;1534988851000;1535059012000;001169;00000;0.0314;0.0323
us-west-1;us-west-1b;m5d.large;04;23;0.0;0;1534992451000;1535059012000;001109;00000;0.0314;0.0323
us-west-1;us-west-1b;m5d.large;05;00;0.0;0;1534996051000;1535059012000;001049;00000;0.0314;0.0323
us-west-1;us-west-1b;m5d.large;05;01;0.0;0;1534999651000;1535059012000;000989;00000;0.0314;0.0323
us-west-1;us-west-1b;m5d.large;05;02;0.0;0;1535003251000;1535059012000;000929;00000;0.0314;0.0323
us-west-1;us-west-1b;m5d.large;05;03;0.0;0;1535006851000;1535059012000;000869;00000;0.0314;0.0323
us-west-1;us-west-1b;m5d.large;05;04;0.0;0;1535010451000;1535059012000;000809;00000;0.0314;0.0323
us-west-1;us-west-1b;m5d.large;05;05;0.0;0;1535014051000;1535059012000;000749;00000;0.0314;0.0323
us-west-1;us-west-1b;m5d.large;05;06;0.0;0;1535017651000;1535059012000;000689;00000;0.0314;0.0323
us-west-1;us-west-1b;m5d.large;05;07;0.0;0;1535021251000;1535059012000;000629;00000;0.0314;0.0323
us-west-1;us-west-1b;m5d.large;05;08;0.0;0;1535024851000;1535059012000;000569;00000;0.0314;0.0323
us-west-1;us-west-1b;m5d.large;05;09;0.0;0;1535028451000;1535059012000;000509;00000;0.0314;0.0323
us-west-1;us-west-1b;m5d.large;05;10;0.0;0;1535032051000;1535059012000;000449;00000;0.0314;0.0323
us-west-1;us-west-1b;m5d.large;05;11;0.0;0;1535035651000;1535059012000;000389;00000;0.0314;0.0323
us-west-1;us-west-1b;m5d.large;05;12;0.0;0;1535039251000;1535059012000;000329;00000;0.0314;0.0323
us-west-1;us-west-1b;m5d.large;05;13;0.0;0;1535042851000;1535059012000;000269;00000;0.0314;0.0323
us-west-1;us-west-1b;m5d.large;05;14;0.0;0;1535046451000;1535059012000;000209;00000;0.0314;0.0323
us-west-1;us-west-1b;m5d.large;05;15;0.0;0;1535050051000;1535059012000;000149;00000;0.0314;0.0323
us-west-1;us-west-1b;m5d.large;05;16;0.0;0;1535053651000;1535059012000;000089;00000;0.0314;0.0323
us-west-1;us-west-1b;m5d.large;04;12;1.0;0;1534952992000;1535059012000;001767;00002;0.0314;0.0323
us-west-1;us-west-1b;m5d.large;04;13;0.0;0;1534956592000;1535059012000;001707;00000;0.0314;0.0323
us-west-1;us-west-1b;m5d.large;04;14;0.0;0;1534960192000;1535059012000;001647;00000;0.0314;0.0323
us-west-1;us-west-1b;m5d.large;04;15;0.0;0;1534963792000;1535059012000;001587;00000;0.0314;0.0323
us-west-1;us-west-1b;m5d.large;04;16;0.0;0;1534967392000;1535059012000;001527;00000;0.0314;0.0323
us-west-1;us-west-1b;m5d.large;04;17;0.0;0;1534970992000;1535059012000;001467;00000;0.0314;0.0323
us-west-1;us-west-1b;m5d.large;04;18;0.0;0;1534974592000;1535059012000;001407;00000;0.0314;0.0323
us-west-1;us-west-1b;m5d.large;04;19;0.0;0;1534978192000;1535059012000;001347;00000;0.0314;0.0323
us-west-1;us-west-1b;m5d.large;04;20;0.0;0;1534981792000;1535059012000;001287;00000;0.0314;0.0323
us-west-1;us-west-1b;m5d.large;04;21;0.0;0;1534985392000;1535059012000;001227;00000;0.0314;0.0323
us-west-1;us-west-1b;m5d.large;04;22;0.0;0;1534988992000;1535059012000;001167;00000;0.0314;0.0323
us-west-1;us-west-1b;m5d.large;04;23;0.0;0;1534992592000;1535059012000;001107;00000;0.0314;0.0323
us-west-1;us-west-1b;m5d.large;05;00;0.0;0;1534996192000;1535059012000;001047;00000;0.0314;0.0323
us-west-1;us-west-1b;m5d.large;05;01;0.0;0;1534999792000;1535059012000;000987;00000;0.0314;0.0323
us-west-1;us-west-1b;m5d.large;05;02;0.0;0;1535003392000;1535059012000;000927;00000;0.0314;0.0323
us-west-1;us-west-1b;m5d.large;05;03;0.0;0;1535006992000;1535059012000;000867;00000;0.0314;0.0323
us-west-1;us-west-1b;m5d.large;05;04;0.0;0;1535010592000;1535059012000;000807;00000;0.0314;0.0323
us-west-1;us-west-1b;m5d.large;05;05;0.0;0;1535014192000;1535059012000;000747;00000;0.0314;0.0323
us-west-1;us-west-1b;m5d.large;05;06;0.0;0;1535017792000;1535059012000;000687;00000;0.0314;0.0323
us-west-1;us-west-1b;m5d.large;05;07;0.0;0;1535021392000;1535059012000;000627;00000;0.0314;0.0323
us-west-1;us-west-1b;m5d.large;05;08;0.0;0;1535024992000;1535059012000;000567;00000;0.0314;0.0323
us-west-1;us-west-1b;m5d.large;05;09;0.0;0;1535028592000;1535059012000;000507;00000;0.0314;0.0323
us-west-1;us-west-1b;m5d.large;05;10;0.0;0;1535032192000;1535059012000;000447;00000;0.0314;0.0323
us-west-1;us-west-1b;m5d.large;05;11;0.0;0;1535035792000;1535059012000;000387;00000;0.0314;0.0323
us-west-1;us-west-1b;m5d.large;05;12;0.0;0;1535039392000;1535059012000;000327;00000;0.0314;0.0323
us-west-1;us-west-1b;m5d.large;05;13;0.0;0;1535042992000;1535059012000;000267;00000;0.0314;0.0323
us-west-1;us-west-1b;m5d.large;05;14;0.0;0;1535046592000;1535059012000;000207;00000;0.0314;0.0323
us-west-1;us-west-1b;m5d.large;05;15;0.0;0;1535050192000;1535059012000;000147;00000;0.0314;0.0323
us-west-1;us-west-1b;m5d.large;05;16;0.0;0;1535053792000;1535059012000;000087;00000;0.0314;0.0323
us-west-1;us-west-1b;m5d.large;05;12;1.0;0;1535039424000;1535059012000;000326;00001;0.0314;0.0323
us-west-1;us-west-1b;m5d.large;05;13;0.0;0;1535043024000;1535059012000;000266;00000;0.0314;0.0323
us-west-1;us-west-1b;m5d.large;05;14;0.0;0;1535046624000;1535059012000;000206;00000;0.0314;0.0323
us-west-1;us-west-1b;m5d.large;05;15;0.0;0;1535050224000;1535059012000;000146;00000;0.0314;0.0323
us-west-1;us-west-1b;m5d.large;05;16;0.0;0;1535053824000;1535059012000;000086;00000;0.0314;0.0323
us-west-1;us-west-1b;m5d.large;05;18;1.0;1;1535059012000;1540946554000;098125;00101;0.0323;0.0323
us-west-1;us-west-1b;m5d.large;06;09;1.0;1;1535114992000;1540946554000;097192;00100;0.0323;0.0323
us-west-1;us-west-1b;m5d.large;07;09;1.0;1;1535201439000;1540946554000;095751;00099;0.0323;0.0323
us-west-1;us-west-1b;m5d.large;01;09;1.0;1;1535287879000;1540946554000;094311;00098;0.0323;0.0323
us-west-1;us-west-1b;m5d.large;02;03;1.0;1;1535351831000;1540946554000;093245;00097;0.0323;0.0323
us-west-1;us-west-1b;m5d.large;02;03;1.0;1;1535351831000;1540946554000;093245;00096;0.0323;0.0323
us-west-1;us-west-1b;m5d.large;02;03;1.0;1;1535351831000;1540946554000;093245;00095;0.0323;0.0323
us-west-1;us-west-1b;m5d.large;02;03;1.0;1;1535351831000;1540946554000;093245;00094;0.0323;0.0323
us-west-1;us-west-1b;m5d.large;02;17;1.0;1;1535402261000;1540946554000;092404;00093;0.0323;0.0323
us-west-1;us-west-1b;m5d.large;03;16;1.0;1;1535485476000;1540946554000;091017;00092;0.0323;0.0323
us-west-1;us-west-1b;m5d.large;03;16;1.0;1;1535485476000;1540946554000;091017;00091;0.0323;0.0323
us-west-1;us-west-1b;m5d.large;04;15;1.0;1;1535566043000;1540946554000;089675;00090;0.0323;0.0323
us-west-1;us-west-1b;m5d.large;05;13;1.0;1;1535645258000;1540946554000;088354;00089;0.0323;0.0323
us-west-1;us-west-1b;m5d.large;06;05;1.0;1;1535705100000;1540946554000;087357;00088;0.0323;0.0323
us-west-1;us-west-1b;m5d.large;07;05;1.0;1;1535791545000;1540946554000;085916;00087;0.0323;0.0323
us-west-1;us-west-1b;m5d.large;01;05;1.0;1;1535877952000;1540946554000;084476;00086;0.0323;0.0323
us-west-1;us-west-1b;m5d.large;02;05;1.0;1;1535964354000;1540946554000;083036;00085;0.0323;0.0323
us-west-1;us-west-1b;m5d.large;03;00;1.0;1;1536033536000;1540946554000;081883;00084;0.0323;0.0323
us-west-1;us-west-1b;m5d.large;03;22;1.0;1;1536112751000;1540946554000;080563;00083;0.0323;0.0323
us-west-1;us-west-1b;m5d.large;04;10;1.0;1;1536155936000;1540946554000;079843;00082;0.0323;0.0323
us-west-1;us-west-1b;m5d.large;04;22;1.0;1;1536199138000;1540946554000;079123;00081;0.0323;0.0323
us-west-1;us-west-1b;m5d.large;05;10;1.0;1;1536242336000;1540946554000;078403;00080;0.0323;0.0323
us-west-1;us-west-1b;m5d.large;06;08;1.0;1;1536321553000;1540946554000;077083;00079;0.0323;0.0323
us-west-1;us-west-1b;m5d.large;06;20;1.0;1;1536364738000;1540946554000;076363;00078;0.0323;0.0323
us-west-1;us-west-1b;m5d.large;07;20;1.0;1;1536451165000;1540946554000;074923;00077;0.0323;0.0323
us-west-1;us-west-1b;m5d.large;01;04;1.0;1;1536479955000;1540946554000;074443;00076;0.0323;0.0323
us-west-1;us-west-1b;m5d.large;01;16;1.0;1;1536523154000;1540946554000;073723;00075;0.0323;0.0323
us-west-1;us-west-1b;m5d.large;02;05;1.0;1;1536566402000;1540946554000;073002;00074;0.0323;0.0323
us-west-1;us-west-1b;m5d.large;02;05;1.0;1;1536566402000;1540946554000;073002;00073;0.0323;0.0323
us-west-1;us-west-1b;m5d.large;02;21;1.0;1;1536624323000;1540946554000;072037;00072;0.0323;0.0323
us-west-1;us-west-1b;m5d.large;02;21;1.0;1;1536625049000;1540946554000;072025;00071;0.0323;0.0323
us-west-1;us-west-1b;m5d.large;03;21;1.0;1;1536711451000;1540946554000;070585;00070;0.0323;0.0323
us-west-1;us-west-1b;m5d.large;04;21;1.0;1;1536797879000;1540946554000;069144;00069;0.0323;0.0323
us-west-1;us-west-1b;m5d.large;04;21;1.0;1;1536797879000;1540946554000;069144;00068;0.0323;0.0323
us-west-1;us-west-1b;m5d.large;04;21;1.0;1;1536797879000;1540946554000;069144;00067;0.0323;0.0323
us-west-1;us-west-1b;m5d.large;04;21;1.0;1;1536797879000;1540946554000;069144;00066;0.0323;0.0323
us-west-1;us-west-1b;m5d.large;04;21;1.0;1;1536797879000;1540946554000;069144;00065;0.0323;0.0323
us-west-1;us-west-1b;m5d.large;05;21;1.0;1;1536884293000;1540946554000;067704;00064;0.0323;0.0323
us-west-1;us-west-1b;m5d.large;06;21;1.0;1;1536970751000;1540946554000;066263;00063;0.0323;0.0323
us-west-1;us-west-1b;m5d.large;07;01;1.0;1;1536986598000;1540946554000;065999;00062;0.0323;0.0323
us-west-1;us-west-1b;m5d.large;07;16;1.0;1;1537040585000;1540946554000;065099;00061;0.0323;0.0323
us-west-1;us-west-1b;m5d.large;01;16;1.0;1;1537127013000;1540946554000;063659;00060;0.0323;0.0323
us-west-1;us-west-1b;m5d.large;01;21;1.0;1;1537144997000;1540946554000;063359;00059;0.0323;0.0323
us-west-1;us-west-1b;m5d.large;02;21;1.0;1;1537231442000;1540946554000;061918;00058;0.0323;0.0323
us-west-1;us-west-1b;m5d.large;03;17;1.0;1;1537301118000;1540946554000;060757;00057;0.0323;0.0323
us-west-1;us-west-1b;m5d.large;04;17;1.0;1;1537387533000;1540946554000;059317;00056;0.0323;0.0323
us-west-1;us-west-1b;m5d.large;05;17;1.0;1;1537473940000;1540946554000;057876;00055;0.0323;0.0323
us-west-1;us-west-1b;m5d.large;06;17;1.0;1;1537560398000;1540946554000;056435;00054;0.0323;0.0323
us-west-1;us-west-1b;m5d.large;06;17;1.0;1;1537562740000;1540946554000;056396;00053;0.0323;0.0323
us-west-1;us-west-1b;m5d.large;07;17;1.0;1;1537649150000;1540946554000;054956;00052;0.0323;0.0323
us-west-1;us-west-1b;m5d.large;01;01;1.0;1;1537677940000;1540946554000;054476;00051;0.0323;0.0323
us-west-1;us-west-1b;m5d.large;01;18;1.0;1;1537739141000;1540946554000;053456;00050;0.0323;0.0323
us-west-1;us-west-1b;m5d.large;02;11;1.0;1;1537800342000;1540946554000;052436;00049;0.0323;0.0323
us-west-1;us-west-1b;m5d.large;03;11;1.0;1;1537886790000;1540946554000;050996;00048;0.0323;0.0323
us-west-1;us-west-1b;m5d.large;04;11;1.0;1;1537973225000;1540946554000;049555;00047;0.0323;0.0323
us-west-1;us-west-1b;m5d.large;05;11;1.0;1;1538059644000;1540946554000;048115;00046;0.0323;0.0323
us-west-1;us-west-1b;m5d.large;06;11;1.0;1;1538146062000;1540946554000;046674;00045;0.0323;0.0323
us-west-1;us-west-1b;m5d.large;07;11;1.0;1;1538231486000;1540946554000;045251;00044;0.0323;0.0323
us-west-1;us-west-1b;m5d.large;01;03;1.0;1;1538289088000;1540946554000;044291;00043;0.0323;0.0323
us-west-1;us-west-1b;m5d.large;01;20;1.0;1;1538350288000;1540946554000;043271;00042;0.0323;0.0323
us-west-1;us-west-1b;m5d.large;02;20;1.0;1;1538436725000;1540946554000;041830;00041;0.0323;0.0323
us-west-1;us-west-1b;m5d.large;03;20;1.0;1;1538523126000;1540946554000;040390;00040;0.0323;0.0323
us-west-1;us-west-1b;m5d.large;03;23;1.0;1;1538533740000;1540946554000;040213;00039;0.0323;0.0323
us-west-1;us-west-1b;m5d.large;04;20;1.0;1;1538609551000;1540946554000;038950;00038;0.0323;0.0323
us-west-1;us-west-1b;m5d.large;05;20;1.0;1;1538696006000;1540946554000;037509;00037;0.0323;0.0323
us-west-1;us-west-1b;m5d.large;06;20;1.0;1;1538782418000;1540946554000;036068;00036;0.0323;0.0323
us-west-1;us-west-1b;m5d.large;07;20;1.0;1;1538868861000;1540946554000;034628;00035;0.0323;0.0323
us-west-1;us-west-1b;m5d.large;01;03;1.0;1;1538895473000;1540946554000;034184;00034;0.0323;0.0323
us-west-1;us-west-1b;m5d.large;02;03;1.0;1;1538981882000;1540946554000;032744;00033;0.0323;0.0323
us-west-1;us-west-1b;m5d.large;02;11;1.0;1;1539010674000;1540946554000;032264;00032;0.0323;0.0323
us-west-1;us-west-1b;m5d.large;03;11;1.0;1;1539097110000;1540946554000;030824;00031;0.0323;0.0323
us-west-1;us-west-1b;m5d.large;03;20;1.0;1;1539129474000;1540946554000;030284;00030;0.0323;0.0323
us-west-1;us-west-1b;m5d.large;04;11;1.0;1;1539183552000;1540946554000;029383;00029;0.0323;0.0323
us-west-1;us-west-1b;m5d.large;05;04;1.0;1;1539244676000;1540946554000;028364;00028;0.0323;0.0323
us-west-1;us-west-1b;m5d.large;06;04;1.0;1;1539331078000;1540946554000;026924;00027;0.0323;0.0323
us-west-1;us-west-1b;m5d.large;06;13;1.0;1;1539363477000;1540946554000;026384;00026;0.0323;0.0323
us-west-1;us-west-1b;m5d.large;07;06;1.0;1;1539424603000;1540946554000;025365;00025;0.0323;0.0323
us-west-1;us-west-1b;m5d.large;01;06;1.0;1;1539511006000;1540946554000;023925;00024;0.0323;0.0323
us-west-1;us-west-1b;m5d.large;02;06;1.0;1;1539597427000;1540946554000;022485;00023;0.0323;0.0323
us-west-1;us-west-1b;m5d.large;03;06;1.0;1;1539683845000;1540946554000;021045;00022;0.0323;0.0323
us-west-1;us-west-1b;m5d.large;03;17;1.0;1;1539723480000;1540946554000;020384;00021;0.0323;0.0323
us-west-1;us-west-1b;m5d.large;04;10;1.0;1;1539784680000;1540946554000;019364;00020;0.0323;0.0323
us-west-1;us-west-1b;m5d.large;05;03;1.0;1;1539845880000;1540946554000;018344;00019;0.0323;0.0323
us-west-1;us-west-1b;m5d.large;05;20;1.0;1;1539907039000;1540946554000;017325;00018;0.0323;0.0323
us-west-1;us-west-1b;m5d.large;06;12;1.0;1;1539964682000;1540946554000;016364;00017;0.0323;0.0323
us-west-1;us-west-1b;m5d.large;07;12;1.0;1;1540051104000;1540946554000;014924;00016;0.0323;0.0323
us-west-1;us-west-1b;m5d.large;07;22;1.0;1;1540086350000;1540946554000;014336;00015;0.0323;0.0323
us-west-1;us-west-1b;m5d.large;01;22;1.0;1;1540172762000;1540946554000;012896;00014;0.0323;0.0323
us-west-1;us-west-1b;m5d.large;02;22;1.0;1;1540259204000;1540946554000;011455;00013;0.0323;0.0323
us-west-1;us-west-1b;m5d.large;03;01;1.0;1;1540269950000;1540946554000;011276;00012;0.0323;0.0323
us-west-1;us-west-1b;m5d.large;03;18;1.0;1;1540331151000;1540946554000;010256;00011;0.0323;0.0323
us-west-1;us-west-1b;m5d.large;04;11;1.0;1;1540392352000;1540946554000;009236;00010;0.0323;0.0323
us-west-1;us-west-1b;m5d.large;04;21;1.0;1;1540426524000;1540946554000;008667;00009;0.0323;0.0323
us-west-1;us-west-1b;m5d.large;04;21;1.0;1;1540427146000;1540946554000;008656;00008;0.0323;0.0323
us-west-1;us-west-1b;m5d.large;05;21;1.0;1;1540513595000;1540946554000;007215;00007;0.0323;0.0323
us-west-1;us-west-1b;m5d.large;06;21;1.0;1;1540600032000;1540946554000;005775;00006;0.0323;0.0323
us-west-1;us-west-1b;m5d.large;07;21;1.0;1;1540686457000;1540946554000;004334;00005;0.0323;0.0323
us-west-1;us-west-1b;m5d.large;01;02;1.0;1;1540705351000;1540946554000;004020;00004;0.0323;0.0323
us-west-1;us-west-1b;m5d.large;01;19;1.0;1;1540766552000;1540946554000;003000;00003;0.0323;0.0323
us-west-1;us-west-1b;m5d.large;02;19;1.0;1;1540852995000;1540946554000;001559;00002;0.0323;0.0323
us-west-1;us-west-1b;m5d.large;03;05;1.0;1;1540888800000;1540946554000;000962;00001;0.0323;0.0323
