region;zone;instance;dayOfWeek;hourOfDay;additionAllowed;censored;initTime;endTime;timeToRevocation;skipRecords;initValue;endValue
us-west-1;us-west-1c;m5d.xlarge;04;20;1.0;0;1533769968000;1533828795000;000980;00001;0.0585;0.0603
us-west-1;us-west-1c;m5d.xlarge;04;21;0.0;0;1533773568000;1533828795000;000920;00000;0.0585;0.0603
us-west-1;us-west-1c;m5d.xlarge;04;22;0.0;0;1533777168000;1533828795000;000860;00000;0.0585;0.0603
us-west-1;us-west-1c;m5d.xlarge;04;23;0.0;0;1533780768000;1533828795000;000800;00000;0.0585;0.0603
us-west-1;us-west-1c;m5d.xlarge;05;00;0.0;0;1533784368000;1533828795000;000740;00000;0.0585;0.0603
us-west-1;us-west-1c;m5d.xlarge;05;01;0.0;0;1533787968000;1533828795000;000680;00000;0.0585;0.0603
us-west-1;us-west-1c;m5d.xlarge;05;02;0.0;0;1533791568000;1533828795000;000620;00000;0.0585;0.0603
us-west-1;us-west-1c;m5d.xlarge;05;03;0.0;0;1533795168000;1533828795000;000560;00000;0.0585;0.0603
us-west-1;us-west-1c;m5d.xlarge;05;04;0.0;0;1533798768000;1533828795000;000500;00000;0.0585;0.0603
us-west-1;us-west-1c;m5d.xlarge;05;05;0.0;0;1533802368000;1533828795000;000440;00000;0.0585;0.0603
us-west-1;us-west-1c;m5d.xlarge;05;06;0.0;0;1533805968000;1533828795000;000380;00000;0.0585;0.0603
us-west-1;us-west-1c;m5d.xlarge;05;07;0.0;0;1533809568000;1533828795000;000320;00000;0.0585;0.0603
us-west-1;us-west-1c;m5d.xlarge;05;08;0.0;0;1533813168000;1533828795000;000260;00000;0.0585;0.0603
us-west-1;us-west-1c;m5d.xlarge;05;09;0.0;0;1533816768000;1533828795000;000200;00000;0.0585;0.0603
us-west-1;us-west-1c;m5d.xlarge;05;10;0.0;0;1533820368000;1533828795000;000140;00000;0.0585;0.0603
us-west-1;us-west-1c;m5d.xlarge;05;11;0.0;0;1533823968000;1533828795000;000080;00000;0.0585;0.0603
us-west-1;us-west-1c;m5d.xlarge;05;12;1.0;0;1533828795000;1533846305000;000291;00001;0.0603;0.0623
us-west-1;us-west-1c;m5d.xlarge;05;13;0.0;0;1533832395000;1533846305000;000231;00000;0.0603;0.0623
us-west-1;us-west-1c;m5d.xlarge;05;14;0.0;0;1533835995000;1533846305000;000171;00000;0.0603;0.0623
us-west-1;us-west-1c;m5d.xlarge;05;15;0.0;0;1533839595000;1533846305000;000111;00000;0.0603;0.0623
us-west-1;us-west-1c;m5d.xlarge;05;17;1.0;0;1533846305000;1533864903000;000309;00001;0.0623;0.0644
us-west-1;us-west-1c;m5d.xlarge;05;18;0.0;0;1533849905000;1533864903000;000249;00000;0.0623;0.0644
us-west-1;us-west-1c;m5d.xlarge;05;19;0.0;0;1533853505000;1533864903000;000189;00000;0.0623;0.0644
us-west-1;us-west-1c;m5d.xlarge;05;20;0.0;0;1533857105000;1533864903000;000129;00000;0.0623;0.0644
us-west-1;us-west-1c;m5d.xlarge;05;21;0.0;0;1533860705000;1533864903000;000069;00000;0.0623;0.0644
us-west-1;us-west-1c;m5d.xlarge;05;22;1.0;0;1533864903000;1533885915000;000350;00001;0.0644;0.0646
us-west-1;us-west-1c;m5d.xlarge;05;23;0.0;0;1533868503000;1533885915000;000290;00000;0.0644;0.0646
us-west-1;us-west-1c;m5d.xlarge;06;00;0.0;0;1533872103000;1533885915000;000230;00000;0.0644;0.0646
us-west-1;us-west-1c;m5d.xlarge;06;01;0.0;0;1533875703000;1533885915000;000170;00000;0.0644;0.0646
us-west-1;us-west-1c;m5d.xlarge;06;02;0.0;0;1533879303000;1533885915000;000110;00000;0.0644;0.0646
us-west-1;us-west-1c;m5d.xlarge;06;04;1.0;1;1533885915000;1540921353000;117257;00119;0.0646;0.0646
us-west-1;us-west-1c;m5d.xlarge;07;04;1.0;1;1533972315000;1540921353000;115817;00118;0.0646;0.0646
us-west-1;us-west-1c;m5d.xlarge;07;07;1.0;1;1533982502000;1540921353000;115647;00117;0.0646;0.0646
us-west-1;us-west-1c;m5d.xlarge;01;04;1.0;1;1534058727000;1540921353000;114377;00116;0.0646;0.0646
us-west-1;us-west-1c;m5d.xlarge;01;10;1.0;1;1534079703000;1540921353000;114027;00115;0.0646;0.0646
us-west-1;us-west-1c;m5d.xlarge;02;10;1.0;1;1534166152000;1540921353000;112586;00114;0.0646;0.0646
us-west-1;us-west-1c;m5d.xlarge;03;10;1.0;1;1534252606000;1540921353000;111145;00113;0.0646;0.0646
us-west-1;us-west-1c;m5d.xlarge;03;17;1.0;1;1534277674000;1540921353000;110727;00112;0.0646;0.0646
us-west-1;us-west-1c;m5d.xlarge;04;17;1.0;1;1534364110000;1540921353000;109287;00111;0.0646;0.0646
us-west-1;us-west-1c;m5d.xlarge;04;20;1.0;1;1534374905000;1540921353000;109107;00110;0.0646;0.0646
us-west-1;us-west-1c;m5d.xlarge;05;10;1.0;1;1534426621000;1540921353000;108245;00109;0.0646;0.0646
us-west-1;us-west-1c;m5d.xlarge;05;10;1.0;1;1534426621000;1540921353000;108245;00108;0.0646;0.0646
us-west-1;us-west-1c;m5d.xlarge;05;22;1.0;0;1534469395000;1535061551000;009869;00009;0.0628;0.0646
us-west-1;us-west-1c;m5d.xlarge;05;23;0.0;0;1534472995000;1535061551000;009809;00000;0.0628;0.0646
us-west-1;us-west-1c;m5d.xlarge;06;00;0.0;0;1534476595000;1535061551000;009749;00000;0.0628;0.0646
us-west-1;us-west-1c;m5d.xlarge;06;01;0.0;0;1534480195000;1535061551000;009689;00000;0.0628;0.0646
us-west-1;us-west-1c;m5d.xlarge;06;02;0.0;0;1534483795000;1535061551000;009629;00000;0.0628;0.0646
us-west-1;us-west-1c;m5d.xlarge;06;03;0.0;0;1534487395000;1535061551000;009569;00000;0.0628;0.0646
us-west-1;us-west-1c;m5d.xlarge;06;04;0.0;0;1534490995000;1535061551000;009509;00000;0.0628;0.0646
us-west-1;us-west-1c;m5d.xlarge;06;05;0.0;0;1534494595000;1535061551000;009449;00000;0.0628;0.0646
us-west-1;us-west-1c;m5d.xlarge;06;06;0.0;0;1534498195000;1535061551000;009389;00000;0.0628;0.0646
us-west-1;us-west-1c;m5d.xlarge;06;07;0.0;0;1534501795000;1535061551000;009329;00000;0.0628;0.0646
us-west-1;us-west-1c;m5d.xlarge;06;08;0.0;0;1534505395000;1535061551000;009269;00000;0.0628;0.0646
us-west-1;us-west-1c;m5d.xlarge;06;09;0.0;0;1534508995000;1535061551000;009209;00000;0.0628;0.0646
us-west-1;us-west-1c;m5d.xlarge;06;10;0.0;0;1534512595000;1535061551000;009149;00000;0.0628;0.0646
us-west-1;us-west-1c;m5d.xlarge;06;11;0.0;0;1534516195000;1535061551000;009089;00000;0.0628;0.0646
us-west-1;us-west-1c;m5d.xlarge;06;12;0.0;0;1534519795000;1535061551000;009029;00000;0.0628;0.0646
us-west-1;us-west-1c;m5d.xlarge;06;13;0.0;0;1534523395000;1535061551000;008969;00000;0.0628;0.0646
us-west-1;us-west-1c;m5d.xlarge;06;14;0.0;0;1534526995000;1535061551000;008909;00000;0.0628;0.0646
us-west-1;us-west-1c;m5d.xlarge;06;15;0.0;0;1534530595000;1535061551000;008849;00000;0.0628;0.0646
us-west-1;us-west-1c;m5d.xlarge;06;16;0.0;0;1534534195000;1535061551000;008789;00000;0.0628;0.0646
us-west-1;us-west-1c;m5d.xlarge;06;17;0.0;0;1534537795000;1535061551000;008729;00000;0.0628;0.0646
us-west-1;us-west-1c;m5d.xlarge;06;18;0.0;0;1534541395000;1535061551000;008669;00000;0.0628;0.0646
us-west-1;us-west-1c;m5d.xlarge;06;19;0.0;0;1534544995000;1535061551000;008609;00000;0.0628;0.0646
us-west-1;us-west-1c;m5d.xlarge;06;20;0.0;0;1534548595000;1535061551000;008549;00000;0.0628;0.0646
us-west-1;us-west-1c;m5d.xlarge;06;21;0.0;0;1534552195000;1535061551000;008489;00000;0.0628;0.0646
us-west-1;us-west-1c;m5d.xlarge;06;22;0.0;0;1534555795000;1535061551000;008429;00000;0.0628;0.0646
us-west-1;us-west-1c;m5d.xlarge;06;23;0.0;0;1534559395000;1535061551000;008369;00000;0.0628;0.0646
us-west-1;us-west-1c;m5d.xlarge;07;00;0.0;0;1534562995000;1535061551000;008309;00000;0.0628;0.0646
us-west-1;us-west-1c;m5d.xlarge;07;01;0.0;0;1534566595000;1535061551000;008249;00000;0.0628;0.0646
us-west-1;us-west-1c;m5d.xlarge;07;02;0.0;0;1534570195000;1535061551000;008189;00000;0.0628;0.0646
us-west-1;us-west-1c;m5d.xlarge;07;03;0.0;0;1534573795000;1535061551000;008129;00000;0.0628;0.0646
us-west-1;us-west-1c;m5d.xlarge;07;04;0.0;0;1534577395000;1535061551000;008069;00000;0.0628;0.0646
us-west-1;us-west-1c;m5d.xlarge;07;05;0.0;0;1534580995000;1535061551000;008009;00000;0.0628;0.0646
us-west-1;us-west-1c;m5d.xlarge;07;06;0.0;0;1534584595000;1535061551000;007949;00000;0.0628;0.0646
us-west-1;us-west-1c;m5d.xlarge;07;07;0.0;0;1534588195000;1535061551000;007889;00000;0.0628;0.0646
us-west-1;us-west-1c;m5d.xlarge;07;08;0.0;0;1534591795000;1535061551000;007829;00000;0.0628;0.0646
us-west-1;us-west-1c;m5d.xlarge;07;09;0.0;0;1534595395000;1535061551000;007769;00000;0.0628;0.0646
us-west-1;us-west-1c;m5d.xlarge;07;10;0.0;0;1534598995000;1535061551000;007709;00000;0.0628;0.0646
us-west-1;us-west-1c;m5d.xlarge;07;11;0.0;0;1534602595000;1535061551000;007649;00000;0.0628;0.0646
us-west-1;us-west-1c;m5d.xlarge;07;12;0.0;0;1534606195000;1535061551000;007589;00000;0.0628;0.0646
us-west-1;us-west-1c;m5d.xlarge;07;13;0.0;0;1534609795000;1535061551000;007529;00000;0.0628;0.0646
us-west-1;us-west-1c;m5d.xlarge;07;14;0.0;0;1534613395000;1535061551000;007469;00000;0.0628;0.0646
us-west-1;us-west-1c;m5d.xlarge;07;15;0.0;0;1534616995000;1535061551000;007409;00000;0.0628;0.0646
us-west-1;us-west-1c;m5d.xlarge;07;16;0.0;0;1534620595000;1535061551000;007349;00000;0.0628;0.0646
us-west-1;us-west-1c;m5d.xlarge;07;17;0.0;0;1534624195000;1535061551000;007289;00000;0.0628;0.0646
us-west-1;us-west-1c;m5d.xlarge;07;18;0.0;0;1534627795000;1535061551000;007229;00000;0.0628;0.0646
us-west-1;us-west-1c;m5d.xlarge;07;19;0.0;0;1534631395000;1535061551000;007169;00000;0.0628;0.0646
us-west-1;us-west-1c;m5d.xlarge;07;20;0.0;0;1534634995000;1535061551000;007109;00000;0.0628;0.0646
us-west-1;us-west-1c;m5d.xlarge;07;21;0.0;0;1534638595000;1535061551000;007049;00000;0.0628;0.0646
us-west-1;us-west-1c;m5d.xlarge;07;22;0.0;0;1534642195000;1535061551000;006989;00000;0.0628;0.0646
us-west-1;us-west-1c;m5d.xlarge;07;23;0.0;0;1534645795000;1535061551000;006929;00000;0.0628;0.0646
us-west-1;us-west-1c;m5d.xlarge;01;00;0.0;0;1534649395000;1535061551000;006869;00000;0.0628;0.0646
us-west-1;us-west-1c;m5d.xlarge;01;01;0.0;0;1534652995000;1535061551000;006809;00000;0.0628;0.0646
us-west-1;us-west-1c;m5d.xlarge;01;02;0.0;0;1534656595000;1535061551000;006749;00000;0.0628;0.0646
us-west-1;us-west-1c;m5d.xlarge;01;03;0.0;0;1534660195000;1535061551000;006689;00000;0.0628;0.0646
us-west-1;us-west-1c;m5d.xlarge;01;04;0.0;0;1534663795000;1535061551000;006629;00000;0.0628;0.0646
us-west-1;us-west-1c;m5d.xlarge;01;05;0.0;0;1534667395000;1535061551000;006569;00000;0.0628;0.0646
us-west-1;us-west-1c;m5d.xlarge;01;06;0.0;0;1534670995000;1535061551000;006509;00000;0.0628;0.0646
us-west-1;us-west-1c;m5d.xlarge;01;07;0.0;0;1534674595000;1535061551000;006449;00000;0.0628;0.0646
us-west-1;us-west-1c;m5d.xlarge;01;08;0.0;0;1534678195000;1535061551000;006389;00000;0.0628;0.0646
us-west-1;us-west-1c;m5d.xlarge;01;09;0.0;0;1534681795000;1535061551000;006329;00000;0.0628;0.0646
us-west-1;us-west-1c;m5d.xlarge;01;10;0.0;0;1534685395000;1535061551000;006269;00000;0.0628;0.0646
us-west-1;us-west-1c;m5d.xlarge;01;11;0.0;0;1534688995000;1535061551000;006209;00000;0.0628;0.0646
us-west-1;us-west-1c;m5d.xlarge;01;12;0.0;0;1534692595000;1535061551000;006149;00000;0.0628;0.0646
us-west-1;us-west-1c;m5d.xlarge;01;13;0.0;0;1534696195000;1535061551000;006089;00000;0.0628;0.0646
us-west-1;us-west-1c;m5d.xlarge;01;14;0.0;0;1534699795000;1535061551000;006029;00000;0.0628;0.0646
us-west-1;us-west-1c;m5d.xlarge;01;15;0.0;0;1534703395000;1535061551000;005969;00000;0.0628;0.0646
us-west-1;us-west-1c;m5d.xlarge;01;16;0.0;0;1534706995000;1535061551000;005909;00000;0.0628;0.0646
us-west-1;us-west-1c;m5d.xlarge;01;17;0.0;0;1534710595000;1535061551000;005849;00000;0.0628;0.0646
us-west-1;us-west-1c;m5d.xlarge;01;18;0.0;0;1534714195000;1535061551000;005789;00000;0.0628;0.0646
us-west-1;us-west-1c;m5d.xlarge;01;19;0.0;0;1534717795000;1535061551000;005729;00000;0.0628;0.0646
us-west-1;us-west-1c;m5d.xlarge;01;20;0.0;0;1534721395000;1535061551000;005669;00000;0.0628;0.0646
us-west-1;us-west-1c;m5d.xlarge;01;21;0.0;0;1534724995000;1535061551000;005609;00000;0.0628;0.0646
us-west-1;us-west-1c;m5d.xlarge;01;22;0.0;0;1534728595000;1535061551000;005549;00000;0.0628;0.0646
us-west-1;us-west-1c;m5d.xlarge;01;23;0.0;0;1534732195000;1535061551000;005489;00000;0.0628;0.0646
us-west-1;us-west-1c;m5d.xlarge;02;00;0.0;0;1534735795000;1535061551000;005429;00000;0.0628;0.0646
us-west-1;us-west-1c;m5d.xlarge;02;01;0.0;0;1534739395000;1535061551000;005369;00000;0.0628;0.0646
us-west-1;us-west-1c;m5d.xlarge;02;02;0.0;0;1534742995000;1535061551000;005309;00000;0.0628;0.0646
us-west-1;us-west-1c;m5d.xlarge;02;03;0.0;0;1534746595000;1535061551000;005249;00000;0.0628;0.0646
us-west-1;us-west-1c;m5d.xlarge;02;04;0.0;0;1534750195000;1535061551000;005189;00000;0.0628;0.0646
us-west-1;us-west-1c;m5d.xlarge;02;05;0.0;0;1534753795000;1535061551000;005129;00000;0.0628;0.0646
us-west-1;us-west-1c;m5d.xlarge;02;06;0.0;0;1534757395000;1535061551000;005069;00000;0.0628;0.0646
us-west-1;us-west-1c;m5d.xlarge;02;07;0.0;0;1534760995000;1535061551000;005009;00000;0.0628;0.0646
us-west-1;us-west-1c;m5d.xlarge;02;08;0.0;0;1534764595000;1535061551000;004949;00000;0.0628;0.0646
us-west-1;us-west-1c;m5d.xlarge;02;09;0.0;0;1534768195000;1535061551000;004889;00000;0.0628;0.0646
us-west-1;us-west-1c;m5d.xlarge;02;10;0.0;0;1534771795000;1535061551000;004829;00000;0.0628;0.0646
us-west-1;us-west-1c;m5d.xlarge;02;11;0.0;0;1534775395000;1535061551000;004769;00000;0.0628;0.0646
us-west-1;us-west-1c;m5d.xlarge;02;12;0.0;0;1534778995000;1535061551000;004709;00000;0.0628;0.0646
us-west-1;us-west-1c;m5d.xlarge;02;13;0.0;0;1534782595000;1535061551000;004649;00000;0.0628;0.0646
us-west-1;us-west-1c;m5d.xlarge;02;14;0.0;0;1534786195000;1535061551000;004589;00000;0.0628;0.0646
us-west-1;us-west-1c;m5d.xlarge;02;15;0.0;0;1534789795000;1535061551000;004529;00000;0.0628;0.0646
us-west-1;us-west-1c;m5d.xlarge;02;16;0.0;0;1534793395000;1535061551000;004469;00000;0.0628;0.0646
us-west-1;us-west-1c;m5d.xlarge;02;17;0.0;0;1534796995000;1535061551000;004409;00000;0.0628;0.0646
us-west-1;us-west-1c;m5d.xlarge;02;18;0.0;0;1534800595000;1535061551000;004349;00000;0.0628;0.0646
us-west-1;us-west-1c;m5d.xlarge;02;19;0.0;0;1534804195000;1535061551000;004289;00000;0.0628;0.0646
us-west-1;us-west-1c;m5d.xlarge;02;20;0.0;0;1534807795000;1535061551000;004229;00000;0.0628;0.0646
us-west-1;us-west-1c;m5d.xlarge;02;21;0.0;0;1534811395000;1535061551000;004169;00000;0.0628;0.0646
us-west-1;us-west-1c;m5d.xlarge;02;22;0.0;0;1534814995000;1535061551000;004109;00000;0.0628;0.0646
us-west-1;us-west-1c;m5d.xlarge;02;23;0.0;0;1534818595000;1535061551000;004049;00000;0.0628;0.0646
us-west-1;us-west-1c;m5d.xlarge;03;00;0.0;0;1534822195000;1535061551000;003989;00000;0.0628;0.0646
us-west-1;us-west-1c;m5d.xlarge;03;01;0.0;0;1534825795000;1535061551000;003929;00000;0.0628;0.0646
us-west-1;us-west-1c;m5d.xlarge;03;02;0.0;0;1534829395000;1535061551000;003869;00000;0.0628;0.0646
us-west-1;us-west-1c;m5d.xlarge;03;03;0.0;0;1534832995000;1535061551000;003809;00000;0.0628;0.0646
us-west-1;us-west-1c;m5d.xlarge;03;04;0.0;0;1534836595000;1535061551000;003749;00000;0.0628;0.0646
us-west-1;us-west-1c;m5d.xlarge;03;05;0.0;0;1534840195000;1535061551000;003689;00000;0.0628;0.0646
us-west-1;us-west-1c;m5d.xlarge;03;06;0.0;0;1534843795000;1535061551000;003629;00000;0.0628;0.0646
us-west-1;us-west-1c;m5d.xlarge;03;07;0.0;0;1534847395000;1535061551000;003569;00000;0.0628;0.0646
us-west-1;us-west-1c;m5d.xlarge;03;08;0.0;0;1534850995000;1535061551000;003509;00000;0.0628;0.0646
us-west-1;us-west-1c;m5d.xlarge;03;09;0.0;0;1534854595000;1535061551000;003449;00000;0.0628;0.0646
us-west-1;us-west-1c;m5d.xlarge;03;10;0.0;0;1534858195000;1535061551000;003389;00000;0.0628;0.0646
us-west-1;us-west-1c;m5d.xlarge;03;11;0.0;0;1534861795000;1535061551000;003329;00000;0.0628;0.0646
us-west-1;us-west-1c;m5d.xlarge;03;12;0.0;0;1534865395000;1535061551000;003269;00000;0.0628;0.0646
us-west-1;us-west-1c;m5d.xlarge;03;13;0.0;0;1534868995000;1535061551000;003209;00000;0.0628;0.0646
us-west-1;us-west-1c;m5d.xlarge;03;14;0.0;0;1534872595000;1535061551000;003149;00000;0.0628;0.0646
us-west-1;us-west-1c;m5d.xlarge;03;15;0.0;0;1534876195000;1535061551000;003089;00000;0.0628;0.0646
us-west-1;us-west-1c;m5d.xlarge;03;16;0.0;0;1534879795000;1535061551000;003029;00000;0.0628;0.0646
us-west-1;us-west-1c;m5d.xlarge;03;17;0.0;0;1534883395000;1535061551000;002969;00000;0.0628;0.0646
us-west-1;us-west-1c;m5d.xlarge;03;18;0.0;0;1534886995000;1535061551000;002909;00000;0.0628;0.0646
us-west-1;us-west-1c;m5d.xlarge;03;19;0.0;0;1534890595000;1535061551000;002849;00000;0.0628;0.0646
us-west-1;us-west-1c;m5d.xlarge;03;20;0.0;0;1534894195000;1535061551000;002789;00000;0.0628;0.0646
us-west-1;us-west-1c;m5d.xlarge;03;21;0.0;0;1534897795000;1535061551000;002729;00000;0.0628;0.0646
us-west-1;us-west-1c;m5d.xlarge;03;22;0.0;0;1534901395000;1535061551000;002669;00000;0.0628;0.0646
us-west-1;us-west-1c;m5d.xlarge;03;23;0.0;0;1534904995000;1535061551000;002609;00000;0.0628;0.0646
us-west-1;us-west-1c;m5d.xlarge;04;00;0.0;0;1534908595000;1535061551000;002549;00000;0.0628;0.0646
us-west-1;us-west-1c;m5d.xlarge;04;01;0.0;0;1534912195000;1535061551000;002489;00000;0.0628;0.0646
us-west-1;us-west-1c;m5d.xlarge;04;02;0.0;0;1534915795000;1535061551000;002429;00000;0.0628;0.0646
us-west-1;us-west-1c;m5d.xlarge;04;03;0.0;0;1534919395000;1535061551000;002369;00000;0.0628;0.0646
us-west-1;us-west-1c;m5d.xlarge;04;04;0.0;0;1534922995000;1535061551000;002309;00000;0.0628;0.0646
us-west-1;us-west-1c;m5d.xlarge;04;05;0.0;0;1534926595000;1535061551000;002249;00000;0.0628;0.0646
us-west-1;us-west-1c;m5d.xlarge;04;06;0.0;0;1534930195000;1535061551000;002189;00000;0.0628;0.0646
us-west-1;us-west-1c;m5d.xlarge;04;07;0.0;0;1534933795000;1535061551000;002129;00000;0.0628;0.0646
us-west-1;us-west-1c;m5d.xlarge;04;08;0.0;0;1534937395000;1535061551000;002069;00000;0.0628;0.0646
us-west-1;us-west-1c;m5d.xlarge;04;09;0.0;0;1534940995000;1535061551000;002009;00000;0.0628;0.0646
us-west-1;us-west-1c;m5d.xlarge;04;10;0.0;0;1534944595000;1535061551000;001949;00000;0.0628;0.0646
us-west-1;us-west-1c;m5d.xlarge;04;11;0.0;0;1534948195000;1535061551000;001889;00000;0.0628;0.0646
us-west-1;us-west-1c;m5d.xlarge;04;12;0.0;0;1534951795000;1535061551000;001829;00000;0.0628;0.0646
us-west-1;us-west-1c;m5d.xlarge;04;13;0.0;0;1534955395000;1535061551000;001769;00000;0.0628;0.0646
us-west-1;us-west-1c;m5d.xlarge;04;14;0.0;0;1534958995000;1535061551000;001709;00000;0.0628;0.0646
us-west-1;us-west-1c;m5d.xlarge;04;15;0.0;0;1534962595000;1535061551000;001649;00000;0.0628;0.0646
us-west-1;us-west-1c;m5d.xlarge;04;16;0.0;0;1534966195000;1535061551000;001589;00000;0.0628;0.0646
us-west-1;us-west-1c;m5d.xlarge;04;17;0.0;0;1534969795000;1535061551000;001529;00000;0.0628;0.0646
us-west-1;us-west-1c;m5d.xlarge;04;18;0.0;0;1534973395000;1535061551000;001469;00000;0.0628;0.0646
us-west-1;us-west-1c;m5d.xlarge;04;19;0.0;0;1534976995000;1535061551000;001409;00000;0.0628;0.0646
us-west-1;us-west-1c;m5d.xlarge;04;20;0.0;0;1534980595000;1535061551000;001349;00000;0.0628;0.0646
us-west-1;us-west-1c;m5d.xlarge;04;21;0.0;0;1534984195000;1535061551000;001289;00000;0.0628;0.0646
us-west-1;us-west-1c;m5d.xlarge;04;22;0.0;0;1534987795000;1535061551000;001229;00000;0.0628;0.0646
us-west-1;us-west-1c;m5d.xlarge;04;23;0.0;0;1534991395000;1535061551000;001169;00000;0.0628;0.0646
us-west-1;us-west-1c;m5d.xlarge;05;00;0.0;0;1534994995000;1535061551000;001109;00000;0.0628;0.0646
us-west-1;us-west-1c;m5d.xlarge;05;01;0.0;0;1534998595000;1535061551000;001049;00000;0.0628;0.0646
us-west-1;us-west-1c;m5d.xlarge;05;02;0.0;0;1535002195000;1535061551000;000989;00000;0.0628;0.0646
us-west-1;us-west-1c;m5d.xlarge;05;03;0.0;0;1535005795000;1535061551000;000929;00000;0.0628;0.0646
us-west-1;us-west-1c;m5d.xlarge;05;04;0.0;0;1535009395000;1535061551000;000869;00000;0.0628;0.0646
us-west-1;us-west-1c;m5d.xlarge;05;05;0.0;0;1535012995000;1535061551000;000809;00000;0.0628;0.0646
us-west-1;us-west-1c;m5d.xlarge;05;06;0.0;0;1535016595000;1535061551000;000749;00000;0.0628;0.0646
us-west-1;us-west-1c;m5d.xlarge;05;07;0.0;0;1535020195000;1535061551000;000689;00000;0.0628;0.0646
us-west-1;us-west-1c;m5d.xlarge;05;08;0.0;0;1535023795000;1535061551000;000629;00000;0.0628;0.0646
us-west-1;us-west-1c;m5d.xlarge;05;09;0.0;0;1535027395000;1535061551000;000569;00000;0.0628;0.0646
us-west-1;us-west-1c;m5d.xlarge;05;10;0.0;0;1535030995000;1535061551000;000509;00000;0.0628;0.0646
us-west-1;us-west-1c;m5d.xlarge;05;11;0.0;0;1535034595000;1535061551000;000449;00000;0.0628;0.0646
us-west-1;us-west-1c;m5d.xlarge;05;12;0.0;0;1535038195000;1535061551000;000389;00000;0.0628;0.0646
us-west-1;us-west-1c;m5d.xlarge;05;13;0.0;0;1535041795000;1535061551000;000329;00000;0.0628;0.0646
us-west-1;us-west-1c;m5d.xlarge;05;14;0.0;0;1535045395000;1535061551000;000269;00000;0.0628;0.0646
us-west-1;us-west-1c;m5d.xlarge;05;15;0.0;0;1535048995000;1535061551000;000209;00000;0.0628;0.0646
us-west-1;us-west-1c;m5d.xlarge;05;16;0.0;0;1535052595000;1535061551000;000149;00000;0.0628;0.0646
us-west-1;us-west-1c;m5d.xlarge;05;17;0.0;0;1535056195000;1535061551000;000089;00000;0.0628;0.0646
us-west-1;us-west-1c;m5d.xlarge;06;13;1.0;0;1534522533000;1535061551000;008983;00008;0.0628;0.0646
us-west-1;us-west-1c;m5d.xlarge;06;14;0.0;0;1534526133000;1535061551000;008923;00000;0.0628;0.0646
us-west-1;us-west-1c;m5d.xlarge;06;15;0.0;0;1534529733000;1535061551000;008863;00000;0.0628;0.0646
us-west-1;us-west-1c;m5d.xlarge;06;16;0.0;0;1534533333000;1535061551000;008803;00000;0.0628;0.0646
us-west-1;us-west-1c;m5d.xlarge;06;17;0.0;0;1534536933000;1535061551000;008743;00000;0.0628;0.0646
us-west-1;us-west-1c;m5d.xlarge;06;18;0.0;0;1534540533000;1535061551000;008683;00000;0.0628;0.0646
us-west-1;us-west-1c;m5d.xlarge;06;19;0.0;0;1534544133000;1535061551000;008623;00000;0.0628;0.0646
us-west-1;us-west-1c;m5d.xlarge;06;20;0.0;0;1534547733000;1535061551000;008563;00000;0.0628;0.0646
us-west-1;us-west-1c;m5d.xlarge;06;21;0.0;0;1534551333000;1535061551000;008503;00000;0.0628;0.0646
us-west-1;us-west-1c;m5d.xlarge;06;22;0.0;0;1534554933000;1535061551000;008443;00000;0.0628;0.0646
us-west-1;us-west-1c;m5d.xlarge;06;23;0.0;0;1534558533000;1535061551000;008383;00000;0.0628;0.0646
us-west-1;us-west-1c;m5d.xlarge;07;00;0.0;0;1534562133000;1535061551000;008323;00000;0.0628;0.0646
us-west-1;us-west-1c;m5d.xlarge;07;01;0.0;0;1534565733000;1535061551000;008263;00000;0.0628;0.0646
us-west-1;us-west-1c;m5d.xlarge;07;02;0.0;0;1534569333000;1535061551000;008203;00000;0.0628;0.0646
us-west-1;us-west-1c;m5d.xlarge;07;03;0.0;0;1534572933000;1535061551000;008143;00000;0.0628;0.0646
us-west-1;us-west-1c;m5d.xlarge;07;04;0.0;0;1534576533000;1535061551000;008083;00000;0.0628;0.0646
us-west-1;us-west-1c;m5d.xlarge;07;05;0.0;0;1534580133000;1535061551000;008023;00000;0.0628;0.0646
us-west-1;us-west-1c;m5d.xlarge;07;06;0.0;0;1534583733000;1535061551000;007963;00000;0.0628;0.0646
us-west-1;us-west-1c;m5d.xlarge;07;07;0.0;0;1534587333000;1535061551000;007903;00000;0.0628;0.0646
us-west-1;us-west-1c;m5d.xlarge;07;08;0.0;0;1534590933000;1535061551000;007843;00000;0.0628;0.0646
us-west-1;us-west-1c;m5d.xlarge;07;09;0.0;0;1534594533000;1535061551000;007783;00000;0.0628;0.0646
us-west-1;us-west-1c;m5d.xlarge;07;10;0.0;0;1534598133000;1535061551000;007723;00000;0.0628;0.0646
us-west-1;us-west-1c;m5d.xlarge;07;11;0.0;0;1534601733000;1535061551000;007663;00000;0.0628;0.0646
us-west-1;us-west-1c;m5d.xlarge;07;12;0.0;0;1534605333000;1535061551000;007603;00000;0.0628;0.0646
us-west-1;us-west-1c;m5d.xlarge;07;13;0.0;0;1534608933000;1535061551000;007543;00000;0.0628;0.0646
us-west-1;us-west-1c;m5d.xlarge;07;14;0.0;0;1534612533000;1535061551000;007483;00000;0.0628;0.0646
us-west-1;us-west-1c;m5d.xlarge;07;15;0.0;0;1534616133000;1535061551000;007423;00000;0.0628;0.0646
us-west-1;us-west-1c;m5d.xlarge;07;16;0.0;0;1534619733000;1535061551000;007363;00000;0.0628;0.0646
us-west-1;us-west-1c;m5d.xlarge;07;17;0.0;0;1534623333000;1535061551000;007303;00000;0.0628;0.0646
us-west-1;us-west-1c;m5d.xlarge;07;18;0.0;0;1534626933000;1535061551000;007243;00000;0.0628;0.0646
us-west-1;us-west-1c;m5d.xlarge;07;19;0.0;0;1534630533000;1535061551000;007183;00000;0.0628;0.0646
us-west-1;us-west-1c;m5d.xlarge;07;20;0.0;0;1534634133000;1535061551000;007123;00000;0.0628;0.0646
us-west-1;us-west-1c;m5d.xlarge;07;21;0.0;0;1534637733000;1535061551000;007063;00000;0.0628;0.0646
us-west-1;us-west-1c;m5d.xlarge;07;22;0.0;0;1534641333000;1535061551000;007003;00000;0.0628;0.0646
us-west-1;us-west-1c;m5d.xlarge;07;23;0.0;0;1534644933000;1535061551000;006943;00000;0.0628;0.0646
us-west-1;us-west-1c;m5d.xlarge;01;00;0.0;0;1534648533000;1535061551000;006883;00000;0.0628;0.0646
us-west-1;us-west-1c;m5d.xlarge;01;01;0.0;0;1534652133000;1535061551000;006823;00000;0.0628;0.0646
us-west-1;us-west-1c;m5d.xlarge;01;02;0.0;0;1534655733000;1535061551000;006763;00000;0.0628;0.0646
us-west-1;us-west-1c;m5d.xlarge;01;03;0.0;0;1534659333000;1535061551000;006703;00000;0.0628;0.0646
us-west-1;us-west-1c;m5d.xlarge;01;04;0.0;0;1534662933000;1535061551000;006643;00000;0.0628;0.0646
us-west-1;us-west-1c;m5d.xlarge;01;05;0.0;0;1534666533000;1535061551000;006583;00000;0.0628;0.0646
us-west-1;us-west-1c;m5d.xlarge;01;06;0.0;0;1534670133000;1535061551000;006523;00000;0.0628;0.0646
us-west-1;us-west-1c;m5d.xlarge;01;07;0.0;0;1534673733000;1535061551000;006463;00000;0.0628;0.0646
us-west-1;us-west-1c;m5d.xlarge;01;08;0.0;0;1534677333000;1535061551000;006403;00000;0.0628;0.0646
us-west-1;us-west-1c;m5d.xlarge;01;09;0.0;0;1534680933000;1535061551000;006343;00000;0.0628;0.0646
us-west-1;us-west-1c;m5d.xlarge;01;10;0.0;0;1534684533000;1535061551000;006283;00000;0.0628;0.0646
us-west-1;us-west-1c;m5d.xlarge;01;11;0.0;0;1534688133000;1535061551000;006223;00000;0.0628;0.0646
us-west-1;us-west-1c;m5d.xlarge;01;12;0.0;0;1534691733000;1535061551000;006163;00000;0.0628;0.0646
us-west-1;us-west-1c;m5d.xlarge;01;13;0.0;0;1534695333000;1535061551000;006103;00000;0.0628;0.0646
us-west-1;us-west-1c;m5d.xlarge;01;14;0.0;0;1534698933000;1535061551000;006043;00000;0.0628;0.0646
us-west-1;us-west-1c;m5d.xlarge;01;15;0.0;0;1534702533000;1535061551000;005983;00000;0.0628;0.0646
us-west-1;us-west-1c;m5d.xlarge;01;16;0.0;0;1534706133000;1535061551000;005923;00000;0.0628;0.0646
us-west-1;us-west-1c;m5d.xlarge;01;17;0.0;0;1534709733000;1535061551000;005863;00000;0.0628;0.0646
us-west-1;us-west-1c;m5d.xlarge;01;18;0.0;0;1534713333000;1535061551000;005803;00000;0.0628;0.0646
us-west-1;us-west-1c;m5d.xlarge;01;19;0.0;0;1534716933000;1535061551000;005743;00000;0.0628;0.0646
us-west-1;us-west-1c;m5d.xlarge;01;20;0.0;0;1534720533000;1535061551000;005683;00000;0.0628;0.0646
us-west-1;us-west-1c;m5d.xlarge;01;21;0.0;0;1534724133000;1535061551000;005623;00000;0.0628;0.0646
us-west-1;us-west-1c;m5d.xlarge;01;22;0.0;0;1534727733000;1535061551000;005563;00000;0.0628;0.0646
us-west-1;us-west-1c;m5d.xlarge;01;23;0.0;0;1534731333000;1535061551000;005503;00000;0.0628;0.0646
us-west-1;us-west-1c;m5d.xlarge;02;00;0.0;0;1534734933000;1535061551000;005443;00000;0.0628;0.0646
us-west-1;us-west-1c;m5d.xlarge;02;01;0.0;0;1534738533000;1535061551000;005383;00000;0.0628;0.0646
us-west-1;us-west-1c;m5d.xlarge;02;02;0.0;0;1534742133000;1535061551000;005323;00000;0.0628;0.0646
us-west-1;us-west-1c;m5d.xlarge;02;03;0.0;0;1534745733000;1535061551000;005263;00000;0.0628;0.0646
us-west-1;us-west-1c;m5d.xlarge;02;04;0.0;0;1534749333000;1535061551000;005203;00000;0.0628;0.0646
us-west-1;us-west-1c;m5d.xlarge;02;05;0.0;0;1534752933000;1535061551000;005143;00000;0.0628;0.0646
us-west-1;us-west-1c;m5d.xlarge;02;06;0.0;0;1534756533000;1535061551000;005083;00000;0.0628;0.0646
us-west-1;us-west-1c;m5d.xlarge;02;07;0.0;0;1534760133000;1535061551000;005023;00000;0.0628;0.0646
us-west-1;us-west-1c;m5d.xlarge;02;08;0.0;0;1534763733000;1535061551000;004963;00000;0.0628;0.0646
us-west-1;us-west-1c;m5d.xlarge;02;09;0.0;0;1534767333000;1535061551000;004903;00000;0.0628;0.0646
us-west-1;us-west-1c;m5d.xlarge;02;10;0.0;0;1534770933000;1535061551000;004843;00000;0.0628;0.0646
us-west-1;us-west-1c;m5d.xlarge;02;11;0.0;0;1534774533000;1535061551000;004783;00000;0.0628;0.0646
us-west-1;us-west-1c;m5d.xlarge;02;12;0.0;0;1534778133000;1535061551000;004723;00000;0.0628;0.0646
us-west-1;us-west-1c;m5d.xlarge;02;13;0.0;0;1534781733000;1535061551000;004663;00000;0.0628;0.0646
us-west-1;us-west-1c;m5d.xlarge;02;14;0.0;0;1534785333000;1535061551000;004603;00000;0.0628;0.0646
us-west-1;us-west-1c;m5d.xlarge;02;15;0.0;0;1534788933000;1535061551000;004543;00000;0.0628;0.0646
us-west-1;us-west-1c;m5d.xlarge;02;16;0.0;0;1534792533000;1535061551000;004483;00000;0.0628;0.0646
us-west-1;us-west-1c;m5d.xlarge;02;17;0.0;0;1534796133000;1535061551000;004423;00000;0.0628;0.0646
us-west-1;us-west-1c;m5d.xlarge;02;18;0.0;0;1534799733000;1535061551000;004363;00000;0.0628;0.0646
us-west-1;us-west-1c;m5d.xlarge;02;19;0.0;0;1534803333000;1535061551000;004303;00000;0.0628;0.0646
us-west-1;us-west-1c;m5d.xlarge;02;20;0.0;0;1534806933000;1535061551000;004243;00000;0.0628;0.0646
us-west-1;us-west-1c;m5d.xlarge;02;21;0.0;0;1534810533000;1535061551000;004183;00000;0.0628;0.0646
us-west-1;us-west-1c;m5d.xlarge;02;22;0.0;0;1534814133000;1535061551000;004123;00000;0.0628;0.0646
us-west-1;us-west-1c;m5d.xlarge;02;23;0.0;0;1534817733000;1535061551000;004063;00000;0.0628;0.0646
us-west-1;us-west-1c;m5d.xlarge;03;00;0.0;0;1534821333000;1535061551000;004003;00000;0.0628;0.0646
us-west-1;us-west-1c;m5d.xlarge;03;01;0.0;0;1534824933000;1535061551000;003943;00000;0.0628;0.0646
us-west-1;us-west-1c;m5d.xlarge;03;02;0.0;0;1534828533000;1535061551000;003883;00000;0.0628;0.0646
us-west-1;us-west-1c;m5d.xlarge;03;03;0.0;0;1534832133000;1535061551000;003823;00000;0.0628;0.0646
us-west-1;us-west-1c;m5d.xlarge;03;04;0.0;0;1534835733000;1535061551000;003763;00000;0.0628;0.0646
us-west-1;us-west-1c;m5d.xlarge;03;05;0.0;0;1534839333000;1535061551000;003703;00000;0.0628;0.0646
us-west-1;us-west-1c;m5d.xlarge;03;06;0.0;0;1534842933000;1535061551000;003643;00000;0.0628;0.0646
us-west-1;us-west-1c;m5d.xlarge;03;07;0.0;0;1534846533000;1535061551000;003583;00000;0.0628;0.0646
us-west-1;us-west-1c;m5d.xlarge;03;08;0.0;0;1534850133000;1535061551000;003523;00000;0.0628;0.0646
us-west-1;us-west-1c;m5d.xlarge;03;09;0.0;0;1534853733000;1535061551000;003463;00000;0.0628;0.0646
us-west-1;us-west-1c;m5d.xlarge;03;10;0.0;0;1534857333000;1535061551000;003403;00000;0.0628;0.0646
us-west-1;us-west-1c;m5d.xlarge;03;11;0.0;0;1534860933000;1535061551000;003343;00000;0.0628;0.0646
us-west-1;us-west-1c;m5d.xlarge;03;12;0.0;0;1534864533000;1535061551000;003283;00000;0.0628;0.0646
us-west-1;us-west-1c;m5d.xlarge;03;13;0.0;0;1534868133000;1535061551000;003223;00000;0.0628;0.0646
us-west-1;us-west-1c;m5d.xlarge;03;14;0.0;0;1534871733000;1535061551000;003163;00000;0.0628;0.0646
us-west-1;us-west-1c;m5d.xlarge;03;15;0.0;0;1534875333000;1535061551000;003103;00000;0.0628;0.0646
us-west-1;us-west-1c;m5d.xlarge;03;16;0.0;0;1534878933000;1535061551000;003043;00000;0.0628;0.0646
us-west-1;us-west-1c;m5d.xlarge;03;17;0.0;0;1534882533000;1535061551000;002983;00000;0.0628;0.0646
us-west-1;us-west-1c;m5d.xlarge;03;18;0.0;0;1534886133000;1535061551000;002923;00000;0.0628;0.0646
us-west-1;us-west-1c;m5d.xlarge;03;19;0.0;0;1534889733000;1535061551000;002863;00000;0.0628;0.0646
us-west-1;us-west-1c;m5d.xlarge;03;20;0.0;0;1534893333000;1535061551000;002803;00000;0.0628;0.0646
us-west-1;us-west-1c;m5d.xlarge;03;21;0.0;0;1534896933000;1535061551000;002743;00000;0.0628;0.0646
us-west-1;us-west-1c;m5d.xlarge;03;22;0.0;0;1534900533000;1535061551000;002683;00000;0.0628;0.0646
us-west-1;us-west-1c;m5d.xlarge;03;23;0.0;0;1534904133000;1535061551000;002623;00000;0.0628;0.0646
us-west-1;us-west-1c;m5d.xlarge;04;00;0.0;0;1534907733000;1535061551000;002563;00000;0.0628;0.0646
us-west-1;us-west-1c;m5d.xlarge;04;01;0.0;0;1534911333000;1535061551000;002503;00000;0.0628;0.0646
us-west-1;us-west-1c;m5d.xlarge;04;02;0.0;0;1534914933000;1535061551000;002443;00000;0.0628;0.0646
us-west-1;us-west-1c;m5d.xlarge;04;03;0.0;0;1534918533000;1535061551000;002383;00000;0.0628;0.0646
us-west-1;us-west-1c;m5d.xlarge;04;04;0.0;0;1534922133000;1535061551000;002323;00000;0.0628;0.0646
us-west-1;us-west-1c;m5d.xlarge;04;05;0.0;0;1534925733000;1535061551000;002263;00000;0.0628;0.0646
us-west-1;us-west-1c;m5d.xlarge;04;06;0.0;0;1534929333000;1535061551000;002203;00000;0.0628;0.0646
us-west-1;us-west-1c;m5d.xlarge;04;07;0.0;0;1534932933000;1535061551000;002143;00000;0.0628;0.0646
us-west-1;us-west-1c;m5d.xlarge;04;08;0.0;0;1534936533000;1535061551000;002083;00000;0.0628;0.0646
us-west-1;us-west-1c;m5d.xlarge;04;09;0.0;0;1534940133000;1535061551000;002023;00000;0.0628;0.0646
us-west-1;us-west-1c;m5d.xlarge;04;10;0.0;0;1534943733000;1535061551000;001963;00000;0.0628;0.0646
us-west-1;us-west-1c;m5d.xlarge;04;11;0.0;0;1534947333000;1535061551000;001903;00000;0.0628;0.0646
us-west-1;us-west-1c;m5d.xlarge;04;12;0.0;0;1534950933000;1535061551000;001843;00000;0.0628;0.0646
us-west-1;us-west-1c;m5d.xlarge;04;13;0.0;0;1534954533000;1535061551000;001783;00000;0.0628;0.0646
us-west-1;us-west-1c;m5d.xlarge;04;14;0.0;0;1534958133000;1535061551000;001723;00000;0.0628;0.0646
us-west-1;us-west-1c;m5d.xlarge;04;15;0.0;0;1534961733000;1535061551000;001663;00000;0.0628;0.0646
us-west-1;us-west-1c;m5d.xlarge;04;16;0.0;0;1534965333000;1535061551000;001603;00000;0.0628;0.0646
us-west-1;us-west-1c;m5d.xlarge;04;17;0.0;0;1534968933000;1535061551000;001543;00000;0.0628;0.0646
us-west-1;us-west-1c;m5d.xlarge;04;18;0.0;0;1534972533000;1535061551000;001483;00000;0.0628;0.0646
us-west-1;us-west-1c;m5d.xlarge;04;19;0.0;0;1534976133000;1535061551000;001423;00000;0.0628;0.0646
us-west-1;us-west-1c;m5d.xlarge;04;20;0.0;0;1534979733000;1535061551000;001363;00000;0.0628;0.0646
us-west-1;us-west-1c;m5d.xlarge;04;21;0.0;0;1534983333000;1535061551000;001303;00000;0.0628;0.0646
us-west-1;us-west-1c;m5d.xlarge;04;22;0.0;0;1534986933000;1535061551000;001243;00000;0.0628;0.0646
us-west-1;us-west-1c;m5d.xlarge;04;23;0.0;0;1534990533000;1535061551000;001183;00000;0.0628;0.0646
us-west-1;us-west-1c;m5d.xlarge;05;00;0.0;0;1534994133000;1535061551000;001123;00000;0.0628;0.0646
us-west-1;us-west-1c;m5d.xlarge;05;01;0.0;0;1534997733000;1535061551000;001063;00000;0.0628;0.0646
us-west-1;us-west-1c;m5d.xlarge;05;02;0.0;0;1535001333000;1535061551000;001003;00000;0.0628;0.0646
us-west-1;us-west-1c;m5d.xlarge;05;03;0.0;0;1535004933000;1535061551000;000943;00000;0.0628;0.0646
us-west-1;us-west-1c;m5d.xlarge;05;04;0.0;0;1535008533000;1535061551000;000883;00000;0.0628;0.0646
us-west-1;us-west-1c;m5d.xlarge;05;05;0.0;0;1535012133000;1535061551000;000823;00000;0.0628;0.0646
us-west-1;us-west-1c;m5d.xlarge;05;06;0.0;0;1535015733000;1535061551000;000763;00000;0.0628;0.0646
us-west-1;us-west-1c;m5d.xlarge;05;07;0.0;0;1535019333000;1535061551000;000703;00000;0.0628;0.0646
us-west-1;us-west-1c;m5d.xlarge;05;08;0.0;0;1535022933000;1535061551000;000643;00000;0.0628;0.0646
us-west-1;us-west-1c;m5d.xlarge;05;09;0.0;0;1535026533000;1535061551000;000583;00000;0.0628;0.0646
us-west-1;us-west-1c;m5d.xlarge;05;10;0.0;0;1535030133000;1535061551000;000523;00000;0.0628;0.0646
us-west-1;us-west-1c;m5d.xlarge;05;11;0.0;0;1535033733000;1535061551000;000463;00000;0.0628;0.0646
us-west-1;us-west-1c;m5d.xlarge;05;12;0.0;0;1535037333000;1535061551000;000403;00000;0.0628;0.0646
us-west-1;us-west-1c;m5d.xlarge;05;13;0.0;0;1535040933000;1535061551000;000343;00000;0.0628;0.0646
us-west-1;us-west-1c;m5d.xlarge;05;14;0.0;0;1535044533000;1535061551000;000283;00000;0.0628;0.0646
us-west-1;us-west-1c;m5d.xlarge;05;15;0.0;0;1535048133000;1535061551000;000223;00000;0.0628;0.0646
us-west-1;us-west-1c;m5d.xlarge;05;16;0.0;0;1535051733000;1535061551000;000163;00000;0.0628;0.0646
us-west-1;us-west-1c;m5d.xlarge;05;17;0.0;0;1535055333000;1535061551000;000103;00000;0.0628;0.0646
us-west-1;us-west-1c;m5d.xlarge;07;13;1.0;0;1534608973000;1535061551000;007542;00007;0.0628;0.0646
us-west-1;us-west-1c;m5d.xlarge;07;14;0.0;0;1534612573000;1535061551000;007482;00000;0.0628;0.0646
us-west-1;us-west-1c;m5d.xlarge;07;15;0.0;0;1534616173000;1535061551000;007422;00000;0.0628;0.0646
us-west-1;us-west-1c;m5d.xlarge;07;16;0.0;0;1534619773000;1535061551000;007362;00000;0.0628;0.0646
us-west-1;us-west-1c;m5d.xlarge;07;17;0.0;0;1534623373000;1535061551000;007302;00000;0.0628;0.0646
us-west-1;us-west-1c;m5d.xlarge;07;18;0.0;0;1534626973000;1535061551000;007242;00000;0.0628;0.0646
us-west-1;us-west-1c;m5d.xlarge;07;19;0.0;0;1534630573000;1535061551000;007182;00000;0.0628;0.0646
us-west-1;us-west-1c;m5d.xlarge;07;20;0.0;0;1534634173000;1535061551000;007122;00000;0.0628;0.0646
us-west-1;us-west-1c;m5d.xlarge;07;21;0.0;0;1534637773000;1535061551000;007062;00000;0.0628;0.0646
us-west-1;us-west-1c;m5d.xlarge;07;22;0.0;0;1534641373000;1535061551000;007002;00000;0.0628;0.0646
us-west-1;us-west-1c;m5d.xlarge;07;23;0.0;0;1534644973000;1535061551000;006942;00000;0.0628;0.0646
us-west-1;us-west-1c;m5d.xlarge;01;00;0.0;0;1534648573000;1535061551000;006882;00000;0.0628;0.0646
us-west-1;us-west-1c;m5d.xlarge;01;01;0.0;0;1534652173000;1535061551000;006822;00000;0.0628;0.0646
us-west-1;us-west-1c;m5d.xlarge;01;02;0.0;0;1534655773000;1535061551000;006762;00000;0.0628;0.0646
us-west-1;us-west-1c;m5d.xlarge;01;03;0.0;0;1534659373000;1535061551000;006702;00000;0.0628;0.0646
us-west-1;us-west-1c;m5d.xlarge;01;04;0.0;0;1534662973000;1535061551000;006642;00000;0.0628;0.0646
us-west-1;us-west-1c;m5d.xlarge;01;05;0.0;0;1534666573000;1535061551000;006582;00000;0.0628;0.0646
us-west-1;us-west-1c;m5d.xlarge;01;06;0.0;0;1534670173000;1535061551000;006522;00000;0.0628;0.0646
us-west-1;us-west-1c;m5d.xlarge;01;07;0.0;0;1534673773000;1535061551000;006462;00000;0.0628;0.0646
us-west-1;us-west-1c;m5d.xlarge;01;08;0.0;0;1534677373000;1535061551000;006402;00000;0.0628;0.0646
us-west-1;us-west-1c;m5d.xlarge;01;09;0.0;0;1534680973000;1535061551000;006342;00000;0.0628;0.0646
us-west-1;us-west-1c;m5d.xlarge;01;10;0.0;0;1534684573000;1535061551000;006282;00000;0.0628;0.0646
us-west-1;us-west-1c;m5d.xlarge;01;11;0.0;0;1534688173000;1535061551000;006222;00000;0.0628;0.0646
us-west-1;us-west-1c;m5d.xlarge;01;12;0.0;0;1534691773000;1535061551000;006162;00000;0.0628;0.0646
us-west-1;us-west-1c;m5d.xlarge;01;13;0.0;0;1534695373000;1535061551000;006102;00000;0.0628;0.0646
us-west-1;us-west-1c;m5d.xlarge;01;14;0.0;0;1534698973000;1535061551000;006042;00000;0.0628;0.0646
us-west-1;us-west-1c;m5d.xlarge;01;15;0.0;0;1534702573000;1535061551000;005982;00000;0.0628;0.0646
us-west-1;us-west-1c;m5d.xlarge;01;16;0.0;0;1534706173000;1535061551000;005922;00000;0.0628;0.0646
us-west-1;us-west-1c;m5d.xlarge;01;17;0.0;0;1534709773000;1535061551000;005862;00000;0.0628;0.0646
us-west-1;us-west-1c;m5d.xlarge;01;18;0.0;0;1534713373000;1535061551000;005802;00000;0.0628;0.0646
us-west-1;us-west-1c;m5d.xlarge;01;19;0.0;0;1534716973000;1535061551000;005742;00000;0.0628;0.0646
us-west-1;us-west-1c;m5d.xlarge;01;20;0.0;0;1534720573000;1535061551000;005682;00000;0.0628;0.0646
us-west-1;us-west-1c;m5d.xlarge;01;21;0.0;0;1534724173000;1535061551000;005622;00000;0.0628;0.0646
us-west-1;us-west-1c;m5d.xlarge;01;22;0.0;0;1534727773000;1535061551000;005562;00000;0.0628;0.0646
us-west-1;us-west-1c;m5d.xlarge;01;23;0.0;0;1534731373000;1535061551000;005502;00000;0.0628;0.0646
us-west-1;us-west-1c;m5d.xlarge;02;00;0.0;0;1534734973000;1535061551000;005442;00000;0.0628;0.0646
us-west-1;us-west-1c;m5d.xlarge;02;01;0.0;0;1534738573000;1535061551000;005382;00000;0.0628;0.0646
us-west-1;us-west-1c;m5d.xlarge;02;02;0.0;0;1534742173000;1535061551000;005322;00000;0.0628;0.0646
us-west-1;us-west-1c;m5d.xlarge;02;03;0.0;0;1534745773000;1535061551000;005262;00000;0.0628;0.0646
us-west-1;us-west-1c;m5d.xlarge;02;04;0.0;0;1534749373000;1535061551000;005202;00000;0.0628;0.0646
us-west-1;us-west-1c;m5d.xlarge;02;05;0.0;0;1534752973000;1535061551000;005142;00000;0.0628;0.0646
us-west-1;us-west-1c;m5d.xlarge;02;06;0.0;0;1534756573000;1535061551000;005082;00000;0.0628;0.0646
us-west-1;us-west-1c;m5d.xlarge;02;07;0.0;0;1534760173000;1535061551000;005022;00000;0.0628;0.0646
us-west-1;us-west-1c;m5d.xlarge;02;08;0.0;0;1534763773000;1535061551000;004962;00000;0.0628;0.0646
us-west-1;us-west-1c;m5d.xlarge;02;09;0.0;0;1534767373000;1535061551000;004902;00000;0.0628;0.0646
us-west-1;us-west-1c;m5d.xlarge;02;10;0.0;0;1534770973000;1535061551000;004842;00000;0.0628;0.0646
us-west-1;us-west-1c;m5d.xlarge;02;11;0.0;0;1534774573000;1535061551000;004782;00000;0.0628;0.0646
us-west-1;us-west-1c;m5d.xlarge;02;12;0.0;0;1534778173000;1535061551000;004722;00000;0.0628;0.0646
us-west-1;us-west-1c;m5d.xlarge;02;13;0.0;0;1534781773000;1535061551000;004662;00000;0.0628;0.0646
us-west-1;us-west-1c;m5d.xlarge;02;14;0.0;0;1534785373000;1535061551000;004602;00000;0.0628;0.0646
us-west-1;us-west-1c;m5d.xlarge;02;15;0.0;0;1534788973000;1535061551000;004542;00000;0.0628;0.0646
us-west-1;us-west-1c;m5d.xlarge;02;16;0.0;0;1534792573000;1535061551000;004482;00000;0.0628;0.0646
us-west-1;us-west-1c;m5d.xlarge;02;17;0.0;0;1534796173000;1535061551000;004422;00000;0.0628;0.0646
us-west-1;us-west-1c;m5d.xlarge;02;18;0.0;0;1534799773000;1535061551000;004362;00000;0.0628;0.0646
us-west-1;us-west-1c;m5d.xlarge;02;19;0.0;0;1534803373000;1535061551000;004302;00000;0.0628;0.0646
us-west-1;us-west-1c;m5d.xlarge;02;20;0.0;0;1534806973000;1535061551000;004242;00000;0.0628;0.0646
us-west-1;us-west-1c;m5d.xlarge;02;21;0.0;0;1534810573000;1535061551000;004182;00000;0.0628;0.0646
us-west-1;us-west-1c;m5d.xlarge;02;22;0.0;0;1534814173000;1535061551000;004122;00000;0.0628;0.0646
us-west-1;us-west-1c;m5d.xlarge;02;23;0.0;0;1534817773000;1535061551000;004062;00000;0.0628;0.0646
us-west-1;us-west-1c;m5d.xlarge;03;00;0.0;0;1534821373000;1535061551000;004002;00000;0.0628;0.0646
us-west-1;us-west-1c;m5d.xlarge;03;01;0.0;0;1534824973000;1535061551000;003942;00000;0.0628;0.0646
us-west-1;us-west-1c;m5d.xlarge;03;02;0.0;0;1534828573000;1535061551000;003882;00000;0.0628;0.0646
us-west-1;us-west-1c;m5d.xlarge;03;03;0.0;0;1534832173000;1535061551000;003822;00000;0.0628;0.0646
us-west-1;us-west-1c;m5d.xlarge;03;04;0.0;0;1534835773000;1535061551000;003762;00000;0.0628;0.0646
us-west-1;us-west-1c;m5d.xlarge;03;05;0.0;0;1534839373000;1535061551000;003702;00000;0.0628;0.0646
us-west-1;us-west-1c;m5d.xlarge;03;06;0.0;0;1534842973000;1535061551000;003642;00000;0.0628;0.0646
us-west-1;us-west-1c;m5d.xlarge;03;07;0.0;0;1534846573000;1535061551000;003582;00000;0.0628;0.0646
us-west-1;us-west-1c;m5d.xlarge;03;08;0.0;0;1534850173000;1535061551000;003522;00000;0.0628;0.0646
us-west-1;us-west-1c;m5d.xlarge;03;09;0.0;0;1534853773000;1535061551000;003462;00000;0.0628;0.0646
us-west-1;us-west-1c;m5d.xlarge;03;10;0.0;0;1534857373000;1535061551000;003402;00000;0.0628;0.0646
us-west-1;us-west-1c;m5d.xlarge;03;11;0.0;0;1534860973000;1535061551000;003342;00000;0.0628;0.0646
us-west-1;us-west-1c;m5d.xlarge;03;12;0.0;0;1534864573000;1535061551000;003282;00000;0.0628;0.0646
us-west-1;us-west-1c;m5d.xlarge;03;13;0.0;0;1534868173000;1535061551000;003222;00000;0.0628;0.0646
us-west-1;us-west-1c;m5d.xlarge;03;14;0.0;0;1534871773000;1535061551000;003162;00000;0.0628;0.0646
us-west-1;us-west-1c;m5d.xlarge;03;15;0.0;0;1534875373000;1535061551000;003102;00000;0.0628;0.0646
us-west-1;us-west-1c;m5d.xlarge;03;16;0.0;0;1534878973000;1535061551000;003042;00000;0.0628;0.0646
us-west-1;us-west-1c;m5d.xlarge;03;17;0.0;0;1534882573000;1535061551000;002982;00000;0.0628;0.0646
us-west-1;us-west-1c;m5d.xlarge;03;18;0.0;0;1534886173000;1535061551000;002922;00000;0.0628;0.0646
us-west-1;us-west-1c;m5d.xlarge;03;19;0.0;0;1534889773000;1535061551000;002862;00000;0.0628;0.0646
us-west-1;us-west-1c;m5d.xlarge;03;20;0.0;0;1534893373000;1535061551000;002802;00000;0.0628;0.0646
us-west-1;us-west-1c;m5d.xlarge;03;21;0.0;0;1534896973000;1535061551000;002742;00000;0.0628;0.0646
us-west-1;us-west-1c;m5d.xlarge;03;22;0.0;0;1534900573000;1535061551000;002682;00000;0.0628;0.0646
us-west-1;us-west-1c;m5d.xlarge;03;23;0.0;0;1534904173000;1535061551000;002622;00000;0.0628;0.0646
us-west-1;us-west-1c;m5d.xlarge;04;00;0.0;0;1534907773000;1535061551000;002562;00000;0.0628;0.0646
us-west-1;us-west-1c;m5d.xlarge;04;01;0.0;0;1534911373000;1535061551000;002502;00000;0.0628;0.0646
us-west-1;us-west-1c;m5d.xlarge;04;02;0.0;0;1534914973000;1535061551000;002442;00000;0.0628;0.0646
us-west-1;us-west-1c;m5d.xlarge;04;03;0.0;0;1534918573000;1535061551000;002382;00000;0.0628;0.0646
us-west-1;us-west-1c;m5d.xlarge;04;04;0.0;0;1534922173000;1535061551000;002322;00000;0.0628;0.0646
us-west-1;us-west-1c;m5d.xlarge;04;05;0.0;0;1534925773000;1535061551000;002262;00000;0.0628;0.0646
us-west-1;us-west-1c;m5d.xlarge;04;06;0.0;0;1534929373000;1535061551000;002202;00000;0.0628;0.0646
us-west-1;us-west-1c;m5d.xlarge;04;07;0.0;0;1534932973000;1535061551000;002142;00000;0.0628;0.0646
us-west-1;us-west-1c;m5d.xlarge;04;08;0.0;0;1534936573000;1535061551000;002082;00000;0.0628;0.0646
us-west-1;us-west-1c;m5d.xlarge;04;09;0.0;0;1534940173000;1535061551000;002022;00000;0.0628;0.0646
us-west-1;us-west-1c;m5d.xlarge;04;10;0.0;0;1534943773000;1535061551000;001962;00000;0.0628;0.0646
us-west-1;us-west-1c;m5d.xlarge;04;11;0.0;0;1534947373000;1535061551000;001902;00000;0.0628;0.0646
us-west-1;us-west-1c;m5d.xlarge;04;12;0.0;0;1534950973000;1535061551000;001842;00000;0.0628;0.0646
us-west-1;us-west-1c;m5d.xlarge;04;13;0.0;0;1534954573000;1535061551000;001782;00000;0.0628;0.0646
us-west-1;us-west-1c;m5d.xlarge;04;14;0.0;0;1534958173000;1535061551000;001722;00000;0.0628;0.0646
us-west-1;us-west-1c;m5d.xlarge;04;15;0.0;0;1534961773000;1535061551000;001662;00000;0.0628;0.0646
us-west-1;us-west-1c;m5d.xlarge;04;16;0.0;0;1534965373000;1535061551000;001602;00000;0.0628;0.0646
us-west-1;us-west-1c;m5d.xlarge;04;17;0.0;0;1534968973000;1535061551000;001542;00000;0.0628;0.0646
us-west-1;us-west-1c;m5d.xlarge;04;18;0.0;0;1534972573000;1535061551000;001482;00000;0.0628;0.0646
us-west-1;us-west-1c;m5d.xlarge;04;19;0.0;0;1534976173000;1535061551000;001422;00000;0.0628;0.0646
us-west-1;us-west-1c;m5d.xlarge;04;20;0.0;0;1534979773000;1535061551000;001362;00000;0.0628;0.0646
us-west-1;us-west-1c;m5d.xlarge;04;21;0.0;0;1534983373000;1535061551000;001302;00000;0.0628;0.0646
us-west-1;us-west-1c;m5d.xlarge;04;22;0.0;0;1534986973000;1535061551000;001242;00000;0.0628;0.0646
us-west-1;us-west-1c;m5d.xlarge;04;23;0.0;0;1534990573000;1535061551000;001182;00000;0.0628;0.0646
us-west-1;us-west-1c;m5d.xlarge;05;00;0.0;0;1534994173000;1535061551000;001122;00000;0.0628;0.0646
us-west-1;us-west-1c;m5d.xlarge;05;01;0.0;0;1534997773000;1535061551000;001062;00000;0.0628;0.0646
us-west-1;us-west-1c;m5d.xlarge;05;02;0.0;0;1535001373000;1535061551000;001002;00000;0.0628;0.0646
us-west-1;us-west-1c;m5d.xlarge;05;03;0.0;0;1535004973000;1535061551000;000942;00000;0.0628;0.0646
us-west-1;us-west-1c;m5d.xlarge;05;04;0.0;0;1535008573000;1535061551000;000882;00000;0.0628;0.0646
us-west-1;us-west-1c;m5d.xlarge;05;05;0.0;0;1535012173000;1535061551000;000822;00000;0.0628;0.0646
us-west-1;us-west-1c;m5d.xlarge;05;06;0.0;0;1535015773000;1535061551000;000762;00000;0.0628;0.0646
us-west-1;us-west-1c;m5d.xlarge;05;07;0.0;0;1535019373000;1535061551000;000702;00000;0.0628;0.0646
us-west-1;us-west-1c;m5d.xlarge;05;08;0.0;0;1535022973000;1535061551000;000642;00000;0.0628;0.0646
us-west-1;us-west-1c;m5d.xlarge;05;09;0.0;0;1535026573000;1535061551000;000582;00000;0.0628;0.0646
us-west-1;us-west-1c;m5d.xlarge;05;10;0.0;0;1535030173000;1535061551000;000522;00000;0.0628;0.0646
us-west-1;us-west-1c;m5d.xlarge;05;11;0.0;0;1535033773000;1535061551000;000462;00000;0.0628;0.0646
us-west-1;us-west-1c;m5d.xlarge;05;12;0.0;0;1535037373000;1535061551000;000402;00000;0.0628;0.0646
us-west-1;us-west-1c;m5d.xlarge;05;13;0.0;0;1535040973000;1535061551000;000342;00000;0.0628;0.0646
us-west-1;us-west-1c;m5d.xlarge;05;14;0.0;0;1535044573000;1535061551000;000282;00000;0.0628;0.0646
us-west-1;us-west-1c;m5d.xlarge;05;15;0.0;0;1535048173000;1535061551000;000222;00000;0.0628;0.0646
us-west-1;us-west-1c;m5d.xlarge;05;16;0.0;0;1535051773000;1535061551000;000162;00000;0.0628;0.0646
us-west-1;us-west-1c;m5d.xlarge;05;17;0.0;0;1535055373000;1535061551000;000102;00000;0.0628;0.0646
us-west-1;us-west-1c;m5d.xlarge;01;13;1.0;0;1534695408000;1535061551000;006102;00006;0.0628;0.0646
us-west-1;us-west-1c;m5d.xlarge;01;14;0.0;0;1534699008000;1535061551000;006042;00000;0.0628;0.0646
us-west-1;us-west-1c;m5d.xlarge;01;15;0.0;0;1534702608000;1535061551000;005982;00000;0.0628;0.0646
us-west-1;us-west-1c;m5d.xlarge;01;16;0.0;0;1534706208000;1535061551000;005922;00000;0.0628;0.0646
us-west-1;us-west-1c;m5d.xlarge;01;17;0.0;0;1534709808000;1535061551000;005862;00000;0.0628;0.0646
us-west-1;us-west-1c;m5d.xlarge;01;18;0.0;0;1534713408000;1535061551000;005802;00000;0.0628;0.0646
us-west-1;us-west-1c;m5d.xlarge;01;19;0.0;0;1534717008000;1535061551000;005742;00000;0.0628;0.0646
us-west-1;us-west-1c;m5d.xlarge;01;20;0.0;0;1534720608000;1535061551000;005682;00000;0.0628;0.0646
us-west-1;us-west-1c;m5d.xlarge;01;21;0.0;0;1534724208000;1535061551000;005622;00000;0.0628;0.0646
us-west-1;us-west-1c;m5d.xlarge;01;22;0.0;0;1534727808000;1535061551000;005562;00000;0.0628;0.0646
us-west-1;us-west-1c;m5d.xlarge;01;23;0.0;0;1534731408000;1535061551000;005502;00000;0.0628;0.0646
us-west-1;us-west-1c;m5d.xlarge;02;00;0.0;0;1534735008000;1535061551000;005442;00000;0.0628;0.0646
us-west-1;us-west-1c;m5d.xlarge;02;01;0.0;0;1534738608000;1535061551000;005382;00000;0.0628;0.0646
us-west-1;us-west-1c;m5d.xlarge;02;02;0.0;0;1534742208000;1535061551000;005322;00000;0.0628;0.0646
us-west-1;us-west-1c;m5d.xlarge;02;03;0.0;0;1534745808000;1535061551000;005262;00000;0.0628;0.0646
us-west-1;us-west-1c;m5d.xlarge;02;04;0.0;0;1534749408000;1535061551000;005202;00000;0.0628;0.0646
us-west-1;us-west-1c;m5d.xlarge;02;05;0.0;0;1534753008000;1535061551000;005142;00000;0.0628;0.0646
us-west-1;us-west-1c;m5d.xlarge;02;06;0.0;0;1534756608000;1535061551000;005082;00000;0.0628;0.0646
us-west-1;us-west-1c;m5d.xlarge;02;07;0.0;0;1534760208000;1535061551000;005022;00000;0.0628;0.0646
us-west-1;us-west-1c;m5d.xlarge;02;08;0.0;0;1534763808000;1535061551000;004962;00000;0.0628;0.0646
us-west-1;us-west-1c;m5d.xlarge;02;09;0.0;0;1534767408000;1535061551000;004902;00000;0.0628;0.0646
us-west-1;us-west-1c;m5d.xlarge;02;10;0.0;0;1534771008000;1535061551000;004842;00000;0.0628;0.0646
us-west-1;us-west-1c;m5d.xlarge;02;11;0.0;0;1534774608000;1535061551000;004782;00000;0.0628;0.0646
us-west-1;us-west-1c;m5d.xlarge;02;12;0.0;0;1534778208000;1535061551000;004722;00000;0.0628;0.0646
us-west-1;us-west-1c;m5d.xlarge;02;13;0.0;0;1534781808000;1535061551000;004662;00000;0.0628;0.0646
us-west-1;us-west-1c;m5d.xlarge;02;14;0.0;0;1534785408000;1535061551000;004602;00000;0.0628;0.0646
us-west-1;us-west-1c;m5d.xlarge;02;15;0.0;0;1534789008000;1535061551000;004542;00000;0.0628;0.0646
us-west-1;us-west-1c;m5d.xlarge;02;16;0.0;0;1534792608000;1535061551000;004482;00000;0.0628;0.0646
us-west-1;us-west-1c;m5d.xlarge;02;17;0.0;0;1534796208000;1535061551000;004422;00000;0.0628;0.0646
us-west-1;us-west-1c;m5d.xlarge;02;18;0.0;0;1534799808000;1535061551000;004362;00000;0.0628;0.0646
us-west-1;us-west-1c;m5d.xlarge;02;19;0.0;0;1534803408000;1535061551000;004302;00000;0.0628;0.0646
us-west-1;us-west-1c;m5d.xlarge;02;20;0.0;0;1534807008000;1535061551000;004242;00000;0.0628;0.0646
us-west-1;us-west-1c;m5d.xlarge;02;21;0.0;0;1534810608000;1535061551000;004182;00000;0.0628;0.0646
us-west-1;us-west-1c;m5d.xlarge;02;22;0.0;0;1534814208000;1535061551000;004122;00000;0.0628;0.0646
us-west-1;us-west-1c;m5d.xlarge;02;23;0.0;0;1534817808000;1535061551000;004062;00000;0.0628;0.0646
us-west-1;us-west-1c;m5d.xlarge;03;00;0.0;0;1534821408000;1535061551000;004002;00000;0.0628;0.0646
us-west-1;us-west-1c;m5d.xlarge;03;01;0.0;0;1534825008000;1535061551000;003942;00000;0.0628;0.0646
us-west-1;us-west-1c;m5d.xlarge;03;02;0.0;0;1534828608000;1535061551000;003882;00000;0.0628;0.0646
us-west-1;us-west-1c;m5d.xlarge;03;03;0.0;0;1534832208000;1535061551000;003822;00000;0.0628;0.0646
us-west-1;us-west-1c;m5d.xlarge;03;04;0.0;0;1534835808000;1535061551000;003762;00000;0.0628;0.0646
us-west-1;us-west-1c;m5d.xlarge;03;05;0.0;0;1534839408000;1535061551000;003702;00000;0.0628;0.0646
us-west-1;us-west-1c;m5d.xlarge;03;06;0.0;0;1534843008000;1535061551000;003642;00000;0.0628;0.0646
us-west-1;us-west-1c;m5d.xlarge;03;07;0.0;0;1534846608000;1535061551000;003582;00000;0.0628;0.0646
us-west-1;us-west-1c;m5d.xlarge;03;08;0.0;0;1534850208000;1535061551000;003522;00000;0.0628;0.0646
us-west-1;us-west-1c;m5d.xlarge;03;09;0.0;0;1534853808000;1535061551000;003462;00000;0.0628;0.0646
us-west-1;us-west-1c;m5d.xlarge;03;10;0.0;0;1534857408000;1535061551000;003402;00000;0.0628;0.0646
us-west-1;us-west-1c;m5d.xlarge;03;11;0.0;0;1534861008000;1535061551000;003342;00000;0.0628;0.0646
us-west-1;us-west-1c;m5d.xlarge;03;12;0.0;0;1534864608000;1535061551000;003282;00000;0.0628;0.0646
us-west-1;us-west-1c;m5d.xlarge;03;13;0.0;0;1534868208000;1535061551000;003222;00000;0.0628;0.0646
us-west-1;us-west-1c;m5d.xlarge;03;14;0.0;0;1534871808000;1535061551000;003162;00000;0.0628;0.0646
us-west-1;us-west-1c;m5d.xlarge;03;15;0.0;0;1534875408000;1535061551000;003102;00000;0.0628;0.0646
us-west-1;us-west-1c;m5d.xlarge;03;16;0.0;0;1534879008000;1535061551000;003042;00000;0.0628;0.0646
us-west-1;us-west-1c;m5d.xlarge;03;17;0.0;0;1534882608000;1535061551000;002982;00000;0.0628;0.0646
us-west-1;us-west-1c;m5d.xlarge;03;18;0.0;0;1534886208000;1535061551000;002922;00000;0.0628;0.0646
us-west-1;us-west-1c;m5d.xlarge;03;19;0.0;0;1534889808000;1535061551000;002862;00000;0.0628;0.0646
us-west-1;us-west-1c;m5d.xlarge;03;20;0.0;0;1534893408000;1535061551000;002802;00000;0.0628;0.0646
us-west-1;us-west-1c;m5d.xlarge;03;21;0.0;0;1534897008000;1535061551000;002742;00000;0.0628;0.0646
us-west-1;us-west-1c;m5d.xlarge;03;22;0.0;0;1534900608000;1535061551000;002682;00000;0.0628;0.0646
us-west-1;us-west-1c;m5d.xlarge;03;23;0.0;0;1534904208000;1535061551000;002622;00000;0.0628;0.0646
us-west-1;us-west-1c;m5d.xlarge;04;00;0.0;0;1534907808000;1535061551000;002562;00000;0.0628;0.0646
us-west-1;us-west-1c;m5d.xlarge;04;01;0.0;0;1534911408000;1535061551000;002502;00000;0.0628;0.0646
us-west-1;us-west-1c;m5d.xlarge;04;02;0.0;0;1534915008000;1535061551000;002442;00000;0.0628;0.0646
us-west-1;us-west-1c;m5d.xlarge;04;03;0.0;0;1534918608000;1535061551000;002382;00000;0.0628;0.0646
us-west-1;us-west-1c;m5d.xlarge;04;04;0.0;0;1534922208000;1535061551000;002322;00000;0.0628;0.0646
us-west-1;us-west-1c;m5d.xlarge;04;05;0.0;0;1534925808000;1535061551000;002262;00000;0.0628;0.0646
us-west-1;us-west-1c;m5d.xlarge;04;06;0.0;0;1534929408000;1535061551000;002202;00000;0.0628;0.0646
us-west-1;us-west-1c;m5d.xlarge;04;07;0.0;0;1534933008000;1535061551000;002142;00000;0.0628;0.0646
us-west-1;us-west-1c;m5d.xlarge;04;08;0.0;0;1534936608000;1535061551000;002082;00000;0.0628;0.0646
us-west-1;us-west-1c;m5d.xlarge;04;09;0.0;0;1534940208000;1535061551000;002022;00000;0.0628;0.0646
us-west-1;us-west-1c;m5d.xlarge;04;10;0.0;0;1534943808000;1535061551000;001962;00000;0.0628;0.0646
us-west-1;us-west-1c;m5d.xlarge;04;11;0.0;0;1534947408000;1535061551000;001902;00000;0.0628;0.0646
us-west-1;us-west-1c;m5d.xlarge;04;12;0.0;0;1534951008000;1535061551000;001842;00000;0.0628;0.0646
us-west-1;us-west-1c;m5d.xlarge;04;13;0.0;0;1534954608000;1535061551000;001782;00000;0.0628;0.0646
us-west-1;us-west-1c;m5d.xlarge;04;14;0.0;0;1534958208000;1535061551000;001722;00000;0.0628;0.0646
us-west-1;us-west-1c;m5d.xlarge;04;15;0.0;0;1534961808000;1535061551000;001662;00000;0.0628;0.0646
us-west-1;us-west-1c;m5d.xlarge;04;16;0.0;0;1534965408000;1535061551000;001602;00000;0.0628;0.0646
us-west-1;us-west-1c;m5d.xlarge;04;17;0.0;0;1534969008000;1535061551000;001542;00000;0.0628;0.0646
us-west-1;us-west-1c;m5d.xlarge;04;18;0.0;0;1534972608000;1535061551000;001482;00000;0.0628;0.0646
us-west-1;us-west-1c;m5d.xlarge;04;19;0.0;0;1534976208000;1535061551000;001422;00000;0.0628;0.0646
us-west-1;us-west-1c;m5d.xlarge;04;20;0.0;0;1534979808000;1535061551000;001362;00000;0.0628;0.0646
us-west-1;us-west-1c;m5d.xlarge;04;21;0.0;0;1534983408000;1535061551000;001302;00000;0.0628;0.0646
us-west-1;us-west-1c;m5d.xlarge;04;22;0.0;0;1534987008000;1535061551000;001242;00000;0.0628;0.0646
us-west-1;us-west-1c;m5d.xlarge;04;23;0.0;0;1534990608000;1535061551000;001182;00000;0.0628;0.0646
us-west-1;us-west-1c;m5d.xlarge;05;00;0.0;0;1534994208000;1535061551000;001122;00000;0.0628;0.0646
us-west-1;us-west-1c;m5d.xlarge;05;01;0.0;0;1534997808000;1535061551000;001062;00000;0.0628;0.0646
us-west-1;us-west-1c;m5d.xlarge;05;02;0.0;0;1535001408000;1535061551000;001002;00000;0.0628;0.0646
us-west-1;us-west-1c;m5d.xlarge;05;03;0.0;0;1535005008000;1535061551000;000942;00000;0.0628;0.0646
us-west-1;us-west-1c;m5d.xlarge;05;04;0.0;0;1535008608000;1535061551000;000882;00000;0.0628;0.0646
us-west-1;us-west-1c;m5d.xlarge;05;05;0.0;0;1535012208000;1535061551000;000822;00000;0.0628;0.0646
us-west-1;us-west-1c;m5d.xlarge;05;06;0.0;0;1535015808000;1535061551000;000762;00000;0.0628;0.0646
us-west-1;us-west-1c;m5d.xlarge;05;07;0.0;0;1535019408000;1535061551000;000702;00000;0.0628;0.0646
us-west-1;us-west-1c;m5d.xlarge;05;08;0.0;0;1535023008000;1535061551000;000642;00000;0.0628;0.0646
us-west-1;us-west-1c;m5d.xlarge;05;09;0.0;0;1535026608000;1535061551000;000582;00000;0.0628;0.0646
us-west-1;us-west-1c;m5d.xlarge;05;10;0.0;0;1535030208000;1535061551000;000522;00000;0.0628;0.0646
us-west-1;us-west-1c;m5d.xlarge;05;11;0.0;0;1535033808000;1535061551000;000462;00000;0.0628;0.0646
us-west-1;us-west-1c;m5d.xlarge;05;12;0.0;0;1535037408000;1535061551000;000402;00000;0.0628;0.0646
us-west-1;us-west-1c;m5d.xlarge;05;13;0.0;0;1535041008000;1535061551000;000342;00000;0.0628;0.0646
us-west-1;us-west-1c;m5d.xlarge;05;14;0.0;0;1535044608000;1535061551000;000282;00000;0.0628;0.0646
us-west-1;us-west-1c;m5d.xlarge;05;15;0.0;0;1535048208000;1535061551000;000222;00000;0.0628;0.0646
us-west-1;us-west-1c;m5d.xlarge;05;16;0.0;0;1535051808000;1535061551000;000162;00000;0.0628;0.0646
us-west-1;us-west-1c;m5d.xlarge;05;17;0.0;0;1535055408000;1535061551000;000102;00000;0.0628;0.0646
us-west-1;us-west-1c;m5d.xlarge;01;15;1.0;0;1534702976000;1535061551000;005976;00005;0.0628;0.0646
us-west-1;us-west-1c;m5d.xlarge;01;16;0.0;0;1534706576000;1535061551000;005916;00000;0.0628;0.0646
us-west-1;us-west-1c;m5d.xlarge;01;17;0.0;0;1534710176000;1535061551000;005856;00000;0.0628;0.0646
us-west-1;us-west-1c;m5d.xlarge;01;18;0.0;0;1534713776000;1535061551000;005796;00000;0.0628;0.0646
us-west-1;us-west-1c;m5d.xlarge;01;19;0.0;0;1534717376000;1535061551000;005736;00000;0.0628;0.0646
us-west-1;us-west-1c;m5d.xlarge;01;20;0.0;0;1534720976000;1535061551000;005676;00000;0.0628;0.0646
us-west-1;us-west-1c;m5d.xlarge;01;21;0.0;0;1534724576000;1535061551000;005616;00000;0.0628;0.0646
us-west-1;us-west-1c;m5d.xlarge;01;22;0.0;0;1534728176000;1535061551000;005556;00000;0.0628;0.0646
us-west-1;us-west-1c;m5d.xlarge;01;23;0.0;0;1534731776000;1535061551000;005496;00000;0.0628;0.0646
us-west-1;us-west-1c;m5d.xlarge;02;00;0.0;0;1534735376000;1535061551000;005436;00000;0.0628;0.0646
us-west-1;us-west-1c;m5d.xlarge;02;01;0.0;0;1534738976000;1535061551000;005376;00000;0.0628;0.0646
us-west-1;us-west-1c;m5d.xlarge;02;02;0.0;0;1534742576000;1535061551000;005316;00000;0.0628;0.0646
us-west-1;us-west-1c;m5d.xlarge;02;03;0.0;0;1534746176000;1535061551000;005256;00000;0.0628;0.0646
us-west-1;us-west-1c;m5d.xlarge;02;04;0.0;0;1534749776000;1535061551000;005196;00000;0.0628;0.0646
us-west-1;us-west-1c;m5d.xlarge;02;05;0.0;0;1534753376000;1535061551000;005136;00000;0.0628;0.0646
us-west-1;us-west-1c;m5d.xlarge;02;06;0.0;0;1534756976000;1535061551000;005076;00000;0.0628;0.0646
us-west-1;us-west-1c;m5d.xlarge;02;07;0.0;0;1534760576000;1535061551000;005016;00000;0.0628;0.0646
us-west-1;us-west-1c;m5d.xlarge;02;08;0.0;0;1534764176000;1535061551000;004956;00000;0.0628;0.0646
us-west-1;us-west-1c;m5d.xlarge;02;09;0.0;0;1534767776000;1535061551000;004896;00000;0.0628;0.0646
us-west-1;us-west-1c;m5d.xlarge;02;10;0.0;0;1534771376000;1535061551000;004836;00000;0.0628;0.0646
us-west-1;us-west-1c;m5d.xlarge;02;11;0.0;0;1534774976000;1535061551000;004776;00000;0.0628;0.0646
us-west-1;us-west-1c;m5d.xlarge;02;12;0.0;0;1534778576000;1535061551000;004716;00000;0.0628;0.0646
us-west-1;us-west-1c;m5d.xlarge;02;13;0.0;0;1534782176000;1535061551000;004656;00000;0.0628;0.0646
us-west-1;us-west-1c;m5d.xlarge;02;14;0.0;0;1534785776000;1535061551000;004596;00000;0.0628;0.0646
us-west-1;us-west-1c;m5d.xlarge;02;15;0.0;0;1534789376000;1535061551000;004536;00000;0.0628;0.0646
us-west-1;us-west-1c;m5d.xlarge;02;16;0.0;0;1534792976000;1535061551000;004476;00000;0.0628;0.0646
us-west-1;us-west-1c;m5d.xlarge;02;17;0.0;0;1534796576000;1535061551000;004416;00000;0.0628;0.0646
us-west-1;us-west-1c;m5d.xlarge;02;18;0.0;0;1534800176000;1535061551000;004356;00000;0.0628;0.0646
us-west-1;us-west-1c;m5d.xlarge;02;19;0.0;0;1534803776000;1535061551000;004296;00000;0.0628;0.0646
us-west-1;us-west-1c;m5d.xlarge;02;20;0.0;0;1534807376000;1535061551000;004236;00000;0.0628;0.0646
us-west-1;us-west-1c;m5d.xlarge;02;21;0.0;0;1534810976000;1535061551000;004176;00000;0.0628;0.0646
us-west-1;us-west-1c;m5d.xlarge;02;22;0.0;0;1534814576000;1535061551000;004116;00000;0.0628;0.0646
us-west-1;us-west-1c;m5d.xlarge;02;23;0.0;0;1534818176000;1535061551000;004056;00000;0.0628;0.0646
us-west-1;us-west-1c;m5d.xlarge;03;00;0.0;0;1534821776000;1535061551000;003996;00000;0.0628;0.0646
us-west-1;us-west-1c;m5d.xlarge;03;01;0.0;0;1534825376000;1535061551000;003936;00000;0.0628;0.0646
us-west-1;us-west-1c;m5d.xlarge;03;02;0.0;0;1534828976000;1535061551000;003876;00000;0.0628;0.0646
us-west-1;us-west-1c;m5d.xlarge;03;03;0.0;0;1534832576000;1535061551000;003816;00000;0.0628;0.0646
us-west-1;us-west-1c;m5d.xlarge;03;04;0.0;0;1534836176000;1535061551000;003756;00000;0.0628;0.0646
us-west-1;us-west-1c;m5d.xlarge;03;05;0.0;0;1534839776000;1535061551000;003696;00000;0.0628;0.0646
us-west-1;us-west-1c;m5d.xlarge;03;06;0.0;0;1534843376000;1535061551000;003636;00000;0.0628;0.0646
us-west-1;us-west-1c;m5d.xlarge;03;07;0.0;0;1534846976000;1535061551000;003576;00000;0.0628;0.0646
us-west-1;us-west-1c;m5d.xlarge;03;08;0.0;0;1534850576000;1535061551000;003516;00000;0.0628;0.0646
us-west-1;us-west-1c;m5d.xlarge;03;09;0.0;0;1534854176000;1535061551000;003456;00000;0.0628;0.0646
us-west-1;us-west-1c;m5d.xlarge;03;10;0.0;0;1534857776000;1535061551000;003396;00000;0.0628;0.0646
us-west-1;us-west-1c;m5d.xlarge;03;11;0.0;0;1534861376000;1535061551000;003336;00000;0.0628;0.0646
us-west-1;us-west-1c;m5d.xlarge;03;12;0.0;0;1534864976000;1535061551000;003276;00000;0.0628;0.0646
us-west-1;us-west-1c;m5d.xlarge;03;13;0.0;0;1534868576000;1535061551000;003216;00000;0.0628;0.0646
us-west-1;us-west-1c;m5d.xlarge;03;14;0.0;0;1534872176000;1535061551000;003156;00000;0.0628;0.0646
us-west-1;us-west-1c;m5d.xlarge;03;15;0.0;0;1534875776000;1535061551000;003096;00000;0.0628;0.0646
us-west-1;us-west-1c;m5d.xlarge;03;16;0.0;0;1534879376000;1535061551000;003036;00000;0.0628;0.0646
us-west-1;us-west-1c;m5d.xlarge;03;17;0.0;0;1534882976000;1535061551000;002976;00000;0.0628;0.0646
us-west-1;us-west-1c;m5d.xlarge;03;18;0.0;0;1534886576000;1535061551000;002916;00000;0.0628;0.0646
us-west-1;us-west-1c;m5d.xlarge;03;19;0.0;0;1534890176000;1535061551000;002856;00000;0.0628;0.0646
us-west-1;us-west-1c;m5d.xlarge;03;20;0.0;0;1534893776000;1535061551000;002796;00000;0.0628;0.0646
us-west-1;us-west-1c;m5d.xlarge;03;21;0.0;0;1534897376000;1535061551000;002736;00000;0.0628;0.0646
us-west-1;us-west-1c;m5d.xlarge;03;22;0.0;0;1534900976000;1535061551000;002676;00000;0.0628;0.0646
us-west-1;us-west-1c;m5d.xlarge;03;23;0.0;0;1534904576000;1535061551000;002616;00000;0.0628;0.0646
us-west-1;us-west-1c;m5d.xlarge;04;00;0.0;0;1534908176000;1535061551000;002556;00000;0.0628;0.0646
us-west-1;us-west-1c;m5d.xlarge;04;01;0.0;0;1534911776000;1535061551000;002496;00000;0.0628;0.0646
us-west-1;us-west-1c;m5d.xlarge;04;02;0.0;0;1534915376000;1535061551000;002436;00000;0.0628;0.0646
us-west-1;us-west-1c;m5d.xlarge;04;03;0.0;0;1534918976000;1535061551000;002376;00000;0.0628;0.0646
us-west-1;us-west-1c;m5d.xlarge;04;04;0.0;0;1534922576000;1535061551000;002316;00000;0.0628;0.0646
us-west-1;us-west-1c;m5d.xlarge;04;05;0.0;0;1534926176000;1535061551000;002256;00000;0.0628;0.0646
us-west-1;us-west-1c;m5d.xlarge;04;06;0.0;0;1534929776000;1535061551000;002196;00000;0.0628;0.0646
us-west-1;us-west-1c;m5d.xlarge;04;07;0.0;0;1534933376000;1535061551000;002136;00000;0.0628;0.0646
us-west-1;us-west-1c;m5d.xlarge;04;08;0.0;0;1534936976000;1535061551000;002076;00000;0.0628;0.0646
us-west-1;us-west-1c;m5d.xlarge;04;09;0.0;0;1534940576000;1535061551000;002016;00000;0.0628;0.0646
us-west-1;us-west-1c;m5d.xlarge;04;10;0.0;0;1534944176000;1535061551000;001956;00000;0.0628;0.0646
us-west-1;us-west-1c;m5d.xlarge;04;11;0.0;0;1534947776000;1535061551000;001896;00000;0.0628;0.0646
us-west-1;us-west-1c;m5d.xlarge;04;12;0.0;0;1534951376000;1535061551000;001836;00000;0.0628;0.0646
us-west-1;us-west-1c;m5d.xlarge;04;13;0.0;0;1534954976000;1535061551000;001776;00000;0.0628;0.0646
us-west-1;us-west-1c;m5d.xlarge;04;14;0.0;0;1534958576000;1535061551000;001716;00000;0.0628;0.0646
us-west-1;us-west-1c;m5d.xlarge;04;15;0.0;0;1534962176000;1535061551000;001656;00000;0.0628;0.0646
us-west-1;us-west-1c;m5d.xlarge;04;16;0.0;0;1534965776000;1535061551000;001596;00000;0.0628;0.0646
us-west-1;us-west-1c;m5d.xlarge;04;17;0.0;0;1534969376000;1535061551000;001536;00000;0.0628;0.0646
us-west-1;us-west-1c;m5d.xlarge;04;18;0.0;0;1534972976000;1535061551000;001476;00000;0.0628;0.0646
us-west-1;us-west-1c;m5d.xlarge;04;19;0.0;0;1534976576000;1535061551000;001416;00000;0.0628;0.0646
us-west-1;us-west-1c;m5d.xlarge;04;20;0.0;0;1534980176000;1535061551000;001356;00000;0.0628;0.0646
us-west-1;us-west-1c;m5d.xlarge;04;21;0.0;0;1534983776000;1535061551000;001296;00000;0.0628;0.0646
us-west-1;us-west-1c;m5d.xlarge;04;22;0.0;0;1534987376000;1535061551000;001236;00000;0.0628;0.0646
us-west-1;us-west-1c;m5d.xlarge;04;23;0.0;0;1534990976000;1535061551000;001176;00000;0.0628;0.0646
us-west-1;us-west-1c;m5d.xlarge;05;00;0.0;0;1534994576000;1535061551000;001116;00000;0.0628;0.0646
us-west-1;us-west-1c;m5d.xlarge;05;01;0.0;0;1534998176000;1535061551000;001056;00000;0.0628;0.0646
us-west-1;us-west-1c;m5d.xlarge;05;02;0.0;0;1535001776000;1535061551000;000996;00000;0.0628;0.0646
us-west-1;us-west-1c;m5d.xlarge;05;03;0.0;0;1535005376000;1535061551000;000936;00000;0.0628;0.0646
us-west-1;us-west-1c;m5d.xlarge;05;04;0.0;0;1535008976000;1535061551000;000876;00000;0.0628;0.0646
us-west-1;us-west-1c;m5d.xlarge;05;05;0.0;0;1535012576000;1535061551000;000816;00000;0.0628;0.0646
us-west-1;us-west-1c;m5d.xlarge;05;06;0.0;0;1535016176000;1535061551000;000756;00000;0.0628;0.0646
us-west-1;us-west-1c;m5d.xlarge;05;07;0.0;0;1535019776000;1535061551000;000696;00000;0.0628;0.0646
us-west-1;us-west-1c;m5d.xlarge;05;08;0.0;0;1535023376000;1535061551000;000636;00000;0.0628;0.0646
us-west-1;us-west-1c;m5d.xlarge;05;09;0.0;0;1535026976000;1535061551000;000576;00000;0.0628;0.0646
us-west-1;us-west-1c;m5d.xlarge;05;10;0.0;0;1535030576000;1535061551000;000516;00000;0.0628;0.0646
us-west-1;us-west-1c;m5d.xlarge;05;11;0.0;0;1535034176000;1535061551000;000456;00000;0.0628;0.0646
us-west-1;us-west-1c;m5d.xlarge;05;12;0.0;0;1535037776000;1535061551000;000396;00000;0.0628;0.0646
us-west-1;us-west-1c;m5d.xlarge;05;13;0.0;0;1535041376000;1535061551000;000336;00000;0.0628;0.0646
us-west-1;us-west-1c;m5d.xlarge;05;14;0.0;0;1535044976000;1535061551000;000276;00000;0.0628;0.0646
us-west-1;us-west-1c;m5d.xlarge;05;15;0.0;0;1535048576000;1535061551000;000216;00000;0.0628;0.0646
us-west-1;us-west-1c;m5d.xlarge;05;16;0.0;0;1535052176000;1535061551000;000156;00000;0.0628;0.0646
us-west-1;us-west-1c;m5d.xlarge;05;17;0.0;0;1535055776000;1535061551000;000096;00000;0.0628;0.0646
us-west-1;us-west-1c;m5d.xlarge;02;15;1.0;0;1534789386000;1535061551000;004536;00004;0.0628;0.0646
us-west-1;us-west-1c;m5d.xlarge;02;16;0.0;0;1534792986000;1535061551000;004476;00000;0.0628;0.0646
us-west-1;us-west-1c;m5d.xlarge;02;17;0.0;0;1534796586000;1535061551000;004416;00000;0.0628;0.0646
us-west-1;us-west-1c;m5d.xlarge;02;18;0.0;0;1534800186000;1535061551000;004356;00000;0.0628;0.0646
us-west-1;us-west-1c;m5d.xlarge;02;19;0.0;0;1534803786000;1535061551000;004296;00000;0.0628;0.0646
us-west-1;us-west-1c;m5d.xlarge;02;20;0.0;0;1534807386000;1535061551000;004236;00000;0.0628;0.0646
us-west-1;us-west-1c;m5d.xlarge;02;21;0.0;0;1534810986000;1535061551000;004176;00000;0.0628;0.0646
us-west-1;us-west-1c;m5d.xlarge;02;22;0.0;0;1534814586000;1535061551000;004116;00000;0.0628;0.0646
us-west-1;us-west-1c;m5d.xlarge;02;23;0.0;0;1534818186000;1535061551000;004056;00000;0.0628;0.0646
us-west-1;us-west-1c;m5d.xlarge;03;00;0.0;0;1534821786000;1535061551000;003996;00000;0.0628;0.0646
us-west-1;us-west-1c;m5d.xlarge;03;01;0.0;0;1534825386000;1535061551000;003936;00000;0.0628;0.0646
us-west-1;us-west-1c;m5d.xlarge;03;02;0.0;0;1534828986000;1535061551000;003876;00000;0.0628;0.0646
us-west-1;us-west-1c;m5d.xlarge;03;03;0.0;0;1534832586000;1535061551000;003816;00000;0.0628;0.0646
us-west-1;us-west-1c;m5d.xlarge;03;04;0.0;0;1534836186000;1535061551000;003756;00000;0.0628;0.0646
us-west-1;us-west-1c;m5d.xlarge;03;05;0.0;0;1534839786000;1535061551000;003696;00000;0.0628;0.0646
us-west-1;us-west-1c;m5d.xlarge;03;06;0.0;0;1534843386000;1535061551000;003636;00000;0.0628;0.0646
us-west-1;us-west-1c;m5d.xlarge;03;07;0.0;0;1534846986000;1535061551000;003576;00000;0.0628;0.0646
us-west-1;us-west-1c;m5d.xlarge;03;08;0.0;0;1534850586000;1535061551000;003516;00000;0.0628;0.0646
us-west-1;us-west-1c;m5d.xlarge;03;09;0.0;0;1534854186000;1535061551000;003456;00000;0.0628;0.0646
us-west-1;us-west-1c;m5d.xlarge;03;10;0.0;0;1534857786000;1535061551000;003396;00000;0.0628;0.0646
us-west-1;us-west-1c;m5d.xlarge;03;11;0.0;0;1534861386000;1535061551000;003336;00000;0.0628;0.0646
us-west-1;us-west-1c;m5d.xlarge;03;12;0.0;0;1534864986000;1535061551000;003276;00000;0.0628;0.0646
us-west-1;us-west-1c;m5d.xlarge;03;13;0.0;0;1534868586000;1535061551000;003216;00000;0.0628;0.0646
us-west-1;us-west-1c;m5d.xlarge;03;14;0.0;0;1534872186000;1535061551000;003156;00000;0.0628;0.0646
us-west-1;us-west-1c;m5d.xlarge;03;15;0.0;0;1534875786000;1535061551000;003096;00000;0.0628;0.0646
us-west-1;us-west-1c;m5d.xlarge;03;16;0.0;0;1534879386000;1535061551000;003036;00000;0.0628;0.0646
us-west-1;us-west-1c;m5d.xlarge;03;17;0.0;0;1534882986000;1535061551000;002976;00000;0.0628;0.0646
us-west-1;us-west-1c;m5d.xlarge;03;18;0.0;0;1534886586000;1535061551000;002916;00000;0.0628;0.0646
us-west-1;us-west-1c;m5d.xlarge;03;19;0.0;0;1534890186000;1535061551000;002856;00000;0.0628;0.0646
us-west-1;us-west-1c;m5d.xlarge;03;20;0.0;0;1534893786000;1535061551000;002796;00000;0.0628;0.0646
us-west-1;us-west-1c;m5d.xlarge;03;21;0.0;0;1534897386000;1535061551000;002736;00000;0.0628;0.0646
us-west-1;us-west-1c;m5d.xlarge;03;22;0.0;0;1534900986000;1535061551000;002676;00000;0.0628;0.0646
us-west-1;us-west-1c;m5d.xlarge;03;23;0.0;0;1534904586000;1535061551000;002616;00000;0.0628;0.0646
us-west-1;us-west-1c;m5d.xlarge;04;00;0.0;0;1534908186000;1535061551000;002556;00000;0.0628;0.0646
us-west-1;us-west-1c;m5d.xlarge;04;01;0.0;0;1534911786000;1535061551000;002496;00000;0.0628;0.0646
us-west-1;us-west-1c;m5d.xlarge;04;02;0.0;0;1534915386000;1535061551000;002436;00000;0.0628;0.0646
us-west-1;us-west-1c;m5d.xlarge;04;03;0.0;0;1534918986000;1535061551000;002376;00000;0.0628;0.0646
us-west-1;us-west-1c;m5d.xlarge;04;04;0.0;0;1534922586000;1535061551000;002316;00000;0.0628;0.0646
us-west-1;us-west-1c;m5d.xlarge;04;05;0.0;0;1534926186000;1535061551000;002256;00000;0.0628;0.0646
us-west-1;us-west-1c;m5d.xlarge;04;06;0.0;0;1534929786000;1535061551000;002196;00000;0.0628;0.0646
us-west-1;us-west-1c;m5d.xlarge;04;07;0.0;0;1534933386000;1535061551000;002136;00000;0.0628;0.0646
us-west-1;us-west-1c;m5d.xlarge;04;08;0.0;0;1534936986000;1535061551000;002076;00000;0.0628;0.0646
us-west-1;us-west-1c;m5d.xlarge;04;09;0.0;0;1534940586000;1535061551000;002016;00000;0.0628;0.0646
us-west-1;us-west-1c;m5d.xlarge;04;10;0.0;0;1534944186000;1535061551000;001956;00000;0.0628;0.0646
us-west-1;us-west-1c;m5d.xlarge;04;11;0.0;0;1534947786000;1535061551000;001896;00000;0.0628;0.0646
us-west-1;us-west-1c;m5d.xlarge;04;12;0.0;0;1534951386000;1535061551000;001836;00000;0.0628;0.0646
us-west-1;us-west-1c;m5d.xlarge;04;13;0.0;0;1534954986000;1535061551000;001776;00000;0.0628;0.0646
us-west-1;us-west-1c;m5d.xlarge;04;14;0.0;0;1534958586000;1535061551000;001716;00000;0.0628;0.0646
us-west-1;us-west-1c;m5d.xlarge;04;15;0.0;0;1534962186000;1535061551000;001656;00000;0.0628;0.0646
us-west-1;us-west-1c;m5d.xlarge;04;16;0.0;0;1534965786000;1535061551000;001596;00000;0.0628;0.0646
us-west-1;us-west-1c;m5d.xlarge;04;17;0.0;0;1534969386000;1535061551000;001536;00000;0.0628;0.0646
us-west-1;us-west-1c;m5d.xlarge;04;18;0.0;0;1534972986000;1535061551000;001476;00000;0.0628;0.0646
us-west-1;us-west-1c;m5d.xlarge;04;19;0.0;0;1534976586000;1535061551000;001416;00000;0.0628;0.0646
us-west-1;us-west-1c;m5d.xlarge;04;20;0.0;0;1534980186000;1535061551000;001356;00000;0.0628;0.0646
us-west-1;us-west-1c;m5d.xlarge;04;21;0.0;0;1534983786000;1535061551000;001296;00000;0.0628;0.0646
us-west-1;us-west-1c;m5d.xlarge;04;22;0.0;0;1534987386000;1535061551000;001236;00000;0.0628;0.0646
us-west-1;us-west-1c;m5d.xlarge;04;23;0.0;0;1534990986000;1535061551000;001176;00000;0.0628;0.0646
us-west-1;us-west-1c;m5d.xlarge;05;00;0.0;0;1534994586000;1535061551000;001116;00000;0.0628;0.0646
us-west-1;us-west-1c;m5d.xlarge;05;01;0.0;0;1534998186000;1535061551000;001056;00000;0.0628;0.0646
us-west-1;us-west-1c;m5d.xlarge;05;02;0.0;0;1535001786000;1535061551000;000996;00000;0.0628;0.0646
us-west-1;us-west-1c;m5d.xlarge;05;03;0.0;0;1535005386000;1535061551000;000936;00000;0.0628;0.0646
us-west-1;us-west-1c;m5d.xlarge;05;04;0.0;0;1535008986000;1535061551000;000876;00000;0.0628;0.0646
us-west-1;us-west-1c;m5d.xlarge;05;05;0.0;0;1535012586000;1535061551000;000816;00000;0.0628;0.0646
us-west-1;us-west-1c;m5d.xlarge;05;06;0.0;0;1535016186000;1535061551000;000756;00000;0.0628;0.0646
us-west-1;us-west-1c;m5d.xlarge;05;07;0.0;0;1535019786000;1535061551000;000696;00000;0.0628;0.0646
us-west-1;us-west-1c;m5d.xlarge;05;08;0.0;0;1535023386000;1535061551000;000636;00000;0.0628;0.0646
us-west-1;us-west-1c;m5d.xlarge;05;09;0.0;0;1535026986000;1535061551000;000576;00000;0.0628;0.0646
us-west-1;us-west-1c;m5d.xlarge;05;10;0.0;0;1535030586000;1535061551000;000516;00000;0.0628;0.0646
us-west-1;us-west-1c;m5d.xlarge;05;11;0.0;0;1535034186000;1535061551000;000456;00000;0.0628;0.0646
us-west-1;us-west-1c;m5d.xlarge;05;12;0.0;0;1535037786000;1535061551000;000396;00000;0.0628;0.0646
us-west-1;us-west-1c;m5d.xlarge;05;13;0.0;0;1535041386000;1535061551000;000336;00000;0.0628;0.0646
us-west-1;us-west-1c;m5d.xlarge;05;14;0.0;0;1535044986000;1535061551000;000276;00000;0.0628;0.0646
us-west-1;us-west-1c;m5d.xlarge;05;15;0.0;0;1535048586000;1535061551000;000216;00000;0.0628;0.0646
us-west-1;us-west-1c;m5d.xlarge;05;16;0.0;0;1535052186000;1535061551000;000156;00000;0.0628;0.0646
us-west-1;us-west-1c;m5d.xlarge;05;17;0.0;0;1535055786000;1535061551000;000096;00000;0.0628;0.0646
us-west-1;us-west-1c;m5d.xlarge;03;15;1.0;0;1534875796000;1535061551000;003095;00003;0.0628;0.0646
us-west-1;us-west-1c;m5d.xlarge;03;16;0.0;0;1534879396000;1535061551000;003035;00000;0.0628;0.0646
us-west-1;us-west-1c;m5d.xlarge;03;17;0.0;0;1534882996000;1535061551000;002975;00000;0.0628;0.0646
us-west-1;us-west-1c;m5d.xlarge;03;18;0.0;0;1534886596000;1535061551000;002915;00000;0.0628;0.0646
us-west-1;us-west-1c;m5d.xlarge;03;19;0.0;0;1534890196000;1535061551000;002855;00000;0.0628;0.0646
us-west-1;us-west-1c;m5d.xlarge;03;20;0.0;0;1534893796000;1535061551000;002795;00000;0.0628;0.0646
us-west-1;us-west-1c;m5d.xlarge;03;21;0.0;0;1534897396000;1535061551000;002735;00000;0.0628;0.0646
us-west-1;us-west-1c;m5d.xlarge;03;22;0.0;0;1534900996000;1535061551000;002675;00000;0.0628;0.0646
us-west-1;us-west-1c;m5d.xlarge;03;23;0.0;0;1534904596000;1535061551000;002615;00000;0.0628;0.0646
us-west-1;us-west-1c;m5d.xlarge;04;00;0.0;0;1534908196000;1535061551000;002555;00000;0.0628;0.0646
us-west-1;us-west-1c;m5d.xlarge;04;01;0.0;0;1534911796000;1535061551000;002495;00000;0.0628;0.0646
us-west-1;us-west-1c;m5d.xlarge;04;02;0.0;0;1534915396000;1535061551000;002435;00000;0.0628;0.0646
us-west-1;us-west-1c;m5d.xlarge;04;03;0.0;0;1534918996000;1535061551000;002375;00000;0.0628;0.0646
us-west-1;us-west-1c;m5d.xlarge;04;04;0.0;0;1534922596000;1535061551000;002315;00000;0.0628;0.0646
us-west-1;us-west-1c;m5d.xlarge;04;05;0.0;0;1534926196000;1535061551000;002255;00000;0.0628;0.0646
us-west-1;us-west-1c;m5d.xlarge;04;06;0.0;0;1534929796000;1535061551000;002195;00000;0.0628;0.0646
us-west-1;us-west-1c;m5d.xlarge;04;07;0.0;0;1534933396000;1535061551000;002135;00000;0.0628;0.0646
us-west-1;us-west-1c;m5d.xlarge;04;08;0.0;0;1534936996000;1535061551000;002075;00000;0.0628;0.0646
us-west-1;us-west-1c;m5d.xlarge;04;09;0.0;0;1534940596000;1535061551000;002015;00000;0.0628;0.0646
us-west-1;us-west-1c;m5d.xlarge;04;10;0.0;0;1534944196000;1535061551000;001955;00000;0.0628;0.0646
us-west-1;us-west-1c;m5d.xlarge;04;11;0.0;0;1534947796000;1535061551000;001895;00000;0.0628;0.0646
us-west-1;us-west-1c;m5d.xlarge;04;12;0.0;0;1534951396000;1535061551000;001835;00000;0.0628;0.0646
us-west-1;us-west-1c;m5d.xlarge;04;13;0.0;0;1534954996000;1535061551000;001775;00000;0.0628;0.0646
us-west-1;us-west-1c;m5d.xlarge;04;14;0.0;0;1534958596000;1535061551000;001715;00000;0.0628;0.0646
us-west-1;us-west-1c;m5d.xlarge;04;15;0.0;0;1534962196000;1535061551000;001655;00000;0.0628;0.0646
us-west-1;us-west-1c;m5d.xlarge;04;16;0.0;0;1534965796000;1535061551000;001595;00000;0.0628;0.0646
us-west-1;us-west-1c;m5d.xlarge;04;17;0.0;0;1534969396000;1535061551000;001535;00000;0.0628;0.0646
us-west-1;us-west-1c;m5d.xlarge;04;18;0.0;0;1534972996000;1535061551000;001475;00000;0.0628;0.0646
us-west-1;us-west-1c;m5d.xlarge;04;19;0.0;0;1534976596000;1535061551000;001415;00000;0.0628;0.0646
us-west-1;us-west-1c;m5d.xlarge;04;20;0.0;0;1534980196000;1535061551000;001355;00000;0.0628;0.0646
us-west-1;us-west-1c;m5d.xlarge;04;21;0.0;0;1534983796000;1535061551000;001295;00000;0.0628;0.0646
us-west-1;us-west-1c;m5d.xlarge;04;22;0.0;0;1534987396000;1535061551000;001235;00000;0.0628;0.0646
us-west-1;us-west-1c;m5d.xlarge;04;23;0.0;0;1534990996000;1535061551000;001175;00000;0.0628;0.0646
us-west-1;us-west-1c;m5d.xlarge;05;00;0.0;0;1534994596000;1535061551000;001115;00000;0.0628;0.0646
us-west-1;us-west-1c;m5d.xlarge;05;01;0.0;0;1534998196000;1535061551000;001055;00000;0.0628;0.0646
us-west-1;us-west-1c;m5d.xlarge;05;02;0.0;0;1535001796000;1535061551000;000995;00000;0.0628;0.0646
us-west-1;us-west-1c;m5d.xlarge;05;03;0.0;0;1535005396000;1535061551000;000935;00000;0.0628;0.0646
us-west-1;us-west-1c;m5d.xlarge;05;04;0.0;0;1535008996000;1535061551000;000875;00000;0.0628;0.0646
us-west-1;us-west-1c;m5d.xlarge;05;05;0.0;0;1535012596000;1535061551000;000815;00000;0.0628;0.0646
us-west-1;us-west-1c;m5d.xlarge;05;06;0.0;0;1535016196000;1535061551000;000755;00000;0.0628;0.0646
us-west-1;us-west-1c;m5d.xlarge;05;07;0.0;0;1535019796000;1535061551000;000695;00000;0.0628;0.0646
us-west-1;us-west-1c;m5d.xlarge;05;08;0.0;0;1535023396000;1535061551000;000635;00000;0.0628;0.0646
us-west-1;us-west-1c;m5d.xlarge;05;09;0.0;0;1535026996000;1535061551000;000575;00000;0.0628;0.0646
us-west-1;us-west-1c;m5d.xlarge;05;10;0.0;0;1535030596000;1535061551000;000515;00000;0.0628;0.0646
us-west-1;us-west-1c;m5d.xlarge;05;11;0.0;0;1535034196000;1535061551000;000455;00000;0.0628;0.0646
us-west-1;us-west-1c;m5d.xlarge;05;12;0.0;0;1535037796000;1535061551000;000395;00000;0.0628;0.0646
us-west-1;us-west-1c;m5d.xlarge;05;13;0.0;0;1535041396000;1535061551000;000335;00000;0.0628;0.0646
us-west-1;us-west-1c;m5d.xlarge;05;14;0.0;0;1535044996000;1535061551000;000275;00000;0.0628;0.0646
us-west-1;us-west-1c;m5d.xlarge;05;15;0.0;0;1535048596000;1535061551000;000215;00000;0.0628;0.0646
us-west-1;us-west-1c;m5d.xlarge;05;16;0.0;0;1535052196000;1535061551000;000155;00000;0.0628;0.0646
us-west-1;us-west-1c;m5d.xlarge;05;17;0.0;0;1535055796000;1535061551000;000095;00000;0.0628;0.0646
us-west-1;us-west-1c;m5d.xlarge;04;15;1.0;0;1534962208000;1535061551000;001655;00002;0.0628;0.0646
us-west-1;us-west-1c;m5d.xlarge;04;16;0.0;0;1534965808000;1535061551000;001595;00000;0.0628;0.0646
us-west-1;us-west-1c;m5d.xlarge;04;17;0.0;0;1534969408000;1535061551000;001535;00000;0.0628;0.0646
us-west-1;us-west-1c;m5d.xlarge;04;18;0.0;0;1534973008000;1535061551000;001475;00000;0.0628;0.0646
us-west-1;us-west-1c;m5d.xlarge;04;19;0.0;0;1534976608000;1535061551000;001415;00000;0.0628;0.0646
us-west-1;us-west-1c;m5d.xlarge;04;20;0.0;0;1534980208000;1535061551000;001355;00000;0.0628;0.0646
us-west-1;us-west-1c;m5d.xlarge;04;21;0.0;0;1534983808000;1535061551000;001295;00000;0.0628;0.0646
us-west-1;us-west-1c;m5d.xlarge;04;22;0.0;0;1534987408000;1535061551000;001235;00000;0.0628;0.0646
us-west-1;us-west-1c;m5d.xlarge;04;23;0.0;0;1534991008000;1535061551000;001175;00000;0.0628;0.0646
us-west-1;us-west-1c;m5d.xlarge;05;00;0.0;0;1534994608000;1535061551000;001115;00000;0.0628;0.0646
us-west-1;us-west-1c;m5d.xlarge;05;01;0.0;0;1534998208000;1535061551000;001055;00000;0.0628;0.0646
us-west-1;us-west-1c;m5d.xlarge;05;02;0.0;0;1535001808000;1535061551000;000995;00000;0.0628;0.0646
us-west-1;us-west-1c;m5d.xlarge;05;03;0.0;0;1535005408000;1535061551000;000935;00000;0.0628;0.0646
us-west-1;us-west-1c;m5d.xlarge;05;04;0.0;0;1535009008000;1535061551000;000875;00000;0.0628;0.0646
us-west-1;us-west-1c;m5d.xlarge;05;05;0.0;0;1535012608000;1535061551000;000815;00000;0.0628;0.0646
us-west-1;us-west-1c;m5d.xlarge;05;06;0.0;0;1535016208000;1535061551000;000755;00000;0.0628;0.0646
us-west-1;us-west-1c;m5d.xlarge;05;07;0.0;0;1535019808000;1535061551000;000695;00000;0.0628;0.0646
us-west-1;us-west-1c;m5d.xlarge;05;08;0.0;0;1535023408000;1535061551000;000635;00000;0.0628;0.0646
us-west-1;us-west-1c;m5d.xlarge;05;09;0.0;0;1535027008000;1535061551000;000575;00000;0.0628;0.0646
us-west-1;us-west-1c;m5d.xlarge;05;10;0.0;0;1535030608000;1535061551000;000515;00000;0.0628;0.0646
us-west-1;us-west-1c;m5d.xlarge;05;11;0.0;0;1535034208000;1535061551000;000455;00000;0.0628;0.0646
us-west-1;us-west-1c;m5d.xlarge;05;12;0.0;0;1535037808000;1535061551000;000395;00000;0.0628;0.0646
us-west-1;us-west-1c;m5d.xlarge;05;13;0.0;0;1535041408000;1535061551000;000335;00000;0.0628;0.0646
us-west-1;us-west-1c;m5d.xlarge;05;14;0.0;0;1535045008000;1535061551000;000275;00000;0.0628;0.0646
us-west-1;us-west-1c;m5d.xlarge;05;15;0.0;0;1535048608000;1535061551000;000215;00000;0.0628;0.0646
us-west-1;us-west-1c;m5d.xlarge;05;16;0.0;0;1535052208000;1535061551000;000155;00000;0.0628;0.0646
us-west-1;us-west-1c;m5d.xlarge;05;17;0.0;0;1535055808000;1535061551000;000095;00000;0.0628;0.0646
us-west-1;us-west-1c;m5d.xlarge;05;15;1.0;0;1535048630000;1535061551000;000215;00001;0.0628;0.0646
us-west-1;us-west-1c;m5d.xlarge;05;16;0.0;0;1535052230000;1535061551000;000155;00000;0.0628;0.0646
us-west-1;us-west-1c;m5d.xlarge;05;17;0.0;0;1535055830000;1535061551000;000095;00000;0.0628;0.0646
us-west-1;us-west-1c;m5d.xlarge;05;18;1.0;1;1535061551000;1540921353000;097663;00098;0.0646;0.0646
us-west-1;us-west-1c;m5d.xlarge;06;19;1.0;1;1535148007000;1540921353000;096222;00097;0.0646;0.0646
us-west-1;us-west-1c;m5d.xlarge;07;19;1.0;1;1535234460000;1540921353000;094781;00096;0.0646;0.0646
us-west-1;us-west-1c;m5d.xlarge;01;19;1.0;1;1535320873000;1540921353000;093341;00095;0.0646;0.0646
us-west-1;us-west-1c;m5d.xlarge;02;03;1.0;1;1535351860000;1540921353000;092824;00094;0.0646;0.0646
us-west-1;us-west-1c;m5d.xlarge;02;03;1.0;1;1535351860000;1540921353000;092824;00093;0.0646;0.0646
us-west-1;us-west-1c;m5d.xlarge;02;03;1.0;1;1535351860000;1540921353000;092824;00092;0.0646;0.0646
us-west-1;us-west-1c;m5d.xlarge;02;03;1.0;1;1535351860000;1540921353000;092824;00091;0.0646;0.0646
us-west-1;us-west-1c;m5d.xlarge;02;19;1.0;1;1535407274000;1540921353000;091901;00090;0.0646;0.0646
us-west-1;us-west-1c;m5d.xlarge;03;19;1.0;1;1535493684000;1540921353000;090461;00089;0.0646;0.0646
us-west-1;us-west-1c;m5d.xlarge;03;19;1.0;1;1535493684000;1540921353000;090461;00088;0.0646;0.0646
us-west-1;us-west-1c;m5d.xlarge;04;19;1.0;1;1535580140000;1540921353000;089020;00087;0.0646;0.0646
us-west-1;us-west-1c;m5d.xlarge;05;19;1.0;1;1535666544000;1540921353000;087580;00086;0.0646;0.0646
us-west-1;us-west-1c;m5d.xlarge;06;04;1.0;1;1535699550000;1540921353000;087030;00085;0.0646;0.0646
us-west-1;us-west-1c;m5d.xlarge;07;04;1.0;1;1535785961000;1540921353000;085589;00084;0.0646;0.0646
us-west-1;us-west-1c;m5d.xlarge;07;08;1.0;1;1535803133000;1540921353000;085303;00083;0.0646;0.0646
us-west-1;us-west-1c;m5d.xlarge;01;08;1.0;1;1535889534000;1540921353000;083863;00082;0.0646;0.0646
us-west-1;us-west-1c;m5d.xlarge;02;06;1.0;1;1535968749000;1540921353000;082543;00081;0.0646;0.0646
us-west-1;us-west-1c;m5d.xlarge;02;18;1.0;1;1536011935000;1540921353000;081823;00080;0.0646;0.0646
us-west-1;us-west-1c;m5d.xlarge;03;18;1.0;1;1536098380000;1540921353000;080382;00079;0.0646;0.0646
us-west-1;us-west-1c;m5d.xlarge;04;02;1.0;1;1536127135000;1540921353000;079903;00078;0.0646;0.0646
us-west-1;us-west-1c;m5d.xlarge;05;02;1.0;1;1536213411000;1540921353000;078465;00077;0.0646;0.0646
us-west-1;us-west-1c;m5d.xlarge;05;13;1.0;1;1536253137000;1540921353000;077803;00076;0.0646;0.0646
us-west-1;us-west-1c;m5d.xlarge;06;01;1.0;1;1536296337000;1540921353000;077083;00075;0.0646;0.0646
us-west-1;us-west-1c;m5d.xlarge;06;23;1.0;1;1536375537000;1540921353000;075763;00074;0.0646;0.0646
us-west-1;us-west-1c;m5d.xlarge;07;23;1.0;1;1536461952000;1540921353000;074323;00073;0.0646;0.0646
us-west-1;us-west-1c;m5d.xlarge;01;09;1.0;1;1536497813000;1540921353000;073725;00072;0.0646;0.0646
us-west-1;us-west-1c;m5d.xlarge;01;20;1.0;1;1536537540000;1540921353000;073063;00071;0.0646;0.0646
us-west-1;us-west-1c;m5d.xlarge;01;20;1.0;1;1536537540000;1540921353000;073063;00070;0.0646;0.0646
us-west-1;us-west-1c;m5d.xlarge;02;20;1.0;1;1536623953000;1540921353000;071623;00069;0.0646;0.0646
us-west-1;us-west-1c;m5d.xlarge;02;21;1.0;1;1536624310000;1540921353000;071617;00068;0.0646;0.0646
us-west-1;us-west-1c;m5d.xlarge;03;21;1.0;1;1536710746000;1540921353000;070176;00067;0.0646;0.0646
us-west-1;us-west-1c;m5d.xlarge;04;12;1.0;1;1536766995000;1540921353000;069239;00066;0.0646;0.0646
us-west-1;us-west-1c;m5d.xlarge;05;12;1.0;1;1536853423000;1540921353000;067798;00065;0.0646;0.0646
us-west-1;us-west-1c;m5d.xlarge;05;12;1.0;1;1536853423000;1540921353000;067798;00064;0.0646;0.0646
us-west-1;us-west-1c;m5d.xlarge;05;12;1.0;1;1536853423000;1540921353000;067798;00063;0.0646;0.0646
us-west-1;us-west-1c;m5d.xlarge;05;12;1.0;1;1536853423000;1540921353000;067798;00062;0.0646;0.0646
us-west-1;us-west-1c;m5d.xlarge;05;12;1.0;1;1536853423000;1540921353000;067798;00061;0.0646;0.0646
us-west-1;us-west-1c;m5d.xlarge;06;12;1.0;1;1536939850000;1540921353000;066358;00060;0.0646;0.0646
us-west-1;us-west-1c;m5d.xlarge;07;12;1.0;1;1537026306000;1540921353000;064917;00059;0.0646;0.0646
us-west-1;us-west-1c;m5d.xlarge;07;15;1.0;1;1537036952000;1540921353000;064740;00058;0.0646;0.0646
us-west-1;us-west-1c;m5d.xlarge;01;05;1.0;1;1537087398000;1540921353000;063899;00057;0.0646;0.0646
us-west-1;us-west-1c;m5d.xlarge;02;05;1.0;1;1537173812000;1540921353000;062459;00056;0.0646;0.0646
us-west-1;us-west-1c;m5d.xlarge;02;11;1.0;1;1537195398000;1540921353000;062099;00055;0.0646;0.0646
us-west-1;us-west-1c;m5d.xlarge;03;02;1.0;1;1537249386000;1540921353000;061199;00054;0.0646;0.0646
us-west-1;us-west-1c;m5d.xlarge;03;18;1.0;1;1537304972000;1540921353000;060273;00053;0.0646;0.0646
us-west-1;us-west-1c;m5d.xlarge;04;18;1.0;1;1537391379000;1540921353000;058832;00052;0.0646;0.0646
us-west-1;us-west-1c;m5d.xlarge;05;18;1.0;1;1537477782000;1540921353000;057392;00051;0.0646;0.0646
us-west-1;us-west-1c;m5d.xlarge;06;18;1.0;1;1537564207000;1540921353000;055952;00050;0.0646;0.0646
us-west-1;us-west-1c;m5d.xlarge;07;18;1.0;1;1537650618000;1540921353000;054512;00049;0.0646;0.0646
us-west-1;us-west-1c;m5d.xlarge;01;18;1.0;1;1537737064000;1540921353000;053071;00048;0.0646;0.0646
us-west-1;us-west-1c;m5d.xlarge;02;18;1.0;1;1537823524000;1540921353000;051630;00047;0.0646;0.0646
us-west-1;us-west-1c;m5d.xlarge;03;18;1.0;1;1537909726000;1540921353000;050193;00046;0.0646;0.0646
us-west-1;us-west-1c;m5d.xlarge;04;18;1.0;1;1537996133000;1540921353000;048753;00045;0.0646;0.0646
us-west-1;us-west-1c;m5d.xlarge;05;18;1.0;1;1538082578000;1540921353000;047312;00044;0.0646;0.0646
us-west-1;us-west-1c;m5d.xlarge;06;18;1.0;1;1538169037000;1540921353000;045871;00043;0.0646;0.0646
us-west-1;us-west-1c;m5d.xlarge;07;18;1.0;1;1538255481000;1540921353000;044431;00042;0.0646;0.0646
us-west-1;us-west-1c;m5d.xlarge;01;18;1.0;1;1538341889000;1540921353000;042991;00041;0.0646;0.0646
us-west-1;us-west-1c;m5d.xlarge;01;20;1.0;1;1538350287000;1540921353000;042851;00040;0.0646;0.0646
us-west-1;us-west-1c;m5d.xlarge;02;20;1.0;1;1538436742000;1540921353000;041410;00039;0.0646;0.0646
us-west-1;us-west-1c;m5d.xlarge;03;06;1.0;1;1538472689000;1540921353000;040811;00038;0.0646;0.0646
us-west-1;us-west-1c;m5d.xlarge;04;06;1.0;1;1538559120000;1540921353000;039370;00037;0.0646;0.0646
us-west-1;us-west-1c;m5d.xlarge;04;16;1.0;1;1538595089000;1540921353000;038771;00036;0.0646;0.0646
us-west-1;us-west-1c;m5d.xlarge;05;16;1.0;1;1538681508000;1540921353000;037330;00035;0.0646;0.0646
us-west-1;us-west-1c;m5d.xlarge;06;16;1.0;1;1538767927000;1540921353000;035890;00034;0.0646;0.0646
us-west-1;us-west-1c;m5d.xlarge;07;16;1.0;1;1538854344000;1540921353000;034450;00033;0.0646;0.0646
us-west-1;us-west-1c;m5d.xlarge;01;16;1.0;1;1538940785000;1540921353000;033009;00032;0.0646;0.0646
us-west-1;us-west-1c;m5d.xlarge;02;16;1.0;1;1539027194000;1540921353000;031569;00031;0.0646;0.0646
us-west-1;us-west-1c;m5d.xlarge;03;16;1.0;1;1539113628000;1540921353000;030128;00030;0.0646;0.0646
us-west-1;us-west-1c;m5d.xlarge;04;16;1.0;1;1539200061000;1540921353000;028688;00029;0.0646;0.0646
us-west-1;us-west-1c;m5d.xlarge;05;05;1.0;1;1539248276000;1540921353000;027884;00028;0.0646;0.0646
us-west-1;us-west-1c;m5d.xlarge;06;05;1.0;1;1539334692000;1540921353000;026444;00027;0.0646;0.0646
us-west-1;us-west-1c;m5d.xlarge;06;15;1.0;1;1539370677000;1540921353000;025844;00026;0.0646;0.0646
us-west-1;us-west-1c;m5d.xlarge;07;15;1.0;1;1539457116000;1540921353000;024403;00025;0.0646;0.0646
us-west-1;us-west-1c;m5d.xlarge;07;23;1.0;1;1539485877000;1540921353000;023924;00024;0.0646;0.0646
us-west-1;us-west-1c;m5d.xlarge;01;23;1.0;1;1539572323000;1540921353000;022483;00023;0.0646;0.0646
us-west-1;us-west-1c;m5d.xlarge;02;23;1.0;1;1539658767000;1540921353000;021043;00022;0.0646;0.0646
us-west-1;us-west-1c;m5d.xlarge;03;01;1.0;1;1539665805000;1540921353000;020925;00021;0.0646;0.0646
us-west-1;us-west-1c;m5d.xlarge;03;16;1.0;1;1539719880000;1540921353000;020024;00020;0.0646;0.0646
us-west-1;us-west-1c;m5d.xlarge;04;08;1.0;1;1539777480000;1540921353000;019064;00019;0.0646;0.0646
us-west-1;us-west-1c;m5d.xlarge;05;00;1.0;1;1539835081000;1540921353000;018104;00018;0.0646;0.0646
us-west-1;us-west-1c;m5d.xlarge;05;17;1.0;1;1539896239000;1540921353000;017085;00017;0.0646;0.0646
us-west-1;us-west-1c;m5d.xlarge;06;10;1.0;1;1539957407000;1540921353000;016065;00016;0.0646;0.0646
us-west-1;us-west-1c;m5d.xlarge;07;01;1.0;1;1540010762000;1540921353000;015176;00015;0.0646;0.0646
us-west-1;us-west-1c;m5d.xlarge;01;01;1.0;1;1540097188000;1540921353000;013736;00014;0.0646;0.0646
us-west-1;us-west-1c;m5d.xlarge;01;11;1.0;1;1540133150000;1540921353000;013136;00013;0.0646;0.0646
us-west-1;us-west-1c;m5d.xlarge;02;11;1.0;1;1540219590000;1540921353000;011696;00012;0.0646;0.0646
us-west-1;us-west-1c;m5d.xlarge;02;21;1.0;1;1540255550000;1540921353000;011096;00011;0.0646;0.0646
us-west-1;us-west-1c;m5d.xlarge;03;21;1.0;1;1540341957000;1540921353000;009656;00010;0.0646;0.0646
us-west-1;us-west-1c;m5d.xlarge;04;21;1.0;1;1540426196000;1540921353000;008252;00009;0.0646;0.0646
us-west-1;us-west-1c;m5d.xlarge;04;21;1.0;1;1540426551000;1540921353000;008246;00008;0.0646;0.0646
us-west-1;us-west-1c;m5d.xlarge;05;21;1.0;1;1540512958000;1540921353000;006806;00007;0.0646;0.0646
us-west-1;us-west-1c;m5d.xlarge;06;21;1.0;1;1540599418000;1540921353000;005365;00006;0.0646;0.0646
us-west-1;us-west-1c;m5d.xlarge;07;21;1.0;1;1540685860000;1540921353000;003924;00005;0.0646;0.0646
us-west-1;us-west-1c;m5d.xlarge;01;12;1.0;1;1540741352000;1540921353000;003000;00004;0.0646;0.0646
us-west-1;us-west-1c;m5d.xlarge;02;12;1.0;1;1540827769000;1540921353000;001559;00003;0.0646;0.0646
us-west-1;us-west-1c;m5d.xlarge;02;21;1.0;1;1540860153000;1540921353000;001020;00002;0.0646;0.0646
